EESchema Schematic File Version 4
LIBS:iec-cache
EELAYER 29 0
EELAYER END
$Descr A 11000 8500
encoding utf-8
Sheet 1 1
Title "c64soc IEC Adapter"
Date "2019-06-09"
Rev "01"
Comp "Copyright 2019, David Hunter"
Comment1 ""
Comment2 ""
Comment3 ""
Comment4 ""
$EndDescr
Wire Wire Line
	2850 4700 2300 4700
Connection ~ 2850 4700
Wire Wire Line
	2850 4700 2850 4750
Wire Wire Line
	2850 3700 2400 3700
Connection ~ 2850 3700
Wire Wire Line
	2850 3600 2850 3700
$Comp
L power:PWR_FLAG #FLG02
U 1 1 5C8F951E
P 2850 4750
F 0 "#FLG02" H 2850 4825 50  0001 C CNN
F 1 "PWR_FLAG" H 2850 4923 50  0000 C CNN
F 2 "" H 2850 4750 50  0001 C CNN
F 3 "~" H 2850 4750 50  0001 C CNN
	1    2850 4750
	-1   0    0    1   
$EndComp
$Comp
L power:PWR_FLAG #FLG01
U 1 1 5C8F9504
P 2850 3600
F 0 "#FLG01" H 2850 3675 50  0001 C CNN
F 1 "PWR_FLAG" H 2850 3774 50  0000 C CNN
F 2 "" H 2850 3600 50  0001 C CNN
F 3 "~" H 2850 3600 50  0001 C CNN
	1    2850 3600
	1    0    0    -1  
$EndComp
Text Label 3700 4350 0    50   ~ 0
RST_O
Text Label 3700 4250 0    50   ~ 0
ATN_O
Text Label 3700 4150 0    50   ~ 0
CLK_O
Text Label 3700 4050 0    50   ~ 0
DATA_O
Wire Wire Line
	4000 4250 3150 4250
Wire Wire Line
	4000 4350 3150 4350
Wire Wire Line
	4000 4050 3150 4050
Wire Wire Line
	4000 4150 3150 4150
Wire Wire Line
	3450 3700 2850 3700
Wire Wire Line
	2650 4050 1800 4050
Wire Wire Line
	2400 3700 2400 3600
Connection ~ 2400 3700
Wire Wire Line
	3450 4550 3450 3700
Wire Wire Line
	3150 4550 3450 4550
Wire Wire Line
	2400 4550 2400 3700
Wire Wire Line
	2650 4550 2400 4550
$Comp
L power:+3.3V #PWR05
U 1 1 5C8EF9D2
P 2400 3600
F 0 "#PWR05" H 2400 3450 50  0001 C CNN
F 1 "+3.3V" H 2415 3773 50  0000 C CNN
F 2 "" H 2400 3600 50  0001 C CNN
F 3 "" H 2400 3600 50  0001 C CNN
	1    2400 3600
	1    0    0    -1  
$EndComp
Wire Wire Line
	2300 4700 2300 4450
Connection ~ 2300 4700
Wire Wire Line
	3350 4700 2850 4700
Wire Wire Line
	3350 4450 3350 4700
Wire Wire Line
	3150 4450 3350 4450
Wire Wire Line
	2300 4450 2650 4450
Wire Wire Line
	2300 4750 2300 4700
$Comp
L power:GND #PWR08
U 1 1 5C8EF95E
P 2300 4750
F 0 "#PWR08" H 2300 4500 50  0001 C CNN
F 1 "GND" H 2305 4577 50  0000 C CNN
F 2 "" H 2300 4750 50  0001 C CNN
F 3 "" H 2300 4750 50  0001 C CNN
	1    2300 4750
	1    0    0    -1  
$EndComp
Text Notes 2500 3200 0    50   ~ 0
Digilent Pmod 2x6\nPin 1-4 = P1-4\nPin 7-10 = P7-10\nPin 5,11 = GND\nPin 6,12 = VCC\n\nPin 1 is top-right when\nconn. viewed head-on
$Comp
L Connector_Generic:Conn_02x06_Top_Bottom J2
U 1 1 5C8D72DC
P 2850 4250
F 0 "J2" H 2900 4667 50  0000 C CNN
F 1 "Conn_02x06_Top_Bottom" H 2900 4576 50  0000 C CNN
F 2 "Connector_Custom:PinHeader_2x06_P2.54mm_Horizontal_TopBot" H 2850 4250 50  0001 C CNN
F 3 "~" H 2850 4250 50  0001 C CNN
	1    2850 4250
	1    0    0    -1  
$EndComp
Text Label 850  7200 0    50   ~ 0
DATA_I
Connection ~ 6000 1050
Wire Wire Line
	6000 1050 6550 1050
Text Label 1950 4150 0    50   ~ 0
CLK_I
Text Label 1950 4050 0    50   ~ 0
DATA_I
Text Label 6250 1050 0    50   ~ 0
\DATA
Wire Wire Line
	1100 7200 800  7200
$Comp
L power:GND #PWR014
U 1 1 5CC10B8D
P 1400 7500
F 0 "#PWR014" H 1400 7250 50  0001 C CNN
F 1 "GND" H 1405 7327 50  0000 C CNN
F 2 "" H 1400 7500 50  0001 C CNN
F 3 "" H 1400 7500 50  0001 C CNN
	1    1400 7500
	1    0    0    -1  
$EndComp
Wire Wire Line
	5850 1050 6000 1050
$Comp
L Transistor_FET:BSS138 Q1
U 1 1 5CC20C6E
P 1300 7200
F 0 "Q1" H 1506 7246 50  0000 L CNN
F 1 "BSS138" H 1506 7155 50  0000 L CNN
F 2 "Package_TO_SOT_SMD:SOT-23" H 1500 7125 50  0001 L CIN
F 3 "https://www.fairchildsemi.com/datasheets/BS/BSS138.pdf" H 1300 7200 50  0001 L CNN
	1    1300 7200
	1    0    0    -1  
$EndComp
$Comp
L power:+3.3V #PWR010
U 1 1 5CC2D5AF
P 1400 6000
F 0 "#PWR010" H 1400 5850 50  0001 C CNN
F 1 "+3.3V" H 1415 6173 50  0000 C CNN
F 2 "" H 1400 6000 50  0001 C CNN
F 3 "" H 1400 6000 50  0001 C CNN
	1    1400 6000
	1    0    0    -1  
$EndComp
$Comp
L Device:R_US R5
U 1 1 5CC0CB2C
P 1400 6700
F 0 "R5" H 1468 6746 50  0000 L CNN
F 1 "56" H 1468 6655 50  0000 L CNN
F 2 "Resistor_SMD:R_0603_1608Metric" V 1440 6690 50  0001 C CNN
F 3 "~" H 1400 6700 50  0001 C CNN
	1    1400 6700
	1    0    0    -1  
$EndComp
Text Label 4850 1050 0    50   ~ 0
DATA_O
Wire Wire Line
	4800 1050 5300 1050
Text Label 2050 7200 0    50   ~ 0
CLK_I
Wire Wire Line
	2300 7200 2000 7200
$Comp
L power:GND #PWR015
U 1 1 5CC68E84
P 2600 7500
F 0 "#PWR015" H 2600 7250 50  0001 C CNN
F 1 "GND" H 2605 7327 50  0000 C CNN
F 2 "" H 2600 7500 50  0001 C CNN
F 3 "" H 2600 7500 50  0001 C CNN
	1    2600 7500
	1    0    0    -1  
$EndComp
$Comp
L Transistor_FET:BSS138 Q2
U 1 1 5CC68E8C
P 2500 7200
F 0 "Q2" H 2706 7246 50  0000 L CNN
F 1 "BSS138" H 2706 7155 50  0000 L CNN
F 2 "Package_TO_SOT_SMD:SOT-23" H 2700 7125 50  0001 L CIN
F 3 "https://www.fairchildsemi.com/datasheets/BS/BSS138.pdf" H 2500 7200 50  0001 L CNN
	1    2500 7200
	1    0    0    -1  
$EndComp
Text Label 3250 7200 0    50   ~ 0
ATN_I
Wire Wire Line
	3500 7200 3200 7200
$Comp
L power:GND #PWR016
U 1 1 5CC6B68A
P 3800 7500
F 0 "#PWR016" H 3800 7250 50  0001 C CNN
F 1 "GND" H 3805 7327 50  0000 C CNN
F 2 "" H 3800 7500 50  0001 C CNN
F 3 "" H 3800 7500 50  0001 C CNN
	1    3800 7500
	1    0    0    -1  
$EndComp
$Comp
L Transistor_FET:BSS138 Q3
U 1 1 5CC6B692
P 3700 7200
F 0 "Q3" H 3906 7246 50  0000 L CNN
F 1 "BSS138" H 3906 7155 50  0000 L CNN
F 2 "Package_TO_SOT_SMD:SOT-23" H 3900 7125 50  0001 L CIN
F 3 "https://www.fairchildsemi.com/datasheets/BS/BSS138.pdf" H 3700 7200 50  0001 L CNN
	1    3700 7200
	1    0    0    -1  
$EndComp
Text Label 4500 7200 0    50   ~ 0
RST_I
Wire Wire Line
	4750 7200 4450 7200
$Comp
L power:GND #PWR017
U 1 1 5CC7176A
P 5050 7500
F 0 "#PWR017" H 5050 7250 50  0001 C CNN
F 1 "GND" H 5055 7327 50  0000 C CNN
F 2 "" H 5050 7500 50  0001 C CNN
F 3 "" H 5050 7500 50  0001 C CNN
	1    5050 7500
	1    0    0    -1  
$EndComp
$Comp
L Transistor_FET:BSS138 Q4
U 1 1 5CC71772
P 4950 7200
F 0 "Q4" H 5156 7246 50  0000 L CNN
F 1 "BSS138" H 5156 7155 50  0000 L CNN
F 2 "Package_TO_SOT_SMD:SOT-23" H 5150 7125 50  0001 L CIN
F 3 "https://www.fairchildsemi.com/datasheets/BS/BSS138.pdf" H 4950 7200 50  0001 L CNN
	1    4950 7200
	1    0    0    -1  
$EndComp
Connection ~ 6000 2300
Wire Wire Line
	6000 2300 6550 2300
Text Label 4850 2800 0    50   ~ 0
CLK_I
Text Label 6250 2300 0    50   ~ 0
\CLK
Wire Wire Line
	5850 2300 6000 2300
Text Label 4850 2300 0    50   ~ 0
CLK_O
Wire Wire Line
	4800 2300 5300 2300
Text Label 6250 3550 0    50   ~ 0
\ATN
Text Label 4850 3550 0    50   ~ 0
ATN_O
Wire Wire Line
	4800 3550 5300 3550
Text Label 6250 4800 0    50   ~ 0
\RST
Text Label 4850 4800 0    50   ~ 0
RST_O
Wire Wire Line
	4800 4800 5300 4800
Wire Wire Line
	5850 3550 6000 3550
Wire Wire Line
	5850 4800 6000 4800
Wire Wire Line
	2650 4350 1800 4350
Text Label 4850 5300 0    50   ~ 0
RST_I
Connection ~ 6000 4800
Wire Wire Line
	6000 4800 6550 4800
NoConn ~ 8200 4150
Text Notes 8000 5150 0    50   ~ 0
Commodore IEC serial port\nAll lines 5VTTL, OC, active-low\nPin 1 (\SRQIN) is unimplemented for C64
Text Label 8500 4600 1    50   ~ 0
\RST
Wire Wire Line
	8500 4350 8500 4650
Text Label 9000 3950 0    50   ~ 0
\CLK
Text Label 9000 4150 0    50   ~ 0
\DATA
Wire Wire Line
	8800 4150 9250 4150
Wire Wire Line
	8800 3950 9250 3950
Text Label 8500 3700 1    50   ~ 0
\ATN
Wire Wire Line
	8500 3750 8500 3500
Text Notes 600  2250 0    50   ~ 0
Each “real” IEC device (load) has 1K pull-up to 5V on each I/O line\nIOL = 5mA for one load, 10mA for two loads\n\nOutput (bus driver) buffer criteria:\n- Open-drain outputs\n- VOL max. <= 0.4V (5VTTL) @ IO = 12mA (two loads + 20%)\n- 5V output tolerance: VO max. >= 5.5V\n- Typical prop. delay meets or exceeds 5VTTL: tpd <= Logic\n\nInput (bus receiver) buffer criteria:\n- Push-pull outputs\n- Prop. delay much faster than MOS6526: Tpd << 0.3us\n\nLogic family LVC generally meets these criteria\n\nOptions:\n- TI SN74LVC06ADR (open-drain)\n- Nexperia 74LVC06AD,118 (open-drain)\n- TI SN74LVC2G04 (push-pull), SN74LVC2G06 (open-drain)\n\nWeak pull-ups on bus prevent floating inputs when port is disconnected.
Text Notes 850  6800 0    50   ~ 0
If=20mA\nVf=2.1V
Text Notes 800  5500 0    50   ~ 0
Set all LEDs at 50mcd
$Comp
L power:+3.3V #PWR011
U 1 1 5CC68E93
P 2600 6000
F 0 "#PWR011" H 2600 5850 50  0001 C CNN
F 1 "+3.3V" H 2615 6173 50  0000 C CNN
F 2 "" H 2600 6000 50  0001 C CNN
F 3 "" H 2600 6000 50  0001 C CNN
	1    2600 6000
	1    0    0    -1  
$EndComp
$Comp
L Device:R_US R6
U 1 1 5CC68E99
P 2600 6700
F 0 "R6" H 2668 6746 50  0000 L CNN
F 1 "220" H 2668 6655 50  0000 L CNN
F 2 "Resistor_SMD:R_0603_1608Metric" V 2640 6690 50  0001 C CNN
F 3 "~" H 2600 6700 50  0001 C CNN
	1    2600 6700
	1    0    0    -1  
$EndComp
$Comp
L power:+3.3V #PWR012
U 1 1 5CC6B699
P 3800 6000
F 0 "#PWR012" H 3800 5850 50  0001 C CNN
F 1 "+3.3V" H 3815 6173 50  0000 C CNN
F 2 "" H 3800 6000 50  0001 C CNN
F 3 "" H 3800 6000 50  0001 C CNN
	1    3800 6000
	1    0    0    -1  
$EndComp
$Comp
L Device:R_US R7
U 1 1 5CC6B69F
P 3800 6700
F 0 "R7" H 3868 6746 50  0000 L CNN
F 1 "33" H 3868 6655 50  0000 L CNN
F 2 "Resistor_SMD:R_0603_1608Metric" V 3840 6690 50  0001 C CNN
F 3 "~" H 3800 6700 50  0001 C CNN
	1    3800 6700
	1    0    0    -1  
$EndComp
$Comp
L power:+3.3V #PWR013
U 1 1 5CC71779
P 5050 6000
F 0 "#PWR013" H 5050 5850 50  0001 C CNN
F 1 "+3.3V" H 5065 6173 50  0000 C CNN
F 2 "" H 5050 6000 50  0001 C CNN
F 3 "" H 5050 6000 50  0001 C CNN
	1    5050 6000
	1    0    0    -1  
$EndComp
$Comp
L Device:R_US R8
U 1 1 5CC7177F
P 5050 6700
F 0 "R8" H 5118 6746 50  0000 L CNN
F 1 "150" H 5118 6655 50  0000 L CNN
F 2 "Resistor_SMD:R_0603_1608Metric" V 5090 6690 50  0001 C CNN
F 3 "~" H 5050 6700 50  0001 C CNN
	1    5050 6700
	1    0    0    -1  
$EndComp
Text Notes 2050 6800 0    50   ~ 0
If=7mA\nVf=1.92V
Text Notes 3250 6800 0    50   ~ 0
If=10mA\nVf=3.0V
Text Notes 4500 6800 0    50   ~ 0
If=10mA\nVf=1.8V
$Comp
L Connector:DIN-6 J1
U 1 1 5CCA6F0A
P 8500 4050
F 0 "J1" H 8250 4500 50  0000 C CNN
F 1 "DIN-6" H 8250 4400 50  0000 C CNN
F 2 "Connector:CUI_SDS-60J" H 8500 4050 50  0001 C CNN
F 3 "http://www.mouser.com/ds/2/18/40_c091_abd_e-75918.pdf" H 8500 4050 50  0001 C CNN
	1    8500 4050
	1    0    0    -1  
$EndComp
Wire Wire Line
	8200 3950 7950 3950
Wire Wire Line
	1800 4150 2650 4150
Text Label 1950 4350 0    50   ~ 0
RST_I
$Comp
L 74xGxx:74LVC2G04 U2
U 2 1 5CEA7CF5
P 5550 1550
F 0 "U2" H 5525 1817 50  0000 C CNN
F 1 "74LVC2G04" H 5525 1726 50  0000 C CNN
F 2 "Package_TO_SOT_SMD:SOT-23-6" H 5550 1550 50  0001 C CNN
F 3 "http://www.ti.com/lit/sg/scyt129e/scyt129e.pdf" H 5550 1550 50  0001 C CNN
	2    5550 1550
	-1   0    0    -1  
$EndComp
Text Label 4850 1550 0    50   ~ 0
DATA_I
Wire Wire Line
	4800 1550 5300 1550
Wire Wire Line
	6000 1550 5850 1550
Wire Wire Line
	6000 1050 6000 1550
$Comp
L 74xGxx:74LVC2G04 U2
U 1 1 5CEB41B3
P 5550 2800
F 0 "U2" H 5525 3067 50  0000 C CNN
F 1 "74LVC2G04" H 5525 2976 50  0000 C CNN
F 2 "Package_TO_SOT_SMD:SOT-23-6" H 5550 2800 50  0001 C CNN
F 3 "http://www.ti.com/lit/sg/scyt129e/scyt129e.pdf" H 5550 2800 50  0001 C CNN
	1    5550 2800
	-1   0    0    -1  
$EndComp
Wire Wire Line
	6000 2800 5850 2800
Wire Wire Line
	6000 2300 6000 2800
Wire Wire Line
	5300 2800 4800 2800
$Comp
L 74xGxx:74LVC2G04 U4
U 1 1 5CEBDCB7
P 5550 5300
F 0 "U4" H 5525 5567 50  0000 C CNN
F 1 "74LVC2G04" H 5525 5476 50  0000 C CNN
F 2 "Package_TO_SOT_SMD:SOT-23-6" H 5550 5300 50  0001 C CNN
F 3 "http://www.ti.com/lit/sg/scyt129e/scyt129e.pdf" H 5550 5300 50  0001 C CNN
	1    5550 5300
	-1   0    0    -1  
$EndComp
Wire Wire Line
	5300 5300 4800 5300
Wire Wire Line
	5850 5300 6000 5300
Wire Wire Line
	6000 4800 6000 5300
$Comp
L 74xGxx:74LVC2G04 U4
U 2 1 5CEC94F4
P 5550 4050
F 0 "U4" H 5525 4317 50  0000 C CNN
F 1 "74LVC2G04" H 5525 4226 50  0000 C CNN
F 2 "Package_TO_SOT_SMD:SOT-23-6" H 5550 4050 50  0001 C CNN
F 3 "http://www.ti.com/lit/sg/scyt129e/scyt129e.pdf" H 5550 4050 50  0001 C CNN
	2    5550 4050
	-1   0    0    -1  
$EndComp
Wire Wire Line
	1800 4250 2650 4250
Text Label 1950 4250 0    50   ~ 0
ATN_I
Wire Wire Line
	5300 4050 4800 4050
Wire Wire Line
	5850 4050 6000 4050
Wire Wire Line
	6000 4050 6000 3550
Connection ~ 6000 3550
Wire Wire Line
	6000 3550 6550 3550
Text Label 4850 4050 0    50   ~ 0
ATN_I
$Comp
L Device:C C2
U 1 1 5CED7696
P 8650 2050
F 0 "C2" H 8742 2096 50  0000 L CNN
F 1 "0.1uF" H 8742 2005 50  0000 L CNN
F 2 "Capacitor_SMD:C_0603_1608Metric" H 8650 2050 50  0001 C CNN
F 3 "~" H 8650 2050 50  0001 C CNN
	1    8650 2050
	1    0    0    -1  
$EndComp
Wire Wire Line
	8650 1800 8650 1900
$Comp
L power:GND #PWR03
U 1 1 5CEDF308
P 8200 2400
F 0 "#PWR03" H 8200 2150 50  0001 C CNN
F 1 "GND" V 8205 2272 50  0000 R CNN
F 2 "" H 8200 2400 50  0001 C CNN
F 3 "" H 8200 2400 50  0001 C CNN
	1    8200 2400
	1    0    0    -1  
$EndComp
$Comp
L power:+3.3V #PWR02
U 1 1 5CEEB884
P 8200 1700
F 0 "#PWR02" H 8200 1550 50  0001 C CNN
F 1 "+3.3V" H 8215 1873 50  0000 C CNN
F 2 "" H 8200 1700 50  0001 C CNN
F 3 "" H 8200 1700 50  0001 C CNN
	1    8200 1700
	1    0    0    -1  
$EndComp
Wire Wire Line
	8200 1800 8650 1800
Wire Wire Line
	8200 1900 8200 1800
Wire Wire Line
	8200 1700 8200 1800
Connection ~ 8200 1800
Wire Wire Line
	8650 2300 8650 2200
Wire Wire Line
	8200 2300 8200 2400
Wire Wire Line
	8200 2200 8200 2300
Connection ~ 8200 2300
Wire Wire Line
	8200 2300 8650 2300
$Comp
L Device:C C1
U 1 1 5CF25D86
P 8200 2050
F 0 "C1" H 8292 2096 50  0000 L CNN
F 1 "0.1uF" H 8292 2005 50  0000 L CNN
F 2 "Capacitor_SMD:C_0603_1608Metric" H 8200 2050 50  0001 C CNN
F 3 "~" H 8200 2050 50  0001 C CNN
	1    8200 2050
	1    0    0    -1  
$EndComp
Text Label 7900 1800 0    50   ~ 0
VCC
Text Notes 8450 1600 0    50   ~ 0
Gate power, bypass caps
Wire Wire Line
	1400 7400 1400 7500
Wire Wire Line
	2600 7400 2600 7500
Wire Wire Line
	3800 7400 3800 7500
Wire Wire Line
	5050 7400 5050 7500
$Comp
L Device:LED D4
U 1 1 5CC71764
P 5050 6200
F 0 "D4" V 5089 6082 50  0000 R CNN
F 1 "RED,1.85V,20mA,30mcd" V 4998 6082 50  0000 R CNN
F 2 "LED_SMD:LED_0603_1608Metric" H 5050 6200 50  0001 C CNN
F 3 "~" H 5050 6200 50  0001 C CNN
	1    5050 6200
	0    -1   -1   0   
$EndComp
$Comp
L Device:LED D3
U 1 1 5CC6B684
P 3800 6200
F 0 "D3" V 3839 6082 50  0000 R CNN
F 1 "BLU,3.3V,20mA,100mcd" V 3748 6082 50  0000 R CNN
F 2 "LED_SMD:LED_0603_1608Metric" H 3800 6200 50  0001 C CNN
F 3 "~" H 3800 6200 50  0001 C CNN
	1    3800 6200
	0    -1   -1   0   
$EndComp
$Comp
L Device:LED D2
U 1 1 5CC68E7E
P 2600 6200
F 0 "D2" V 2639 6082 50  0000 R CNN
F 1 "YLW,2V,20mA,150mcd" V 2548 6082 50  0000 R CNN
F 2 "LED_SMD:LED_0603_1608Metric" H 2600 6200 50  0001 C CNN
F 3 "~" H 2600 6200 50  0001 C CNN
	1    2600 6200
	0    -1   -1   0   
$EndComp
$Comp
L Device:LED D1
U 1 1 5CC0F654
P 1400 6200
F 0 "D1" V 1439 6083 50  0000 R CNN
F 1 "GRN,2.1V,20mA,50mcd" V 1348 6083 50  0000 R CNN
F 2 "LED_SMD:LED_0603_1608Metric" H 1400 6200 50  0001 C CNN
F 3 "~" H 1400 6200 50  0001 C CNN
	1    1400 6200
	0    -1   -1   0   
$EndComp
Wire Wire Line
	1400 6000 1400 6050
Wire Wire Line
	2600 6000 2600 6050
Wire Wire Line
	3800 6000 3800 6050
Wire Wire Line
	5050 6000 5050 6050
Wire Wire Line
	1400 6350 1400 6550
Wire Wire Line
	2600 6350 2600 6550
Wire Wire Line
	1400 6850 1400 7000
Wire Wire Line
	2600 6850 2600 7000
Wire Wire Line
	3800 6850 3800 7000
Wire Wire Line
	5050 6850 5050 7000
Wire Wire Line
	5050 6550 5050 6350
Wire Wire Line
	3800 6550 3800 6350
$Comp
L Device:C C3
U 1 1 5D0178E7
P 9100 2050
F 0 "C3" H 9192 2096 50  0000 L CNN
F 1 "0.1uF" H 9192 2005 50  0000 L CNN
F 2 "Capacitor_SMD:C_0603_1608Metric" H 9100 2050 50  0001 C CNN
F 3 "~" H 9100 2050 50  0001 C CNN
	1    9100 2050
	1    0    0    -1  
$EndComp
$Comp
L Device:C C4
U 1 1 5D017CB3
P 9550 2050
F 0 "C4" H 9642 2096 50  0000 L CNN
F 1 "0.1uF" H 9642 2005 50  0000 L CNN
F 2 "Capacitor_SMD:C_0603_1608Metric" H 9550 2050 50  0001 C CNN
F 3 "~" H 9550 2050 50  0001 C CNN
	1    9550 2050
	1    0    0    -1  
$EndComp
Wire Wire Line
	8650 1800 9100 1800
Wire Wire Line
	9550 1800 9550 1900
Connection ~ 8650 1800
Wire Wire Line
	9550 2200 9550 2300
Wire Wire Line
	9550 2300 9100 2300
Connection ~ 8650 2300
Wire Wire Line
	9100 2200 9100 2300
Connection ~ 9100 2300
Wire Wire Line
	9100 2300 8650 2300
Wire Wire Line
	9100 1900 9100 1800
Connection ~ 9100 1800
Wire Wire Line
	9100 1800 9550 1800
Wire Wire Line
	8200 1800 7900 1800
$Comp
L Device:R_US R3
U 1 1 5D071F89
P 6300 4050
F 0 "R3" V 6095 4050 50  0000 C CNN
F 1 "100K" V 6186 4050 50  0000 C CNN
F 2 "Resistor_SMD:R_0603_1608Metric" V 6340 4040 50  0001 C CNN
F 3 "~" H 6300 4050 50  0001 C CNN
	1    6300 4050
	0    1    1    0   
$EndComp
Wire Wire Line
	6000 4050 6150 4050
Connection ~ 6000 4050
$Comp
L power:+3.3V #PWR06
U 1 1 5D076C34
P 6450 4050
F 0 "#PWR06" H 6450 3900 50  0001 C CNN
F 1 "+3.3V" H 6465 4223 50  0000 C CNN
F 2 "" H 6450 4050 50  0001 C CNN
F 3 "" H 6450 4050 50  0001 C CNN
	1    6450 4050
	0    1    1    0   
$EndComp
$Comp
L Device:R_US R4
U 1 1 5D0855BE
P 6300 5300
F 0 "R4" V 6095 5300 50  0000 C CNN
F 1 "100K" V 6186 5300 50  0000 C CNN
F 2 "Resistor_SMD:R_0603_1608Metric" V 6340 5290 50  0001 C CNN
F 3 "~" H 6300 5300 50  0001 C CNN
	1    6300 5300
	0    1    1    0   
$EndComp
Wire Wire Line
	6000 5300 6150 5300
$Comp
L power:+3.3V #PWR09
U 1 1 5D0855C5
P 6450 5300
F 0 "#PWR09" H 6450 5150 50  0001 C CNN
F 1 "+3.3V" H 6465 5473 50  0000 C CNN
F 2 "" H 6450 5300 50  0001 C CNN
F 3 "" H 6450 5300 50  0001 C CNN
	1    6450 5300
	0    1    1    0   
$EndComp
$Comp
L Device:R_US R2
U 1 1 5D087EEC
P 6300 2800
F 0 "R2" V 6095 2800 50  0000 C CNN
F 1 "100K" V 6186 2800 50  0000 C CNN
F 2 "Resistor_SMD:R_0603_1608Metric" V 6340 2790 50  0001 C CNN
F 3 "~" H 6300 2800 50  0001 C CNN
	1    6300 2800
	0    1    1    0   
$EndComp
Wire Wire Line
	6000 2800 6150 2800
$Comp
L power:+3.3V #PWR04
U 1 1 5D087EF3
P 6450 2800
F 0 "#PWR04" H 6450 2650 50  0001 C CNN
F 1 "+3.3V" H 6465 2973 50  0000 C CNN
F 2 "" H 6450 2800 50  0001 C CNN
F 3 "" H 6450 2800 50  0001 C CNN
	1    6450 2800
	0    1    1    0   
$EndComp
$Comp
L Device:R_US R1
U 1 1 5D08AF46
P 6300 1550
F 0 "R1" V 6095 1550 50  0000 C CNN
F 1 "100K" V 6186 1550 50  0000 C CNN
F 2 "Resistor_SMD:R_0603_1608Metric" V 6340 1540 50  0001 C CNN
F 3 "~" H 6300 1550 50  0001 C CNN
	1    6300 1550
	0    1    1    0   
$EndComp
Wire Wire Line
	6000 1550 6150 1550
$Comp
L power:+3.3V #PWR01
U 1 1 5D08AF4D
P 6450 1550
F 0 "#PWR01" H 6450 1400 50  0001 C CNN
F 1 "+3.3V" H 6465 1723 50  0000 C CNN
F 2 "" H 6450 1550 50  0001 C CNN
F 3 "" H 6450 1550 50  0001 C CNN
	1    6450 1550
	0    1    1    0   
$EndComp
$Comp
L Connector:TestPoint TP1
U 1 1 5D096F6E
P 7800 3950
F 0 "TP1" V 7995 4022 50  0000 C CNN
F 1 "TestPoint" V 7904 4022 50  0000 C CNN
F 2 "Connector_Pin:Pin_D1.0mm_L10.0mm" H 8000 3950 50  0001 C CNN
F 3 "~" H 8000 3950 50  0001 C CNN
	1    7800 3950
	0    -1   -1   0   
$EndComp
Wire Wire Line
	7800 3950 7950 3950
Connection ~ 7950 3950
Wire Wire Line
	7950 3950 7950 4500
$Comp
L power:GND #PWR07
U 1 1 5CCAFE27
P 7950 4500
F 0 "#PWR07" H 7950 4250 50  0001 C CNN
F 1 "GND" V 7955 4372 50  0000 R CNN
F 2 "" H 7950 4500 50  0001 C CNN
F 3 "" H 7950 4500 50  0001 C CNN
	1    7950 4500
	1    0    0    -1  
$EndComp
$Comp
L 74xGxx:74LVC2G06 U1
U 2 1 5D37584D
P 5600 1050
F 0 "U1" H 5575 1317 50  0000 C CNN
F 1 "74LVC2G06" H 5575 1226 50  0000 C CNN
F 2 "Package_TO_SOT_SMD:SOT-23-6" H 5600 1050 50  0001 C CNN
F 3 "http://www.ti.com/lit/sg/scyt129e/scyt129e.pdf" H 5600 1050 50  0001 C CNN
	2    5600 1050
	1    0    0    -1  
$EndComp
$Comp
L 74xGxx:74LVC2G06 U1
U 1 1 5D376CC4
P 5600 2300
F 0 "U1" H 5575 2567 50  0000 C CNN
F 1 "74LVC2G06" H 5575 2476 50  0000 C CNN
F 2 "Package_TO_SOT_SMD:SOT-23-6" H 5600 2300 50  0001 C CNN
F 3 "http://www.ti.com/lit/sg/scyt129e/scyt129e.pdf" H 5600 2300 50  0001 C CNN
	1    5600 2300
	1    0    0    -1  
$EndComp
$Comp
L 74xGxx:74LVC2G06 U3
U 2 1 5D377E15
P 5600 3550
F 0 "U3" H 5575 3817 50  0000 C CNN
F 1 "74LVC2G06" H 5575 3726 50  0000 C CNN
F 2 "Package_TO_SOT_SMD:SOT-23-6" H 5600 3550 50  0001 C CNN
F 3 "http://www.ti.com/lit/sg/scyt129e/scyt129e.pdf" H 5600 3550 50  0001 C CNN
	2    5600 3550
	1    0    0    -1  
$EndComp
$Comp
L 74xGxx:74LVC2G06 U3
U 1 1 5D379BF4
P 5600 4800
F 0 "U3" H 5575 5067 50  0000 C CNN
F 1 "74LVC2G06" H 5575 4976 50  0000 C CNN
F 2 "Package_TO_SOT_SMD:SOT-23-6" H 5600 4800 50  0001 C CNN
F 3 "http://www.ti.com/lit/sg/scyt129e/scyt129e.pdf" H 5600 4800 50  0001 C CNN
	1    5600 4800
	1    0    0    -1  
$EndComp
$EndSCHEMATC
