(kicad_pcb (version 20171130) (host pcbnew "(5.1.0-0)")

  (general
    (thickness 1.5748)
    (drawings 13)
    (tracks 237)
    (zones 0)
    (modules 22)
    (nets 22)
  )

  (page USLetter)
  (title_block
    (title "c64soc IEC Adapter")
    (date 2019-05-04)
    (rev 00)
    (company "Copyright 2019, David Hunter")
  )

  (layers
    (0 F.Cu signal)
    (31 B.Cu signal hide)
    (36 B.SilkS user hide)
    (37 F.SilkS user)
    (38 B.Mask user hide)
    (39 F.Mask user)
    (44 Edge.Cuts user)
    (45 Margin user hide)
    (46 B.CrtYd user hide)
    (47 F.CrtYd user hide)
    (48 B.Fab user hide)
    (49 F.Fab user hide)
  )

  (setup
    (last_trace_width 0.2032)
    (trace_clearance 0.2032)
    (zone_clearance 0.508)
    (zone_45_only no)
    (trace_min 0.2032)
    (via_size 0.7366)
    (via_drill 0.3302)
    (via_min_size 0.7366)
    (via_min_drill 0.3302)
    (uvia_size 0.3)
    (uvia_drill 0.1)
    (uvias_allowed no)
    (uvia_min_size 0.2)
    (uvia_min_drill 0.1)
    (edge_width 0.1)
    (segment_width 0.2)
    (pcb_text_width 0.3)
    (pcb_text_size 1.5 1.5)
    (mod_edge_width 0.15)
    (mod_text_size 1 1)
    (mod_text_width 0.15)
    (pad_size 1.524 1.524)
    (pad_drill 0.762)
    (pad_to_mask_clearance 0.0508)
    (solder_mask_min_width 0.254)
    (aux_axis_origin 107.95 106.045)
    (grid_origin 107.95 106.045)
    (visible_elements FFFDFF7F)
    (pcbplotparams
      (layerselection 0x010f0_ffffffff)
      (usegerberextensions false)
      (usegerberattributes false)
      (usegerberadvancedattributes false)
      (creategerberjobfile false)
      (excludeedgelayer true)
      (linewidth 0.100000)
      (plotframeref false)
      (viasonmask true)
      (mode 1)
      (useauxorigin true)
      (hpglpennumber 1)
      (hpglpenspeed 20)
      (hpglpendiameter 15.000000)
      (psnegative false)
      (psa4output false)
      (plotreference true)
      (plotvalue true)
      (plotinvisibletext false)
      (padsonsilk false)
      (subtractmaskfromsilk false)
      (outputformat 1)
      (mirror false)
      (drillshape 0)
      (scaleselection 1)
      (outputdirectory "00/"))
  )

  (net 0 "")
  (net 1 +3V3)
  (net 2 GND)
  (net 3 "Net-(D1-Pad2)")
  (net 4 "Net-(D2-Pad2)")
  (net 5 "Net-(D3-Pad2)")
  (net 6 "Net-(D4-Pad2)")
  (net 7 /\ATN)
  (net 8 /\CLK)
  (net 9 /\DATA)
  (net 10 /\RST)
  (net 11 /DATA_O)
  (net 12 "Net-(Q1-Pad3)")
  (net 13 "Net-(Q2-Pad3)")
  (net 14 /CLK_O)
  (net 15 /ATN_O)
  (net 16 "Net-(Q3-Pad3)")
  (net 17 "Net-(Q4-Pad3)")
  (net 18 /RST_O)
  (net 19 /\DATA_I)
  (net 20 /\CLK_I)
  (net 21 /\RST_I)

  (net_class Default "This is the default net class."
    (clearance 0.2032)
    (trace_width 0.2032)
    (via_dia 0.7366)
    (via_drill 0.3302)
    (uvia_dia 0.3)
    (uvia_drill 0.1)
    (diff_pair_width 0.254)
    (diff_pair_gap 0.254)
    (add_net /ATN_O)
    (add_net /CLK_O)
    (add_net /DATA_O)
    (add_net /RST_O)
    (add_net /\ATN)
    (add_net /\CLK)
    (add_net /\CLK_I)
    (add_net /\DATA)
    (add_net /\DATA_I)
    (add_net /\RST)
    (add_net /\RST_I)
    (add_net "Net-(D1-Pad2)")
    (add_net "Net-(D2-Pad2)")
    (add_net "Net-(D3-Pad2)")
    (add_net "Net-(D4-Pad2)")
    (add_net "Net-(Q1-Pad3)")
    (add_net "Net-(Q2-Pad3)")
    (add_net "Net-(Q3-Pad3)")
    (add_net "Net-(Q4-Pad3)")
  )

  (net_class Power ""
    (clearance 0.381)
    (trace_width 0.381)
    (via_dia 0.7366)
    (via_drill 0.3302)
    (uvia_dia 0.3)
    (uvia_drill 0.1)
    (diff_pair_width 0.254)
    (diff_pair_gap 0.254)
    (add_net +3V3)
    (add_net GND)
  )

  (module Connector:CUI_SDS-60J locked (layer F.Cu) (tedit 5CCD20DE) (tstamp 5CCBE516)
    (at 131.605 104.855 90)
    (descr "9-pin standard DIN receptacle, 240 degree, right angle")
    (tags DIN)
    (path /5CCA6F0A)
    (fp_text reference J2 (at -16.303 -4.351 90) (layer F.SilkS)
      (effects (font (size 1 1) (thickness 0.15)))
    )
    (fp_text value DIN-6 (at -7.5 14 90) (layer F.Fab)
      (effects (font (size 1 1) (thickness 0.15)))
    )
    (fp_text user "2x mounting PTH" (at -7.5 10 90) (layer Dwgs.User)
      (effects (font (size 1 1) (thickness 0.15)))
    )
    (fp_text user %R (at -7.5 5 90) (layer F.Fab)
      (effects (font (size 1 1) (thickness 0.15)))
    )
    (fp_line (start 1.5 -1.5) (end 1.5 1) (layer F.Fab) (width 0.1))
    (fp_line (start -1 -1.5) (end 1.5 -1.5) (layer F.Fab) (width 0.1))
    (fp_line (start 2.5 -3) (end 2.5 12.5) (layer F.Fab) (width 0.1))
    (fp_line (start -17.5 11.5) (end 2.5 11.5) (layer F.Fab) (width 0.1))
    (fp_line (start -17.5 12.5) (end -17.5 -3) (layer F.Fab) (width 0.1))
    (fp_line (start -17.5 -3) (end 2.5 -3) (layer F.Fab) (width 0.1))
    (fp_line (start 2.5 12.5) (end -17.5 12.5) (layer F.Fab) (width 0.1))
    (fp_line (start -18 13) (end -18 -6.5) (layer F.CrtYd) (width 0.05))
    (fp_line (start 3 13) (end -18 13) (layer F.CrtYd) (width 0.05))
    (fp_line (start 3 -6.5) (end 3 13) (layer F.CrtYd) (width 0.05))
    (fp_line (start -18 -6.5) (end 3 -6.5) (layer F.CrtYd) (width 0.05))
    (fp_line (start -4 -3.1) (end -11 -3.1) (layer F.SilkS) (width 0.15))
    (fp_line (start 2.6 -3.1) (end -1 -3.1) (layer F.SilkS) (width 0.15))
    (fp_line (start -17.6 -3.1) (end -14 -3.1) (layer F.SilkS) (width 0.15))
    (fp_line (start 2.6 -3.1) (end 2.6 12.6) (layer F.SilkS) (width 0.15))
    (fp_line (start -17.6 12.6) (end -17.6 -3.1) (layer F.SilkS) (width 0.15))
    (fp_line (start 2.6 11.5) (end -17.6 11.5) (layer F.SilkS) (width 0.15))
    (fp_line (start -17.6 12.6) (end 2.6 12.6) (layer F.SilkS) (width 0.15))
    (pad 6 thru_hole circle (at -7.5 -5 90) (size 2 2) (drill 1.3) (layers *.Cu *.Mask)
      (net 10 /\RST))
    (pad 5 thru_hole circle (at -15 0 90) (size 2 2) (drill 1.3) (layers *.Cu *.Mask)
      (net 9 /\DATA))
    (pad 4 thru_hole circle (at -12.5 -2.5 90) (size 2 2) (drill 1.3) (layers *.Cu *.Mask)
      (net 8 /\CLK))
    (pad 3 thru_hole circle (at -7.5 0 90) (size 2 2) (drill 1.3) (layers *.Cu *.Mask)
      (net 7 /\ATN))
    (pad 2 thru_hole circle (at -2.5 -2.5 90) (size 2 2) (drill 1.3) (layers *.Cu *.Mask)
      (net 2 GND))
    (pad 1 thru_hole rect (at 0 0 90) (size 2 2) (drill 1.3) (layers *.Cu *.Mask))
    (pad "" thru_hole circle (at -5 10 90) (size 2 2) (drill 1.3) (layers *.Cu *.Mask))
    (pad "" thru_hole circle (at -10 10 90) (size 2 2) (drill 1.3) (layers *.Cu *.Mask))
    (pad "" np_thru_hole circle (at 0 5 90) (size 2.4 2.4) (drill 2.4) (layers *.Cu *.Mask))
    (pad "" np_thru_hole circle (at -15 5 90) (size 2.4 2.4) (drill 2.4) (layers *.Cu *.Mask))
    (model ${KIUSR3DMOD}/Connector.3dshapes/SDS-60J.step
      (at (xyz 0 0 0))
      (scale (xyz 1 1 1))
      (rotate (xyz 0 0 0))
    )
  )

  (module Capacitor_SMD:C_0603_1608Metric locked (layer F.Cu) (tedit 5B301BBE) (tstamp 5CCBEADC)
    (at 122.555 105.2575 270)
    (descr "Capacitor SMD 0603 (1608 Metric), square (rectangular) end terminal, IPC_7351 nominal, (Body size source: http://www.tortai-tech.com/upload/download/2011102023233369053.pdf), generated with kicad-footprint-generator")
    (tags capacitor)
    (path /5CBF8855)
    (attr smd)
    (fp_text reference C1 (at 2.4385 -0.127 270) (layer F.SilkS)
      (effects (font (size 1 1) (thickness 0.15)))
    )
    (fp_text value 1uF (at 0 1.43 270) (layer F.Fab)
      (effects (font (size 1 1) (thickness 0.15)))
    )
    (fp_line (start -0.8 0.4) (end -0.8 -0.4) (layer F.Fab) (width 0.1))
    (fp_line (start -0.8 -0.4) (end 0.8 -0.4) (layer F.Fab) (width 0.1))
    (fp_line (start 0.8 -0.4) (end 0.8 0.4) (layer F.Fab) (width 0.1))
    (fp_line (start 0.8 0.4) (end -0.8 0.4) (layer F.Fab) (width 0.1))
    (fp_line (start -0.162779 -0.51) (end 0.162779 -0.51) (layer F.SilkS) (width 0.12))
    (fp_line (start -0.162779 0.51) (end 0.162779 0.51) (layer F.SilkS) (width 0.12))
    (fp_line (start -1.48 0.73) (end -1.48 -0.73) (layer F.CrtYd) (width 0.05))
    (fp_line (start -1.48 -0.73) (end 1.48 -0.73) (layer F.CrtYd) (width 0.05))
    (fp_line (start 1.48 -0.73) (end 1.48 0.73) (layer F.CrtYd) (width 0.05))
    (fp_line (start 1.48 0.73) (end -1.48 0.73) (layer F.CrtYd) (width 0.05))
    (fp_text user %R (at 0 0 270) (layer F.Fab)
      (effects (font (size 0.4 0.4) (thickness 0.06)))
    )
    (pad 1 smd roundrect (at -0.7875 0 270) (size 0.875 0.95) (layers F.Cu F.Paste F.Mask) (roundrect_rratio 0.25)
      (net 1 +3V3))
    (pad 2 smd roundrect (at 0.7875 0 270) (size 0.875 0.95) (layers F.Cu F.Paste F.Mask) (roundrect_rratio 0.25)
      (net 2 GND))
    (model ${KISYS3DMOD}/Capacitor_SMD.3dshapes/C_0603_1608Metric.wrl
      (at (xyz 0 0 0))
      (scale (xyz 1 1 1))
      (rotate (xyz 0 0 0))
    )
  )

  (module LED_SMD:LED_0603_1608Metric locked (layer F.Cu) (tedit 5B301BBE) (tstamp 5CC8C550)
    (at 113.03 121.158 90)
    (descr "LED SMD 0603 (1608 Metric), square (rectangular) end terminal, IPC_7351 nominal, (Body size source: http://www.tortai-tech.com/upload/download/2011102023233369053.pdf), generated with kicad-footprint-generator")
    (tags diode)
    (path /5CC0F654)
    (attr smd)
    (fp_text reference D1 (at 2.159 0.094 180) (layer F.SilkS)
      (effects (font (size 1 1) (thickness 0.15)))
    )
    (fp_text value GRN,2.1V,20mA,50mcd (at 0 1.43 90) (layer F.Fab)
      (effects (font (size 1 1) (thickness 0.15)))
    )
    (fp_line (start 0.8 -0.4) (end -0.5 -0.4) (layer F.Fab) (width 0.1))
    (fp_line (start -0.5 -0.4) (end -0.8 -0.1) (layer F.Fab) (width 0.1))
    (fp_line (start -0.8 -0.1) (end -0.8 0.4) (layer F.Fab) (width 0.1))
    (fp_line (start -0.8 0.4) (end 0.8 0.4) (layer F.Fab) (width 0.1))
    (fp_line (start 0.8 0.4) (end 0.8 -0.4) (layer F.Fab) (width 0.1))
    (fp_line (start 0.8 -0.735) (end -1.485 -0.735) (layer F.SilkS) (width 0.12))
    (fp_line (start -1.485 -0.735) (end -1.485 0.735) (layer F.SilkS) (width 0.12))
    (fp_line (start -1.485 0.735) (end 0.8 0.735) (layer F.SilkS) (width 0.12))
    (fp_line (start -1.48 0.73) (end -1.48 -0.73) (layer F.CrtYd) (width 0.05))
    (fp_line (start -1.48 -0.73) (end 1.48 -0.73) (layer F.CrtYd) (width 0.05))
    (fp_line (start 1.48 -0.73) (end 1.48 0.73) (layer F.CrtYd) (width 0.05))
    (fp_line (start 1.48 0.73) (end -1.48 0.73) (layer F.CrtYd) (width 0.05))
    (fp_text user %R (at 0 0 90) (layer F.Fab)
      (effects (font (size 0.4 0.4) (thickness 0.06)))
    )
    (pad 1 smd roundrect (at -0.7875 0 90) (size 0.875 0.95) (layers F.Cu F.Paste F.Mask) (roundrect_rratio 0.25)
      (net 2 GND))
    (pad 2 smd roundrect (at 0.7875 0 90) (size 0.875 0.95) (layers F.Cu F.Paste F.Mask) (roundrect_rratio 0.25)
      (net 3 "Net-(D1-Pad2)"))
    (model ${KISYS3DMOD}/LED_SMD.3dshapes/LED_0603_1608Metric.wrl
      (at (xyz 0 0 0))
      (scale (xyz 1 1 1))
      (rotate (xyz 0 0 0))
    )
  )

  (module LED_SMD:LED_0603_1608Metric locked (layer F.Cu) (tedit 5B301BBE) (tstamp 5CC834D6)
    (at 116.205 121.158 90)
    (descr "LED SMD 0603 (1608 Metric), square (rectangular) end terminal, IPC_7351 nominal, (Body size source: http://www.tortai-tech.com/upload/download/2011102023233369053.pdf), generated with kicad-footprint-generator")
    (tags diode)
    (path /5CC68E7E)
    (attr smd)
    (fp_text reference D2 (at 2.159 0.381 180) (layer F.SilkS)
      (effects (font (size 1 1) (thickness 0.15)))
    )
    (fp_text value YLW,2V,20mA,150mcd (at 0 1.43 90) (layer F.Fab)
      (effects (font (size 1 1) (thickness 0.15)))
    )
    (fp_text user %R (at 0 0 90) (layer F.Fab)
      (effects (font (size 0.4 0.4) (thickness 0.06)))
    )
    (fp_line (start 1.48 0.73) (end -1.48 0.73) (layer F.CrtYd) (width 0.05))
    (fp_line (start 1.48 -0.73) (end 1.48 0.73) (layer F.CrtYd) (width 0.05))
    (fp_line (start -1.48 -0.73) (end 1.48 -0.73) (layer F.CrtYd) (width 0.05))
    (fp_line (start -1.48 0.73) (end -1.48 -0.73) (layer F.CrtYd) (width 0.05))
    (fp_line (start -1.485 0.735) (end 0.8 0.735) (layer F.SilkS) (width 0.12))
    (fp_line (start -1.485 -0.735) (end -1.485 0.735) (layer F.SilkS) (width 0.12))
    (fp_line (start 0.8 -0.735) (end -1.485 -0.735) (layer F.SilkS) (width 0.12))
    (fp_line (start 0.8 0.4) (end 0.8 -0.4) (layer F.Fab) (width 0.1))
    (fp_line (start -0.8 0.4) (end 0.8 0.4) (layer F.Fab) (width 0.1))
    (fp_line (start -0.8 -0.1) (end -0.8 0.4) (layer F.Fab) (width 0.1))
    (fp_line (start -0.5 -0.4) (end -0.8 -0.1) (layer F.Fab) (width 0.1))
    (fp_line (start 0.8 -0.4) (end -0.5 -0.4) (layer F.Fab) (width 0.1))
    (pad 2 smd roundrect (at 0.7875 0 90) (size 0.875 0.95) (layers F.Cu F.Paste F.Mask) (roundrect_rratio 0.25)
      (net 4 "Net-(D2-Pad2)"))
    (pad 1 smd roundrect (at -0.7875 0 90) (size 0.875 0.95) (layers F.Cu F.Paste F.Mask) (roundrect_rratio 0.25)
      (net 2 GND))
    (model ${KISYS3DMOD}/LED_SMD.3dshapes/LED_0603_1608Metric.wrl
      (at (xyz 0 0 0))
      (scale (xyz 1 1 1))
      (rotate (xyz 0 0 0))
    )
  )

  (module LED_SMD:LED_0603_1608Metric locked (layer F.Cu) (tedit 5B301BBE) (tstamp 5CC834E9)
    (at 119.38 121.158 90)
    (descr "LED SMD 0603 (1608 Metric), square (rectangular) end terminal, IPC_7351 nominal, (Body size source: http://www.tortai-tech.com/upload/download/2011102023233369053.pdf), generated with kicad-footprint-generator")
    (tags diode)
    (path /5CC6B684)
    (attr smd)
    (fp_text reference D3 (at 2.159 1.016 180) (layer F.SilkS)
      (effects (font (size 1 1) (thickness 0.15)))
    )
    (fp_text value BLU,3.3V,20mA,100mcd (at 0 1.43 90) (layer F.Fab)
      (effects (font (size 1 1) (thickness 0.15)))
    )
    (fp_line (start 0.8 -0.4) (end -0.5 -0.4) (layer F.Fab) (width 0.1))
    (fp_line (start -0.5 -0.4) (end -0.8 -0.1) (layer F.Fab) (width 0.1))
    (fp_line (start -0.8 -0.1) (end -0.8 0.4) (layer F.Fab) (width 0.1))
    (fp_line (start -0.8 0.4) (end 0.8 0.4) (layer F.Fab) (width 0.1))
    (fp_line (start 0.8 0.4) (end 0.8 -0.4) (layer F.Fab) (width 0.1))
    (fp_line (start 0.8 -0.735) (end -1.485 -0.735) (layer F.SilkS) (width 0.12))
    (fp_line (start -1.485 -0.735) (end -1.485 0.735) (layer F.SilkS) (width 0.12))
    (fp_line (start -1.485 0.735) (end 0.8 0.735) (layer F.SilkS) (width 0.12))
    (fp_line (start -1.48 0.73) (end -1.48 -0.73) (layer F.CrtYd) (width 0.05))
    (fp_line (start -1.48 -0.73) (end 1.48 -0.73) (layer F.CrtYd) (width 0.05))
    (fp_line (start 1.48 -0.73) (end 1.48 0.73) (layer F.CrtYd) (width 0.05))
    (fp_line (start 1.48 0.73) (end -1.48 0.73) (layer F.CrtYd) (width 0.05))
    (fp_text user %R (at 0 0 90) (layer F.Fab)
      (effects (font (size 0.4 0.4) (thickness 0.06)))
    )
    (pad 1 smd roundrect (at -0.7875 0 90) (size 0.875 0.95) (layers F.Cu F.Paste F.Mask) (roundrect_rratio 0.25)
      (net 2 GND))
    (pad 2 smd roundrect (at 0.7875 0 90) (size 0.875 0.95) (layers F.Cu F.Paste F.Mask) (roundrect_rratio 0.25)
      (net 5 "Net-(D3-Pad2)"))
    (model ${KISYS3DMOD}/LED_SMD.3dshapes/LED_0603_1608Metric.wrl
      (at (xyz 0 0 0))
      (scale (xyz 1 1 1))
      (rotate (xyz 0 0 0))
    )
  )

  (module LED_SMD:LED_0603_1608Metric locked (layer F.Cu) (tedit 5B301BBE) (tstamp 5CC834FC)
    (at 122.555 121.158 90)
    (descr "LED SMD 0603 (1608 Metric), square (rectangular) end terminal, IPC_7351 nominal, (Body size source: http://www.tortai-tech.com/upload/download/2011102023233369053.pdf), generated with kicad-footprint-generator")
    (tags diode)
    (path /5CC71764)
    (attr smd)
    (fp_text reference D4 (at 2.159 0.094 180) (layer F.SilkS)
      (effects (font (size 1 1) (thickness 0.15)))
    )
    (fp_text value RED,1.85V,20mA,30mcd (at 0 1.43 90) (layer F.Fab)
      (effects (font (size 1 1) (thickness 0.15)))
    )
    (fp_text user %R (at 0 0 90) (layer F.Fab)
      (effects (font (size 0.4 0.4) (thickness 0.06)))
    )
    (fp_line (start 1.48 0.73) (end -1.48 0.73) (layer F.CrtYd) (width 0.05))
    (fp_line (start 1.48 -0.73) (end 1.48 0.73) (layer F.CrtYd) (width 0.05))
    (fp_line (start -1.48 -0.73) (end 1.48 -0.73) (layer F.CrtYd) (width 0.05))
    (fp_line (start -1.48 0.73) (end -1.48 -0.73) (layer F.CrtYd) (width 0.05))
    (fp_line (start -1.485 0.735) (end 0.8 0.735) (layer F.SilkS) (width 0.12))
    (fp_line (start -1.485 -0.735) (end -1.485 0.735) (layer F.SilkS) (width 0.12))
    (fp_line (start 0.8 -0.735) (end -1.485 -0.735) (layer F.SilkS) (width 0.12))
    (fp_line (start 0.8 0.4) (end 0.8 -0.4) (layer F.Fab) (width 0.1))
    (fp_line (start -0.8 0.4) (end 0.8 0.4) (layer F.Fab) (width 0.1))
    (fp_line (start -0.8 -0.1) (end -0.8 0.4) (layer F.Fab) (width 0.1))
    (fp_line (start -0.5 -0.4) (end -0.8 -0.1) (layer F.Fab) (width 0.1))
    (fp_line (start 0.8 -0.4) (end -0.5 -0.4) (layer F.Fab) (width 0.1))
    (pad 2 smd roundrect (at 0.7875 0 90) (size 0.875 0.95) (layers F.Cu F.Paste F.Mask) (roundrect_rratio 0.25)
      (net 6 "Net-(D4-Pad2)"))
    (pad 1 smd roundrect (at -0.7875 0 90) (size 0.875 0.95) (layers F.Cu F.Paste F.Mask) (roundrect_rratio 0.25)
      (net 2 GND))
    (model ${KISYS3DMOD}/LED_SMD.3dshapes/LED_0603_1608Metric.wrl
      (at (xyz 0 0 0))
      (scale (xyz 1 1 1))
      (rotate (xyz 0 0 0))
    )
  )

  (module Package_TO_SOT_SMD:SOT-23_Handsoldering locked (layer B.Cu) (tedit 5A0AB76C) (tstamp 5CC8ABCD)
    (at 113.03 116.84 90)
    (descr "SOT-23, Handsoldering")
    (tags SOT-23)
    (path /5CC20C6E)
    (attr smd)
    (fp_text reference Q1 (at 0 2.5 90) (layer B.SilkS)
      (effects (font (size 1 1) (thickness 0.15)) (justify mirror))
    )
    (fp_text value BSS138 (at 0 -2.5 90) (layer B.Fab)
      (effects (font (size 1 1) (thickness 0.15)) (justify mirror))
    )
    (fp_text user %R (at 0 0) (layer B.Fab)
      (effects (font (size 0.5 0.5) (thickness 0.075)) (justify mirror))
    )
    (fp_line (start 0.76 -1.58) (end 0.76 -0.65) (layer B.SilkS) (width 0.12))
    (fp_line (start 0.76 1.58) (end 0.76 0.65) (layer B.SilkS) (width 0.12))
    (fp_line (start -2.7 1.75) (end 2.7 1.75) (layer B.CrtYd) (width 0.05))
    (fp_line (start 2.7 1.75) (end 2.7 -1.75) (layer B.CrtYd) (width 0.05))
    (fp_line (start 2.7 -1.75) (end -2.7 -1.75) (layer B.CrtYd) (width 0.05))
    (fp_line (start -2.7 -1.75) (end -2.7 1.75) (layer B.CrtYd) (width 0.05))
    (fp_line (start 0.76 1.58) (end -2.4 1.58) (layer B.SilkS) (width 0.12))
    (fp_line (start -0.7 0.95) (end -0.7 -1.5) (layer B.Fab) (width 0.1))
    (fp_line (start -0.15 1.52) (end 0.7 1.52) (layer B.Fab) (width 0.1))
    (fp_line (start -0.7 0.95) (end -0.15 1.52) (layer B.Fab) (width 0.1))
    (fp_line (start 0.7 1.52) (end 0.7 -1.52) (layer B.Fab) (width 0.1))
    (fp_line (start -0.7 -1.52) (end 0.7 -1.52) (layer B.Fab) (width 0.1))
    (fp_line (start 0.76 -1.58) (end -0.7 -1.58) (layer B.SilkS) (width 0.12))
    (pad 1 smd rect (at -1.5 0.95 90) (size 1.9 0.8) (layers B.Cu B.Paste B.Mask)
      (net 11 /DATA_O))
    (pad 2 smd rect (at -1.5 -0.95 90) (size 1.9 0.8) (layers B.Cu B.Paste B.Mask)
      (net 3 "Net-(D1-Pad2)"))
    (pad 3 smd rect (at 1.5 0 90) (size 1.9 0.8) (layers B.Cu B.Paste B.Mask)
      (net 12 "Net-(Q1-Pad3)"))
    (model ${KISYS3DMOD}/Package_TO_SOT_SMD.3dshapes/SOT-23.wrl
      (at (xyz 0 0 0))
      (scale (xyz 1 1 1))
      (rotate (xyz 0 0 0))
    )
  )

  (module Package_TO_SOT_SMD:SOT-23_Handsoldering locked (layer B.Cu) (tedit 5A0AB76C) (tstamp 5CC83547)
    (at 113.03 107.315 90)
    (descr "SOT-23, Handsoldering")
    (tags SOT-23)
    (path /5CC68E8C)
    (attr smd)
    (fp_text reference Q2 (at 0 2.5 270) (layer B.SilkS)
      (effects (font (size 1 1) (thickness 0.15)) (justify mirror))
    )
    (fp_text value BSS138 (at 0 -2.5 90) (layer B.Fab)
      (effects (font (size 1 1) (thickness 0.15)) (justify mirror))
    )
    (fp_line (start 0.76 -1.58) (end -0.7 -1.58) (layer B.SilkS) (width 0.12))
    (fp_line (start -0.7 -1.52) (end 0.7 -1.52) (layer B.Fab) (width 0.1))
    (fp_line (start 0.7 1.52) (end 0.7 -1.52) (layer B.Fab) (width 0.1))
    (fp_line (start -0.7 0.95) (end -0.15 1.52) (layer B.Fab) (width 0.1))
    (fp_line (start -0.15 1.52) (end 0.7 1.52) (layer B.Fab) (width 0.1))
    (fp_line (start -0.7 0.95) (end -0.7 -1.5) (layer B.Fab) (width 0.1))
    (fp_line (start 0.76 1.58) (end -2.4 1.58) (layer B.SilkS) (width 0.12))
    (fp_line (start -2.7 -1.75) (end -2.7 1.75) (layer B.CrtYd) (width 0.05))
    (fp_line (start 2.7 -1.75) (end -2.7 -1.75) (layer B.CrtYd) (width 0.05))
    (fp_line (start 2.7 1.75) (end 2.7 -1.75) (layer B.CrtYd) (width 0.05))
    (fp_line (start -2.7 1.75) (end 2.7 1.75) (layer B.CrtYd) (width 0.05))
    (fp_line (start 0.76 1.58) (end 0.76 0.65) (layer B.SilkS) (width 0.12))
    (fp_line (start 0.76 -1.58) (end 0.76 -0.65) (layer B.SilkS) (width 0.12))
    (fp_text user %R (at 0 0) (layer B.Fab)
      (effects (font (size 0.5 0.5) (thickness 0.075)) (justify mirror))
    )
    (pad 3 smd rect (at 1.5 0 90) (size 1.9 0.8) (layers B.Cu B.Paste B.Mask)
      (net 13 "Net-(Q2-Pad3)"))
    (pad 2 smd rect (at -1.5 -0.95 90) (size 1.9 0.8) (layers B.Cu B.Paste B.Mask)
      (net 4 "Net-(D2-Pad2)"))
    (pad 1 smd rect (at -1.5 0.95 90) (size 1.9 0.8) (layers B.Cu B.Paste B.Mask)
      (net 14 /CLK_O))
    (model ${KISYS3DMOD}/Package_TO_SOT_SMD.3dshapes/SOT-23.wrl
      (at (xyz 0 0 0))
      (scale (xyz 1 1 1))
      (rotate (xyz 0 0 0))
    )
  )

  (module Package_TO_SOT_SMD:SOT-23_Handsoldering locked (layer B.Cu) (tedit 5A0AB76C) (tstamp 5CCA77F7)
    (at 121.285 116.84 90)
    (descr "SOT-23, Handsoldering")
    (tags SOT-23)
    (path /5CC6B692)
    (attr smd)
    (fp_text reference Q3 (at 0 2.5 90) (layer B.SilkS)
      (effects (font (size 1 1) (thickness 0.15)) (justify mirror))
    )
    (fp_text value BSS138 (at 0 -2.5 90) (layer B.Fab)
      (effects (font (size 1 1) (thickness 0.15)) (justify mirror))
    )
    (fp_text user %R (at 0 0) (layer B.Fab)
      (effects (font (size 0.5 0.5) (thickness 0.075)) (justify mirror))
    )
    (fp_line (start 0.76 -1.58) (end 0.76 -0.65) (layer B.SilkS) (width 0.12))
    (fp_line (start 0.76 1.58) (end 0.76 0.65) (layer B.SilkS) (width 0.12))
    (fp_line (start -2.7 1.75) (end 2.7 1.75) (layer B.CrtYd) (width 0.05))
    (fp_line (start 2.7 1.75) (end 2.7 -1.75) (layer B.CrtYd) (width 0.05))
    (fp_line (start 2.7 -1.75) (end -2.7 -1.75) (layer B.CrtYd) (width 0.05))
    (fp_line (start -2.7 -1.75) (end -2.7 1.75) (layer B.CrtYd) (width 0.05))
    (fp_line (start 0.76 1.58) (end -2.4 1.58) (layer B.SilkS) (width 0.12))
    (fp_line (start -0.7 0.95) (end -0.7 -1.5) (layer B.Fab) (width 0.1))
    (fp_line (start -0.15 1.52) (end 0.7 1.52) (layer B.Fab) (width 0.1))
    (fp_line (start -0.7 0.95) (end -0.15 1.52) (layer B.Fab) (width 0.1))
    (fp_line (start 0.7 1.52) (end 0.7 -1.52) (layer B.Fab) (width 0.1))
    (fp_line (start -0.7 -1.52) (end 0.7 -1.52) (layer B.Fab) (width 0.1))
    (fp_line (start 0.76 -1.58) (end -0.7 -1.58) (layer B.SilkS) (width 0.12))
    (pad 1 smd rect (at -1.5 0.95 90) (size 1.9 0.8) (layers B.Cu B.Paste B.Mask)
      (net 15 /ATN_O))
    (pad 2 smd rect (at -1.5 -0.95 90) (size 1.9 0.8) (layers B.Cu B.Paste B.Mask)
      (net 5 "Net-(D3-Pad2)"))
    (pad 3 smd rect (at 1.5 0 90) (size 1.9 0.8) (layers B.Cu B.Paste B.Mask)
      (net 16 "Net-(Q3-Pad3)"))
    (model ${KISYS3DMOD}/Package_TO_SOT_SMD.3dshapes/SOT-23.wrl
      (at (xyz 0 0 0))
      (scale (xyz 1 1 1))
      (rotate (xyz 0 0 0))
    )
  )

  (module Package_TO_SOT_SMD:SOT-23_Handsoldering locked (layer B.Cu) (tedit 5A0AB76C) (tstamp 5CCA77BB)
    (at 121.285 107.315 90)
    (descr "SOT-23, Handsoldering")
    (tags SOT-23)
    (path /5CC71772)
    (attr smd)
    (fp_text reference Q4 (at 0 2.5 90) (layer B.SilkS)
      (effects (font (size 1 1) (thickness 0.15)) (justify mirror))
    )
    (fp_text value BSS138 (at 0 -2.5 90) (layer B.Fab)
      (effects (font (size 1 1) (thickness 0.15)) (justify mirror))
    )
    (fp_line (start 0.76 -1.58) (end -0.7 -1.58) (layer B.SilkS) (width 0.12))
    (fp_line (start -0.7 -1.52) (end 0.7 -1.52) (layer B.Fab) (width 0.1))
    (fp_line (start 0.7 1.52) (end 0.7 -1.52) (layer B.Fab) (width 0.1))
    (fp_line (start -0.7 0.95) (end -0.15 1.52) (layer B.Fab) (width 0.1))
    (fp_line (start -0.15 1.52) (end 0.7 1.52) (layer B.Fab) (width 0.1))
    (fp_line (start -0.7 0.95) (end -0.7 -1.5) (layer B.Fab) (width 0.1))
    (fp_line (start 0.76 1.58) (end -2.4 1.58) (layer B.SilkS) (width 0.12))
    (fp_line (start -2.7 -1.75) (end -2.7 1.75) (layer B.CrtYd) (width 0.05))
    (fp_line (start 2.7 -1.75) (end -2.7 -1.75) (layer B.CrtYd) (width 0.05))
    (fp_line (start 2.7 1.75) (end 2.7 -1.75) (layer B.CrtYd) (width 0.05))
    (fp_line (start -2.7 1.75) (end 2.7 1.75) (layer B.CrtYd) (width 0.05))
    (fp_line (start 0.76 1.58) (end 0.76 0.65) (layer B.SilkS) (width 0.12))
    (fp_line (start 0.76 -1.58) (end 0.76 -0.65) (layer B.SilkS) (width 0.12))
    (fp_text user %R (at 0 0) (layer B.Fab)
      (effects (font (size 0.5 0.5) (thickness 0.075)) (justify mirror))
    )
    (pad 3 smd rect (at 1.5 0 90) (size 1.9 0.8) (layers B.Cu B.Paste B.Mask)
      (net 17 "Net-(Q4-Pad3)"))
    (pad 2 smd rect (at -1.5 -0.95 90) (size 1.9 0.8) (layers B.Cu B.Paste B.Mask)
      (net 6 "Net-(D4-Pad2)"))
    (pad 1 smd rect (at -1.5 0.95 90) (size 1.9 0.8) (layers B.Cu B.Paste B.Mask)
      (net 18 /RST_O))
    (model ${KISYS3DMOD}/Package_TO_SOT_SMD.3dshapes/SOT-23.wrl
      (at (xyz 0 0 0))
      (scale (xyz 1 1 1))
      (rotate (xyz 0 0 0))
    )
  )

  (module Resistor_SMD:R_0603_1608Metric locked (layer F.Cu) (tedit 5B301BBD) (tstamp 5CC83582)
    (at 112.395 114.808 180)
    (descr "Resistor SMD 0603 (1608 Metric), square (rectangular) end terminal, IPC_7351 nominal, (Body size source: http://www.tortai-tech.com/upload/download/2011102023233369053.pdf), generated with kicad-footprint-generator")
    (tags resistor)
    (path /5CBFC620)
    (attr smd)
    (fp_text reference R1 (at -2.413 -0.033 180) (layer F.SilkS)
      (effects (font (size 1 1) (thickness 0.15)))
    )
    (fp_text value 100K (at 0 1.43 180) (layer F.Fab)
      (effects (font (size 1 1) (thickness 0.15)))
    )
    (fp_text user %R (at 0 0 180) (layer F.Fab)
      (effects (font (size 0.4 0.4) (thickness 0.06)))
    )
    (fp_line (start 1.48 0.73) (end -1.48 0.73) (layer F.CrtYd) (width 0.05))
    (fp_line (start 1.48 -0.73) (end 1.48 0.73) (layer F.CrtYd) (width 0.05))
    (fp_line (start -1.48 -0.73) (end 1.48 -0.73) (layer F.CrtYd) (width 0.05))
    (fp_line (start -1.48 0.73) (end -1.48 -0.73) (layer F.CrtYd) (width 0.05))
    (fp_line (start -0.162779 0.51) (end 0.162779 0.51) (layer F.SilkS) (width 0.12))
    (fp_line (start -0.162779 -0.51) (end 0.162779 -0.51) (layer F.SilkS) (width 0.12))
    (fp_line (start 0.8 0.4) (end -0.8 0.4) (layer F.Fab) (width 0.1))
    (fp_line (start 0.8 -0.4) (end 0.8 0.4) (layer F.Fab) (width 0.1))
    (fp_line (start -0.8 -0.4) (end 0.8 -0.4) (layer F.Fab) (width 0.1))
    (fp_line (start -0.8 0.4) (end -0.8 -0.4) (layer F.Fab) (width 0.1))
    (pad 2 smd roundrect (at 0.7875 0 180) (size 0.875 0.95) (layers F.Cu F.Paste F.Mask) (roundrect_rratio 0.25)
      (net 19 /\DATA_I))
    (pad 1 smd roundrect (at -0.7875 0 180) (size 0.875 0.95) (layers F.Cu F.Paste F.Mask) (roundrect_rratio 0.25)
      (net 9 /\DATA))
    (model ${KISYS3DMOD}/Resistor_SMD.3dshapes/R_0603_1608Metric.wrl
      (at (xyz 0 0 0))
      (scale (xyz 1 1 1))
      (rotate (xyz 0 0 0))
    )
  )

  (module Resistor_SMD:R_0603_1608Metric locked (layer F.Cu) (tedit 5B301BBD) (tstamp 5CC83593)
    (at 112.395 116.713 180)
    (descr "Resistor SMD 0603 (1608 Metric), square (rectangular) end terminal, IPC_7351 nominal, (Body size source: http://www.tortai-tech.com/upload/download/2011102023233369053.pdf), generated with kicad-footprint-generator")
    (tags resistor)
    (path /5CBFE2DC)
    (attr smd)
    (fp_text reference R2 (at -2.413 -0.033 180) (layer F.SilkS)
      (effects (font (size 1 1) (thickness 0.15)))
    )
    (fp_text value 150K (at 0 1.43 180) (layer F.Fab)
      (effects (font (size 1 1) (thickness 0.15)))
    )
    (fp_line (start -0.8 0.4) (end -0.8 -0.4) (layer F.Fab) (width 0.1))
    (fp_line (start -0.8 -0.4) (end 0.8 -0.4) (layer F.Fab) (width 0.1))
    (fp_line (start 0.8 -0.4) (end 0.8 0.4) (layer F.Fab) (width 0.1))
    (fp_line (start 0.8 0.4) (end -0.8 0.4) (layer F.Fab) (width 0.1))
    (fp_line (start -0.162779 -0.51) (end 0.162779 -0.51) (layer F.SilkS) (width 0.12))
    (fp_line (start -0.162779 0.51) (end 0.162779 0.51) (layer F.SilkS) (width 0.12))
    (fp_line (start -1.48 0.73) (end -1.48 -0.73) (layer F.CrtYd) (width 0.05))
    (fp_line (start -1.48 -0.73) (end 1.48 -0.73) (layer F.CrtYd) (width 0.05))
    (fp_line (start 1.48 -0.73) (end 1.48 0.73) (layer F.CrtYd) (width 0.05))
    (fp_line (start 1.48 0.73) (end -1.48 0.73) (layer F.CrtYd) (width 0.05))
    (fp_text user %R (at 0 0 180) (layer F.Fab)
      (effects (font (size 0.4 0.4) (thickness 0.06)))
    )
    (pad 1 smd roundrect (at -0.7875 0 180) (size 0.875 0.95) (layers F.Cu F.Paste F.Mask) (roundrect_rratio 0.25)
      (net 2 GND))
    (pad 2 smd roundrect (at 0.7875 0 180) (size 0.875 0.95) (layers F.Cu F.Paste F.Mask) (roundrect_rratio 0.25)
      (net 19 /\DATA_I))
    (model ${KISYS3DMOD}/Resistor_SMD.3dshapes/R_0603_1608Metric.wrl
      (at (xyz 0 0 0))
      (scale (xyz 1 1 1))
      (rotate (xyz 0 0 0))
    )
  )

  (module Resistor_SMD:R_0603_1608Metric locked (layer F.Cu) (tedit 5B301BBD) (tstamp 5CC835A4)
    (at 117.475 114.808 180)
    (descr "Resistor SMD 0603 (1608 Metric), square (rectangular) end terminal, IPC_7351 nominal, (Body size source: http://www.tortai-tech.com/upload/download/2011102023233369053.pdf), generated with kicad-footprint-generator")
    (tags resistor)
    (path /5CC7DD34)
    (attr smd)
    (fp_text reference R3 (at -2.413 -0.033 180) (layer F.SilkS)
      (effects (font (size 1 1) (thickness 0.15)))
    )
    (fp_text value 100K (at 0 1.43 180) (layer F.Fab)
      (effects (font (size 1 1) (thickness 0.15)))
    )
    (fp_text user %R (at 0 0 180) (layer F.Fab)
      (effects (font (size 0.4 0.4) (thickness 0.06)))
    )
    (fp_line (start 1.48 0.73) (end -1.48 0.73) (layer F.CrtYd) (width 0.05))
    (fp_line (start 1.48 -0.73) (end 1.48 0.73) (layer F.CrtYd) (width 0.05))
    (fp_line (start -1.48 -0.73) (end 1.48 -0.73) (layer F.CrtYd) (width 0.05))
    (fp_line (start -1.48 0.73) (end -1.48 -0.73) (layer F.CrtYd) (width 0.05))
    (fp_line (start -0.162779 0.51) (end 0.162779 0.51) (layer F.SilkS) (width 0.12))
    (fp_line (start -0.162779 -0.51) (end 0.162779 -0.51) (layer F.SilkS) (width 0.12))
    (fp_line (start 0.8 0.4) (end -0.8 0.4) (layer F.Fab) (width 0.1))
    (fp_line (start 0.8 -0.4) (end 0.8 0.4) (layer F.Fab) (width 0.1))
    (fp_line (start -0.8 -0.4) (end 0.8 -0.4) (layer F.Fab) (width 0.1))
    (fp_line (start -0.8 0.4) (end -0.8 -0.4) (layer F.Fab) (width 0.1))
    (pad 2 smd roundrect (at 0.7875 0 180) (size 0.875 0.95) (layers F.Cu F.Paste F.Mask) (roundrect_rratio 0.25)
      (net 20 /\CLK_I))
    (pad 1 smd roundrect (at -0.7875 0 180) (size 0.875 0.95) (layers F.Cu F.Paste F.Mask) (roundrect_rratio 0.25)
      (net 8 /\CLK))
    (model ${KISYS3DMOD}/Resistor_SMD.3dshapes/R_0603_1608Metric.wrl
      (at (xyz 0 0 0))
      (scale (xyz 1 1 1))
      (rotate (xyz 0 0 0))
    )
  )

  (module Resistor_SMD:R_0603_1608Metric locked (layer F.Cu) (tedit 5B301BBD) (tstamp 5CC835B5)
    (at 117.475 116.713 180)
    (descr "Resistor SMD 0603 (1608 Metric), square (rectangular) end terminal, IPC_7351 nominal, (Body size source: http://www.tortai-tech.com/upload/download/2011102023233369053.pdf), generated with kicad-footprint-generator")
    (tags resistor)
    (path /5CC7DD2E)
    (attr smd)
    (fp_text reference R4 (at -2.413 -0.033 180) (layer F.SilkS)
      (effects (font (size 1 1) (thickness 0.15)))
    )
    (fp_text value 150K (at 0 1.43 180) (layer F.Fab)
      (effects (font (size 1 1) (thickness 0.15)))
    )
    (fp_line (start -0.8 0.4) (end -0.8 -0.4) (layer F.Fab) (width 0.1))
    (fp_line (start -0.8 -0.4) (end 0.8 -0.4) (layer F.Fab) (width 0.1))
    (fp_line (start 0.8 -0.4) (end 0.8 0.4) (layer F.Fab) (width 0.1))
    (fp_line (start 0.8 0.4) (end -0.8 0.4) (layer F.Fab) (width 0.1))
    (fp_line (start -0.162779 -0.51) (end 0.162779 -0.51) (layer F.SilkS) (width 0.12))
    (fp_line (start -0.162779 0.51) (end 0.162779 0.51) (layer F.SilkS) (width 0.12))
    (fp_line (start -1.48 0.73) (end -1.48 -0.73) (layer F.CrtYd) (width 0.05))
    (fp_line (start -1.48 -0.73) (end 1.48 -0.73) (layer F.CrtYd) (width 0.05))
    (fp_line (start 1.48 -0.73) (end 1.48 0.73) (layer F.CrtYd) (width 0.05))
    (fp_line (start 1.48 0.73) (end -1.48 0.73) (layer F.CrtYd) (width 0.05))
    (fp_text user %R (at 0 0 180) (layer F.Fab)
      (effects (font (size 0.4 0.4) (thickness 0.06)))
    )
    (pad 1 smd roundrect (at -0.7875 0 180) (size 0.875 0.95) (layers F.Cu F.Paste F.Mask) (roundrect_rratio 0.25)
      (net 2 GND))
    (pad 2 smd roundrect (at 0.7875 0 180) (size 0.875 0.95) (layers F.Cu F.Paste F.Mask) (roundrect_rratio 0.25)
      (net 20 /\CLK_I))
    (model ${KISYS3DMOD}/Resistor_SMD.3dshapes/R_0603_1608Metric.wrl
      (at (xyz 0 0 0))
      (scale (xyz 1 1 1))
      (rotate (xyz 0 0 0))
    )
  )

  (module Resistor_SMD:R_0603_1608Metric locked (layer F.Cu) (tedit 5B301BBD) (tstamp 5CC835C6)
    (at 122.555 114.808 180)
    (descr "Resistor SMD 0603 (1608 Metric), square (rectangular) end terminal, IPC_7351 nominal, (Body size source: http://www.tortai-tech.com/upload/download/2011102023233369053.pdf), generated with kicad-footprint-generator")
    (tags resistor)
    (path /5CCC4A87)
    (attr smd)
    (fp_text reference R5 (at -2.413 0 180) (layer F.SilkS)
      (effects (font (size 1 1) (thickness 0.15)))
    )
    (fp_text value 100K (at 0 1.43 180) (layer F.Fab)
      (effects (font (size 1 1) (thickness 0.15)))
    )
    (fp_line (start -0.8 0.4) (end -0.8 -0.4) (layer F.Fab) (width 0.1))
    (fp_line (start -0.8 -0.4) (end 0.8 -0.4) (layer F.Fab) (width 0.1))
    (fp_line (start 0.8 -0.4) (end 0.8 0.4) (layer F.Fab) (width 0.1))
    (fp_line (start 0.8 0.4) (end -0.8 0.4) (layer F.Fab) (width 0.1))
    (fp_line (start -0.162779 -0.51) (end 0.162779 -0.51) (layer F.SilkS) (width 0.12))
    (fp_line (start -0.162779 0.51) (end 0.162779 0.51) (layer F.SilkS) (width 0.12))
    (fp_line (start -1.48 0.73) (end -1.48 -0.73) (layer F.CrtYd) (width 0.05))
    (fp_line (start -1.48 -0.73) (end 1.48 -0.73) (layer F.CrtYd) (width 0.05))
    (fp_line (start 1.48 -0.73) (end 1.48 0.73) (layer F.CrtYd) (width 0.05))
    (fp_line (start 1.48 0.73) (end -1.48 0.73) (layer F.CrtYd) (width 0.05))
    (fp_text user %R (at 0 0 180) (layer F.Fab)
      (effects (font (size 0.4 0.4) (thickness 0.06)))
    )
    (pad 1 smd roundrect (at -0.7875 0 180) (size 0.875 0.95) (layers F.Cu F.Paste F.Mask) (roundrect_rratio 0.25)
      (net 10 /\RST))
    (pad 2 smd roundrect (at 0.7875 0 180) (size 0.875 0.95) (layers F.Cu F.Paste F.Mask) (roundrect_rratio 0.25)
      (net 21 /\RST_I))
    (model ${KISYS3DMOD}/Resistor_SMD.3dshapes/R_0603_1608Metric.wrl
      (at (xyz 0 0 0))
      (scale (xyz 1 1 1))
      (rotate (xyz 0 0 0))
    )
  )

  (module Resistor_SMD:R_0603_1608Metric locked (layer F.Cu) (tedit 5B301BBD) (tstamp 5CCBE680)
    (at 122.555 116.713 180)
    (descr "Resistor SMD 0603 (1608 Metric), square (rectangular) end terminal, IPC_7351 nominal, (Body size source: http://www.tortai-tech.com/upload/download/2011102023233369053.pdf), generated with kicad-footprint-generator")
    (tags resistor)
    (path /5CCC4A81)
    (attr smd)
    (fp_text reference R6 (at -2.413 0.127 180) (layer F.SilkS)
      (effects (font (size 1 1) (thickness 0.15)))
    )
    (fp_text value 150K (at 0 1.43 180) (layer F.Fab)
      (effects (font (size 1 1) (thickness 0.15)))
    )
    (fp_text user %R (at 0 0 180) (layer F.Fab)
      (effects (font (size 0.4 0.4) (thickness 0.06)))
    )
    (fp_line (start 1.48 0.73) (end -1.48 0.73) (layer F.CrtYd) (width 0.05))
    (fp_line (start 1.48 -0.73) (end 1.48 0.73) (layer F.CrtYd) (width 0.05))
    (fp_line (start -1.48 -0.73) (end 1.48 -0.73) (layer F.CrtYd) (width 0.05))
    (fp_line (start -1.48 0.73) (end -1.48 -0.73) (layer F.CrtYd) (width 0.05))
    (fp_line (start -0.162779 0.51) (end 0.162779 0.51) (layer F.SilkS) (width 0.12))
    (fp_line (start -0.162779 -0.51) (end 0.162779 -0.51) (layer F.SilkS) (width 0.12))
    (fp_line (start 0.8 0.4) (end -0.8 0.4) (layer F.Fab) (width 0.1))
    (fp_line (start 0.8 -0.4) (end 0.8 0.4) (layer F.Fab) (width 0.1))
    (fp_line (start -0.8 -0.4) (end 0.8 -0.4) (layer F.Fab) (width 0.1))
    (fp_line (start -0.8 0.4) (end -0.8 -0.4) (layer F.Fab) (width 0.1))
    (pad 2 smd roundrect (at 0.7875 0 180) (size 0.875 0.95) (layers F.Cu F.Paste F.Mask) (roundrect_rratio 0.25)
      (net 21 /\RST_I))
    (pad 1 smd roundrect (at -0.7875 0 180) (size 0.875 0.95) (layers F.Cu F.Paste F.Mask) (roundrect_rratio 0.25)
      (net 2 GND))
    (model ${KISYS3DMOD}/Resistor_SMD.3dshapes/R_0603_1608Metric.wrl
      (at (xyz 0 0 0))
      (scale (xyz 1 1 1))
      (rotate (xyz 0 0 0))
    )
  )

  (module Resistor_SMD:R_0603_1608Metric locked (layer B.Cu) (tedit 5B301BBD) (tstamp 5CC959A8)
    (at 114.3 113.03 180)
    (descr "Resistor SMD 0603 (1608 Metric), square (rectangular) end terminal, IPC_7351 nominal, (Body size source: http://www.tortai-tech.com/upload/download/2011102023233369053.pdf), generated with kicad-footprint-generator")
    (tags resistor)
    (path /5CC0CB2C)
    (attr smd)
    (fp_text reference R7 (at 0 1.43 180) (layer B.SilkS)
      (effects (font (size 1 1) (thickness 0.15)) (justify mirror))
    )
    (fp_text value 56 (at 0 -1.43 180) (layer B.Fab)
      (effects (font (size 1 1) (thickness 0.15)) (justify mirror))
    )
    (fp_line (start -0.8 -0.4) (end -0.8 0.4) (layer B.Fab) (width 0.1))
    (fp_line (start -0.8 0.4) (end 0.8 0.4) (layer B.Fab) (width 0.1))
    (fp_line (start 0.8 0.4) (end 0.8 -0.4) (layer B.Fab) (width 0.1))
    (fp_line (start 0.8 -0.4) (end -0.8 -0.4) (layer B.Fab) (width 0.1))
    (fp_line (start -0.162779 0.51) (end 0.162779 0.51) (layer B.SilkS) (width 0.12))
    (fp_line (start -0.162779 -0.51) (end 0.162779 -0.51) (layer B.SilkS) (width 0.12))
    (fp_line (start -1.48 -0.73) (end -1.48 0.73) (layer B.CrtYd) (width 0.05))
    (fp_line (start -1.48 0.73) (end 1.48 0.73) (layer B.CrtYd) (width 0.05))
    (fp_line (start 1.48 0.73) (end 1.48 -0.73) (layer B.CrtYd) (width 0.05))
    (fp_line (start 1.48 -0.73) (end -1.48 -0.73) (layer B.CrtYd) (width 0.05))
    (fp_text user %R (at 0 0 180) (layer B.Fab)
      (effects (font (size 0.4 0.4) (thickness 0.06)) (justify mirror))
    )
    (pad 1 smd roundrect (at -0.7875 0 180) (size 0.875 0.95) (layers B.Cu B.Paste B.Mask) (roundrect_rratio 0.25)
      (net 1 +3V3))
    (pad 2 smd roundrect (at 0.7875 0 180) (size 0.875 0.95) (layers B.Cu B.Paste B.Mask) (roundrect_rratio 0.25)
      (net 12 "Net-(Q1-Pad3)"))
    (model ${KISYS3DMOD}/Resistor_SMD.3dshapes/R_0603_1608Metric.wrl
      (at (xyz 0 0 0))
      (scale (xyz 1 1 1))
      (rotate (xyz 0 0 0))
    )
  )

  (module Resistor_SMD:R_0603_1608Metric locked (layer B.Cu) (tedit 5B301BBD) (tstamp 5CC835F9)
    (at 114.3 103.505 180)
    (descr "Resistor SMD 0603 (1608 Metric), square (rectangular) end terminal, IPC_7351 nominal, (Body size source: http://www.tortai-tech.com/upload/download/2011102023233369053.pdf), generated with kicad-footprint-generator")
    (tags resistor)
    (path /5CC68E99)
    (attr smd)
    (fp_text reference R8 (at 2.667 0.127 180) (layer B.SilkS)
      (effects (font (size 1 1) (thickness 0.15)) (justify mirror))
    )
    (fp_text value 220 (at 0 -1.43 180) (layer B.Fab)
      (effects (font (size 1 1) (thickness 0.15)) (justify mirror))
    )
    (fp_text user %R (at 0 0 180) (layer B.Fab)
      (effects (font (size 0.4 0.4) (thickness 0.06)) (justify mirror))
    )
    (fp_line (start 1.48 -0.73) (end -1.48 -0.73) (layer B.CrtYd) (width 0.05))
    (fp_line (start 1.48 0.73) (end 1.48 -0.73) (layer B.CrtYd) (width 0.05))
    (fp_line (start -1.48 0.73) (end 1.48 0.73) (layer B.CrtYd) (width 0.05))
    (fp_line (start -1.48 -0.73) (end -1.48 0.73) (layer B.CrtYd) (width 0.05))
    (fp_line (start -0.162779 -0.51) (end 0.162779 -0.51) (layer B.SilkS) (width 0.12))
    (fp_line (start -0.162779 0.51) (end 0.162779 0.51) (layer B.SilkS) (width 0.12))
    (fp_line (start 0.8 -0.4) (end -0.8 -0.4) (layer B.Fab) (width 0.1))
    (fp_line (start 0.8 0.4) (end 0.8 -0.4) (layer B.Fab) (width 0.1))
    (fp_line (start -0.8 0.4) (end 0.8 0.4) (layer B.Fab) (width 0.1))
    (fp_line (start -0.8 -0.4) (end -0.8 0.4) (layer B.Fab) (width 0.1))
    (pad 2 smd roundrect (at 0.7875 0 180) (size 0.875 0.95) (layers B.Cu B.Paste B.Mask) (roundrect_rratio 0.25)
      (net 13 "Net-(Q2-Pad3)"))
    (pad 1 smd roundrect (at -0.7875 0 180) (size 0.875 0.95) (layers B.Cu B.Paste B.Mask) (roundrect_rratio 0.25)
      (net 1 +3V3))
    (model ${KISYS3DMOD}/Resistor_SMD.3dshapes/R_0603_1608Metric.wrl
      (at (xyz 0 0 0))
      (scale (xyz 1 1 1))
      (rotate (xyz 0 0 0))
    )
  )

  (module Resistor_SMD:R_0603_1608Metric locked (layer B.Cu) (tedit 5B301BBD) (tstamp 5CCA7787)
    (at 120.015 113.03)
    (descr "Resistor SMD 0603 (1608 Metric), square (rectangular) end terminal, IPC_7351 nominal, (Body size source: http://www.tortai-tech.com/upload/download/2011102023233369053.pdf), generated with kicad-footprint-generator")
    (tags resistor)
    (path /5CC6B69F)
    (attr smd)
    (fp_text reference R9 (at 0 -1.397) (layer B.SilkS)
      (effects (font (size 1 1) (thickness 0.15)) (justify mirror))
    )
    (fp_text value 33 (at 0 -1.43) (layer B.Fab)
      (effects (font (size 1 1) (thickness 0.15)) (justify mirror))
    )
    (fp_text user %R (at 0 0) (layer B.Fab)
      (effects (font (size 0.4 0.4) (thickness 0.06)) (justify mirror))
    )
    (fp_line (start 1.48 -0.73) (end -1.48 -0.73) (layer B.CrtYd) (width 0.05))
    (fp_line (start 1.48 0.73) (end 1.48 -0.73) (layer B.CrtYd) (width 0.05))
    (fp_line (start -1.48 0.73) (end 1.48 0.73) (layer B.CrtYd) (width 0.05))
    (fp_line (start -1.48 -0.73) (end -1.48 0.73) (layer B.CrtYd) (width 0.05))
    (fp_line (start -0.162779 -0.51) (end 0.162779 -0.51) (layer B.SilkS) (width 0.12))
    (fp_line (start -0.162779 0.51) (end 0.162779 0.51) (layer B.SilkS) (width 0.12))
    (fp_line (start 0.8 -0.4) (end -0.8 -0.4) (layer B.Fab) (width 0.1))
    (fp_line (start 0.8 0.4) (end 0.8 -0.4) (layer B.Fab) (width 0.1))
    (fp_line (start -0.8 0.4) (end 0.8 0.4) (layer B.Fab) (width 0.1))
    (fp_line (start -0.8 -0.4) (end -0.8 0.4) (layer B.Fab) (width 0.1))
    (pad 2 smd roundrect (at 0.7875 0) (size 0.875 0.95) (layers B.Cu B.Paste B.Mask) (roundrect_rratio 0.25)
      (net 16 "Net-(Q3-Pad3)"))
    (pad 1 smd roundrect (at -0.7875 0) (size 0.875 0.95) (layers B.Cu B.Paste B.Mask) (roundrect_rratio 0.25)
      (net 1 +3V3))
    (model ${KISYS3DMOD}/Resistor_SMD.3dshapes/R_0603_1608Metric.wrl
      (at (xyz 0 0 0))
      (scale (xyz 1 1 1))
      (rotate (xyz 0 0 0))
    )
  )

  (module Resistor_SMD:R_0603_1608Metric locked (layer B.Cu) (tedit 5B301BBD) (tstamp 5CCA7757)
    (at 120.015 103.505)
    (descr "Resistor SMD 0603 (1608 Metric), square (rectangular) end terminal, IPC_7351 nominal, (Body size source: http://www.tortai-tech.com/upload/download/2011102023233369053.pdf), generated with kicad-footprint-generator")
    (tags resistor)
    (path /5CC7177F)
    (attr smd)
    (fp_text reference R10 (at 3.048 -0.127) (layer B.SilkS)
      (effects (font (size 1 1) (thickness 0.15)) (justify mirror))
    )
    (fp_text value 150 (at 0 -1.43) (layer B.Fab)
      (effects (font (size 1 1) (thickness 0.15)) (justify mirror))
    )
    (fp_text user %R (at 0 0) (layer B.Fab)
      (effects (font (size 0.4 0.4) (thickness 0.06)) (justify mirror))
    )
    (fp_line (start 1.48 -0.73) (end -1.48 -0.73) (layer B.CrtYd) (width 0.05))
    (fp_line (start 1.48 0.73) (end 1.48 -0.73) (layer B.CrtYd) (width 0.05))
    (fp_line (start -1.48 0.73) (end 1.48 0.73) (layer B.CrtYd) (width 0.05))
    (fp_line (start -1.48 -0.73) (end -1.48 0.73) (layer B.CrtYd) (width 0.05))
    (fp_line (start -0.162779 -0.51) (end 0.162779 -0.51) (layer B.SilkS) (width 0.12))
    (fp_line (start -0.162779 0.51) (end 0.162779 0.51) (layer B.SilkS) (width 0.12))
    (fp_line (start 0.8 -0.4) (end -0.8 -0.4) (layer B.Fab) (width 0.1))
    (fp_line (start 0.8 0.4) (end 0.8 -0.4) (layer B.Fab) (width 0.1))
    (fp_line (start -0.8 0.4) (end 0.8 0.4) (layer B.Fab) (width 0.1))
    (fp_line (start -0.8 -0.4) (end -0.8 0.4) (layer B.Fab) (width 0.1))
    (pad 2 smd roundrect (at 0.7875 0) (size 0.875 0.95) (layers B.Cu B.Paste B.Mask) (roundrect_rratio 0.25)
      (net 17 "Net-(Q4-Pad3)"))
    (pad 1 smd roundrect (at -0.7875 0) (size 0.875 0.95) (layers B.Cu B.Paste B.Mask) (roundrect_rratio 0.25)
      (net 1 +3V3))
    (model ${KISYS3DMOD}/Resistor_SMD.3dshapes/R_0603_1608Metric.wrl
      (at (xyz 0 0 0))
      (scale (xyz 1 1 1))
      (rotate (xyz 0 0 0))
    )
  )

  (module Package_SO:SOIC-14_3.9x8.7mm_P1.27mm locked (layer F.Cu) (tedit 5A02F2D3) (tstamp 5CC894BF)
    (at 116.84 107.95)
    (descr "14-Lead Plastic Small Outline (SL) - Narrow, 3.90 mm Body [SOIC] (see Microchip Packaging Specification 00000049BS.pdf)")
    (tags "SOIC 1.27")
    (path /5CBDE24A)
    (attr smd)
    (fp_text reference U1 (at 0 -5.375) (layer F.SilkS)
      (effects (font (size 1 1) (thickness 0.15)))
    )
    (fp_text value 74LVC06 (at 0 5.375) (layer F.Fab)
      (effects (font (size 1 1) (thickness 0.15)))
    )
    (fp_text user %R (at 0 0) (layer F.Fab)
      (effects (font (size 0.9 0.9) (thickness 0.135)))
    )
    (fp_line (start -0.95 -4.35) (end 1.95 -4.35) (layer F.Fab) (width 0.15))
    (fp_line (start 1.95 -4.35) (end 1.95 4.35) (layer F.Fab) (width 0.15))
    (fp_line (start 1.95 4.35) (end -1.95 4.35) (layer F.Fab) (width 0.15))
    (fp_line (start -1.95 4.35) (end -1.95 -3.35) (layer F.Fab) (width 0.15))
    (fp_line (start -1.95 -3.35) (end -0.95 -4.35) (layer F.Fab) (width 0.15))
    (fp_line (start -3.7 -4.65) (end -3.7 4.65) (layer F.CrtYd) (width 0.05))
    (fp_line (start 3.7 -4.65) (end 3.7 4.65) (layer F.CrtYd) (width 0.05))
    (fp_line (start -3.7 -4.65) (end 3.7 -4.65) (layer F.CrtYd) (width 0.05))
    (fp_line (start -3.7 4.65) (end 3.7 4.65) (layer F.CrtYd) (width 0.05))
    (fp_line (start -2.075 -4.45) (end -2.075 -4.425) (layer F.SilkS) (width 0.15))
    (fp_line (start 2.075 -4.45) (end 2.075 -4.335) (layer F.SilkS) (width 0.15))
    (fp_line (start 2.075 4.45) (end 2.075 4.335) (layer F.SilkS) (width 0.15))
    (fp_line (start -2.075 4.45) (end -2.075 4.335) (layer F.SilkS) (width 0.15))
    (fp_line (start -2.075 -4.45) (end 2.075 -4.45) (layer F.SilkS) (width 0.15))
    (fp_line (start -2.075 4.45) (end 2.075 4.45) (layer F.SilkS) (width 0.15))
    (fp_line (start -2.075 -4.425) (end -3.45 -4.425) (layer F.SilkS) (width 0.15))
    (pad 1 smd rect (at -2.7 -3.81) (size 1.5 0.6) (layers F.Cu F.Paste F.Mask)
      (net 11 /DATA_O))
    (pad 2 smd rect (at -2.7 -2.54) (size 1.5 0.6) (layers F.Cu F.Paste F.Mask)
      (net 9 /\DATA))
    (pad 3 smd rect (at -2.7 -1.27) (size 1.5 0.6) (layers F.Cu F.Paste F.Mask)
      (net 14 /CLK_O))
    (pad 4 smd rect (at -2.7 0) (size 1.5 0.6) (layers F.Cu F.Paste F.Mask)
      (net 8 /\CLK))
    (pad 5 smd rect (at -2.7 1.27) (size 1.5 0.6) (layers F.Cu F.Paste F.Mask)
      (net 15 /ATN_O))
    (pad 6 smd rect (at -2.7 2.54) (size 1.5 0.6) (layers F.Cu F.Paste F.Mask)
      (net 7 /\ATN))
    (pad 7 smd rect (at -2.7 3.81) (size 1.5 0.6) (layers F.Cu F.Paste F.Mask)
      (net 2 GND))
    (pad 8 smd rect (at 2.7 3.81) (size 1.5 0.6) (layers F.Cu F.Paste F.Mask)
      (net 10 /\RST))
    (pad 9 smd rect (at 2.7 2.54) (size 1.5 0.6) (layers F.Cu F.Paste F.Mask)
      (net 18 /RST_O))
    (pad 10 smd rect (at 2.7 1.27) (size 1.5 0.6) (layers F.Cu F.Paste F.Mask))
    (pad 11 smd rect (at 2.7 0) (size 1.5 0.6) (layers F.Cu F.Paste F.Mask)
      (net 2 GND))
    (pad 12 smd rect (at 2.7 -1.27) (size 1.5 0.6) (layers F.Cu F.Paste F.Mask))
    (pad 13 smd rect (at 2.7 -2.54) (size 1.5 0.6) (layers F.Cu F.Paste F.Mask)
      (net 2 GND))
    (pad 14 smd rect (at 2.7 -3.81) (size 1.5 0.6) (layers F.Cu F.Paste F.Mask)
      (net 1 +3V3))
    (model ${KISYS3DMOD}/Package_SO.3dshapes/SOIC-14_3.9x8.7mm_P1.27mm.wrl
      (at (xyz 0 0 0))
      (scale (xyz 1 1 1))
      (rotate (xyz 0 0 0))
    )
  )

  (module Connector_Custom:PinHeader_2x06_P2.54mm_Horizontal_TopBot locked (layer F.Cu) (tedit 5CBB743C) (tstamp 5CC891B7)
    (at 107.95 106.045 180)
    (descr "Through hole angled pin header, 2x06, 2.54mm pitch, 6mm pin length, double rows, top bottom pin numbering")
    (tags "Through hole angled pin header THT 2x06 2.54mm double row top bottom")
    (path /5C8D72DC)
    (fp_text reference J1 (at 1.778 -15.367 180) (layer F.SilkS)
      (effects (font (size 1 1) (thickness 0.15)))
    )
    (fp_text value Conn_02x06_Top_Bottom (at 1.27 3.175 180) (layer F.Fab)
      (effects (font (size 1 1) (thickness 0.15)))
    )
    (fp_text user %R (at 5.31 -6.35 270) (layer F.Fab)
      (effects (font (size 1 1) (thickness 0.15)))
    )
    (fp_line (start 13.1 -14.5) (end -1.8 -14.5) (layer F.CrtYd) (width 0.05))
    (fp_line (start 13.1 1.8) (end 13.1 -14.5) (layer F.CrtYd) (width 0.05))
    (fp_line (start -1.8 1.8) (end 13.1 1.8) (layer F.CrtYd) (width 0.05))
    (fp_line (start -1.8 -14.5) (end -1.8 1.8) (layer F.CrtYd) (width 0.05))
    (fp_line (start -1.27 1.27) (end 0 1.27) (layer F.SilkS) (width 0.12))
    (fp_line (start -1.27 1.27) (end -1.27 0) (layer F.SilkS) (width 0.12))
    (fp_line (start 1.042929 0.38) (end 1.497071 0.38) (layer F.SilkS) (width 0.12))
    (fp_line (start 1.042929 -0.38) (end 1.497071 -0.38) (layer F.SilkS) (width 0.12))
    (fp_line (start 3.582929 0.38) (end 3.98 0.38) (layer F.SilkS) (width 0.12))
    (fp_line (start 3.582929 -0.38) (end 3.98 -0.38) (layer F.SilkS) (width 0.12))
    (fp_line (start 12.64 -12.32) (end 6.64 -12.32) (layer F.SilkS) (width 0.12))
    (fp_line (start 12.64 -13.08) (end 12.64 -12.32) (layer F.SilkS) (width 0.12))
    (fp_line (start 6.64 -13.08) (end 12.64 -13.08) (layer F.SilkS) (width 0.12))
    (fp_line (start 3.98 -1.27) (end 6.64 -1.27) (layer F.SilkS) (width 0.12))
    (fp_line (start 1.042929 -2.16) (end 1.497071 -2.16) (layer F.SilkS) (width 0.12))
    (fp_line (start 1.042929 -2.92) (end 1.497071 -2.92) (layer F.SilkS) (width 0.12))
    (fp_line (start 3.582929 -2.16) (end 3.98 -2.16) (layer F.SilkS) (width 0.12))
    (fp_line (start 3.582929 -2.92) (end 3.98 -2.92) (layer F.SilkS) (width 0.12))
    (fp_line (start 12.64 -2.16) (end 6.64 -2.16) (layer F.SilkS) (width 0.12))
    (fp_line (start 12.64 -2.92) (end 12.64 -2.16) (layer F.SilkS) (width 0.12))
    (fp_line (start 6.64 -2.92) (end 12.64 -2.92) (layer F.SilkS) (width 0.12))
    (fp_line (start 3.98 -3.81) (end 6.64 -3.81) (layer F.SilkS) (width 0.12))
    (fp_line (start 1.042929 -4.7) (end 1.497071 -4.7) (layer F.SilkS) (width 0.12))
    (fp_line (start 1.042929 -5.46) (end 1.497071 -5.46) (layer F.SilkS) (width 0.12))
    (fp_line (start 3.582929 -4.7) (end 3.98 -4.7) (layer F.SilkS) (width 0.12))
    (fp_line (start 3.582929 -5.46) (end 3.98 -5.46) (layer F.SilkS) (width 0.12))
    (fp_line (start 12.64 -4.7) (end 6.64 -4.7) (layer F.SilkS) (width 0.12))
    (fp_line (start 12.64 -5.46) (end 12.64 -4.7) (layer F.SilkS) (width 0.12))
    (fp_line (start 6.64 -5.46) (end 12.64 -5.46) (layer F.SilkS) (width 0.12))
    (fp_line (start 3.98 -6.35) (end 6.64 -6.35) (layer F.SilkS) (width 0.12))
    (fp_line (start 1.042929 -7.24) (end 1.497071 -7.24) (layer F.SilkS) (width 0.12))
    (fp_line (start 1.042929 -8) (end 1.497071 -8) (layer F.SilkS) (width 0.12))
    (fp_line (start 3.582929 -7.24) (end 3.98 -7.24) (layer F.SilkS) (width 0.12))
    (fp_line (start 3.582929 -8) (end 3.98 -8) (layer F.SilkS) (width 0.12))
    (fp_line (start 12.64 -7.24) (end 6.64 -7.24) (layer F.SilkS) (width 0.12))
    (fp_line (start 12.64 -8) (end 12.64 -7.24) (layer F.SilkS) (width 0.12))
    (fp_line (start 6.64 -8) (end 12.64 -8) (layer F.SilkS) (width 0.12))
    (fp_line (start 3.98 -8.89) (end 6.64 -8.89) (layer F.SilkS) (width 0.12))
    (fp_line (start 1.042929 -9.78) (end 1.497071 -9.78) (layer F.SilkS) (width 0.12))
    (fp_line (start 1.042929 -10.54) (end 1.497071 -10.54) (layer F.SilkS) (width 0.12))
    (fp_line (start 3.582929 -9.78) (end 3.98 -9.78) (layer F.SilkS) (width 0.12))
    (fp_line (start 3.582929 -10.54) (end 3.98 -10.54) (layer F.SilkS) (width 0.12))
    (fp_line (start 12.64 -9.78) (end 6.64 -9.78) (layer F.SilkS) (width 0.12))
    (fp_line (start 12.64 -10.54) (end 12.64 -9.78) (layer F.SilkS) (width 0.12))
    (fp_line (start 6.64 -10.54) (end 12.64 -10.54) (layer F.SilkS) (width 0.12))
    (fp_line (start 3.98 -11.43) (end 6.64 -11.43) (layer F.SilkS) (width 0.12))
    (fp_line (start 1.11 -12.32) (end 1.497071 -12.32) (layer F.SilkS) (width 0.12))
    (fp_line (start 1.11 -13.08) (end 1.497071 -13.08) (layer F.SilkS) (width 0.12))
    (fp_line (start 3.582929 -12.32) (end 3.98 -12.32) (layer F.SilkS) (width 0.12))
    (fp_line (start 3.582929 -13.08) (end 3.98 -13.08) (layer F.SilkS) (width 0.12))
    (fp_line (start 6.64 0.28) (end 12.64 0.28) (layer F.SilkS) (width 0.12))
    (fp_line (start 6.64 0.16) (end 12.64 0.16) (layer F.SilkS) (width 0.12))
    (fp_line (start 6.64 0.04) (end 12.64 0.04) (layer F.SilkS) (width 0.12))
    (fp_line (start 6.64 -0.08) (end 12.64 -0.08) (layer F.SilkS) (width 0.12))
    (fp_line (start 6.64 -0.2) (end 12.64 -0.2) (layer F.SilkS) (width 0.12))
    (fp_line (start 6.64 -0.32) (end 12.64 -0.32) (layer F.SilkS) (width 0.12))
    (fp_line (start 12.64 0.38) (end 6.64 0.38) (layer F.SilkS) (width 0.12))
    (fp_line (start 12.64 -0.38) (end 12.64 0.38) (layer F.SilkS) (width 0.12))
    (fp_line (start 6.64 -0.38) (end 12.64 -0.38) (layer F.SilkS) (width 0.12))
    (fp_line (start 6.64 -14.03) (end 3.98 -14.03) (layer F.SilkS) (width 0.12))
    (fp_line (start 6.64 1.33) (end 6.64 -14.03) (layer F.SilkS) (width 0.12))
    (fp_line (start 3.98 1.33) (end 6.64 1.33) (layer F.SilkS) (width 0.12))
    (fp_line (start 3.98 -14.03) (end 3.98 1.33) (layer F.SilkS) (width 0.12))
    (fp_line (start 6.58 0.32) (end 12.58 0.32) (layer F.Fab) (width 0.1))
    (fp_line (start 12.58 -0.32) (end 12.58 0.32) (layer F.Fab) (width 0.1))
    (fp_line (start 6.58 -0.32) (end 12.58 -0.32) (layer F.Fab) (width 0.1))
    (fp_line (start -0.32 0.32) (end 4.04 0.32) (layer F.Fab) (width 0.1))
    (fp_line (start -0.32 -0.32) (end -0.32 0.32) (layer F.Fab) (width 0.1))
    (fp_line (start -0.32 -0.32) (end 4.04 -0.32) (layer F.Fab) (width 0.1))
    (fp_line (start 6.58 -2.22) (end 12.58 -2.22) (layer F.Fab) (width 0.1))
    (fp_line (start 12.58 -2.86) (end 12.58 -2.22) (layer F.Fab) (width 0.1))
    (fp_line (start 6.58 -2.86) (end 12.58 -2.86) (layer F.Fab) (width 0.1))
    (fp_line (start -0.32 -2.22) (end 4.04 -2.22) (layer F.Fab) (width 0.1))
    (fp_line (start -0.32 -2.86) (end -0.32 -2.22) (layer F.Fab) (width 0.1))
    (fp_line (start -0.32 -2.86) (end 4.04 -2.86) (layer F.Fab) (width 0.1))
    (fp_line (start 6.58 -4.76) (end 12.58 -4.76) (layer F.Fab) (width 0.1))
    (fp_line (start 12.58 -5.4) (end 12.58 -4.76) (layer F.Fab) (width 0.1))
    (fp_line (start 6.58 -5.4) (end 12.58 -5.4) (layer F.Fab) (width 0.1))
    (fp_line (start -0.32 -4.76) (end 4.04 -4.76) (layer F.Fab) (width 0.1))
    (fp_line (start -0.32 -5.4) (end -0.32 -4.76) (layer F.Fab) (width 0.1))
    (fp_line (start -0.32 -5.4) (end 4.04 -5.4) (layer F.Fab) (width 0.1))
    (fp_line (start 6.58 -7.3) (end 12.58 -7.3) (layer F.Fab) (width 0.1))
    (fp_line (start 12.58 -7.94) (end 12.58 -7.3) (layer F.Fab) (width 0.1))
    (fp_line (start 6.58 -7.94) (end 12.58 -7.94) (layer F.Fab) (width 0.1))
    (fp_line (start -0.32 -7.3) (end 4.04 -7.3) (layer F.Fab) (width 0.1))
    (fp_line (start -0.32 -7.94) (end -0.32 -7.3) (layer F.Fab) (width 0.1))
    (fp_line (start -0.32 -7.94) (end 4.04 -7.94) (layer F.Fab) (width 0.1))
    (fp_line (start 6.58 -9.84) (end 12.58 -9.84) (layer F.Fab) (width 0.1))
    (fp_line (start 12.58 -10.48) (end 12.58 -9.84) (layer F.Fab) (width 0.1))
    (fp_line (start 6.58 -10.48) (end 12.58 -10.48) (layer F.Fab) (width 0.1))
    (fp_line (start -0.32 -9.84) (end 4.04 -9.84) (layer F.Fab) (width 0.1))
    (fp_line (start -0.32 -10.48) (end -0.32 -9.84) (layer F.Fab) (width 0.1))
    (fp_line (start -0.32 -10.48) (end 4.04 -10.48) (layer F.Fab) (width 0.1))
    (fp_line (start 6.58 -12.38) (end 12.58 -12.38) (layer F.Fab) (width 0.1))
    (fp_line (start 12.58 -13.02) (end 12.58 -12.38) (layer F.Fab) (width 0.1))
    (fp_line (start 6.58 -13.02) (end 12.58 -13.02) (layer F.Fab) (width 0.1))
    (fp_line (start -0.32 -12.38) (end 4.04 -12.38) (layer F.Fab) (width 0.1))
    (fp_line (start -0.32 -13.02) (end -0.32 -12.38) (layer F.Fab) (width 0.1))
    (fp_line (start -0.32 -13.02) (end 4.04 -13.02) (layer F.Fab) (width 0.1))
    (fp_line (start 4.675 1.27) (end 4.04 0.635) (layer F.Fab) (width 0.1))
    (fp_line (start 4.04 0.635) (end 4.04 -13.97) (layer F.Fab) (width 0.1))
    (fp_line (start 6.58 -13.97) (end 4.04 -13.97) (layer F.Fab) (width 0.1))
    (fp_line (start 6.58 -13.97) (end 6.58 1.27) (layer F.Fab) (width 0.1))
    (fp_line (start 4.675 1.27) (end 6.58 1.27) (layer F.Fab) (width 0.1))
    (pad 6 thru_hole oval (at 0 -12.7 180) (size 1.7 1.7) (drill 1) (layers *.Cu *.Mask)
      (net 1 +3V3))
    (pad 7 thru_hole oval (at 2.54 0 180) (size 1.7 1.7) (drill 1) (layers *.Cu *.Mask)
      (net 11 /DATA_O))
    (pad 1 thru_hole rect (at 0 0 180) (size 1.7 1.7) (drill 1) (layers *.Cu *.Mask)
      (net 19 /\DATA_I))
    (pad 8 thru_hole oval (at 2.54 -2.54 180) (size 1.7 1.7) (drill 1) (layers *.Cu *.Mask)
      (net 14 /CLK_O))
    (pad 2 thru_hole oval (at 0 -2.54 180) (size 1.7 1.7) (drill 1) (layers *.Cu *.Mask)
      (net 20 /\CLK_I))
    (pad 9 thru_hole oval (at 2.54 -5.08 180) (size 1.7 1.7) (drill 1) (layers *.Cu *.Mask)
      (net 15 /ATN_O))
    (pad 3 thru_hole oval (at 0 -5.08 180) (size 1.7 1.7) (drill 1) (layers *.Cu *.Mask))
    (pad 10 thru_hole oval (at 2.54 -7.62 180) (size 1.7 1.7) (drill 1) (layers *.Cu *.Mask)
      (net 18 /RST_O))
    (pad 4 thru_hole oval (at 0 -7.62 180) (size 1.7 1.7) (drill 1) (layers *.Cu *.Mask)
      (net 21 /\RST_I))
    (pad 11 thru_hole oval (at 2.54 -10.16 180) (size 1.7 1.7) (drill 1) (layers *.Cu *.Mask)
      (net 2 GND))
    (pad 5 thru_hole oval (at 0 -10.16 180) (size 1.7 1.7) (drill 1) (layers *.Cu *.Mask)
      (net 2 GND))
    (pad 12 thru_hole oval (at 2.54 -12.7 180) (size 1.7 1.7) (drill 1) (layers *.Cu *.Mask)
      (net 1 +3V3))
    (model ${KISYS3DMOD}/Connector_PinHeader_2.54mm.3dshapes/PinHeader_2x06_P2.54mm_Horizontal.wrl
      (offset (xyz 0 12.69999980926514 0))
      (scale (xyz 1 1 1))
      (rotate (xyz 0 0 0))
    )
  )

  (gr_text c64soc (at 139.192 112.395 270) (layer B.SilkS) (tstamp 5CCE1752)
    (effects (font (size 1.4986 1.4986) (thickness 0.3048)) (justify mirror))
  )
  (gr_text "DEH 2019" (at 136.906 112.395 270) (layer B.SilkS)
    (effects (font (size 1.4986 1.4986) (thickness 0.3048)) (justify mirror))
  )
  (gr_text "IEC 00\n" (at 106.299 103.124) (layer F.SilkS)
    (effects (font (size 1.4986 1.4986) (thickness 0.3048)))
  )
  (gr_line (start 101.981 122.809) (end 101.981 101.981) (layer Margin) (width 0.15) (tstamp 5CC927F5))
  (gr_line (start 144.399 122.809) (end 101.981 122.809) (layer Margin) (width 0.15))
  (gr_line (start 144.399 101.981) (end 144.399 122.809) (layer Margin) (width 0.15))
  (gr_line (start 101.981 101.981) (end 144.399 101.981) (layer Margin) (width 0.15))
  (dimension 21.59 (width 0.15) (layer F.Fab)
    (gr_text "0.8500 in" (at 148.62 112.395 270) (layer F.Fab)
      (effects (font (size 1 1) (thickness 0.15)))
    )
    (feature1 (pts (xy 144.78 123.19) (xy 147.906421 123.19)))
    (feature2 (pts (xy 144.78 101.6) (xy 147.906421 101.6)))
    (crossbar (pts (xy 147.32 101.6) (xy 147.32 123.19)))
    (arrow1a (pts (xy 147.32 123.19) (xy 146.733579 122.063496)))
    (arrow1b (pts (xy 147.32 123.19) (xy 147.906421 122.063496)))
    (arrow2a (pts (xy 147.32 101.6) (xy 146.733579 102.726504)))
    (arrow2b (pts (xy 147.32 101.6) (xy 147.906421 102.726504)))
  )
  (dimension 43.18 (width 0.15) (layer F.Fab)
    (gr_text "1.7000 in" (at 123.19 97.125) (layer F.Fab)
      (effects (font (size 1 1) (thickness 0.15)))
    )
    (feature1 (pts (xy 144.78 101.6) (xy 144.78 97.838579)))
    (feature2 (pts (xy 101.6 101.6) (xy 101.6 97.838579)))
    (crossbar (pts (xy 101.6 98.425) (xy 144.78 98.425)))
    (arrow1a (pts (xy 144.78 98.425) (xy 143.653496 99.011421)))
    (arrow1b (pts (xy 144.78 98.425) (xy 143.653496 97.838579)))
    (arrow2a (pts (xy 101.6 98.425) (xy 102.726504 99.011421)))
    (arrow2b (pts (xy 101.6 98.425) (xy 102.726504 97.838579)))
  )
  (gr_line (start 101.6 123.19) (end 101.6 101.6) (layer Edge.Cuts) (width 0.1) (tstamp 5CC83A2E))
  (gr_line (start 144.78 123.19) (end 101.6 123.19) (layer Edge.Cuts) (width 0.1))
  (gr_line (start 144.78 101.6) (end 144.78 123.19) (layer Edge.Cuts) (width 0.1))
  (gr_line (start 101.6 101.6) (end 144.78 101.6) (layer Edge.Cuts) (width 0.1))

  (segment (start 107.95 118.745) (end 105.537 118.745) (width 0.381) (layer B.Cu) (net 1))
  (segment (start 105.41 118.745) (end 105.41 118.618) (width 0.381) (layer B.Cu) (net 1))
  (segment (start 124.079 118.745) (end 124.206 118.872) (width 0.381) (layer F.Cu) (net 1))
  (via (at 124.206 118.872) (size 0.7366) (drill 0.3302) (layers F.Cu B.Cu) (net 1))
  (segment (start 107.95 118.745) (end 124.079 118.745) (width 0.381) (layer F.Cu) (net 1))
  (segment (start 105.41 118.745) (end 107.823 118.745) (width 0.381) (layer F.Cu) (net 1))
  (via (at 115.316 118.7958) (size 0.7366) (drill 0.3302) (layers F.Cu B.Cu) (net 1) (tstamp 5CCBD05B))
  (via (at 119.126 118.7958) (size 0.7366) (drill 0.3302) (layers F.Cu B.Cu) (net 1))
  (segment (start 119.2275 112.8775) (end 119.126 112.979) (width 0.381) (layer B.Cu) (net 1))
  (segment (start 119.126 112.979) (end 119.126 118.7958) (width 0.381) (layer B.Cu) (net 1))
  (segment (start 119.2275 103.505) (end 119.2275 112.8775) (width 0.381) (layer B.Cu) (net 1))
  (segment (start 121.158 104.14) (end 119.54 104.14) (width 0.381) (layer F.Cu) (net 1))
  (segment (start 121.539 104.521) (end 121.158 104.14) (width 0.381) (layer F.Cu) (net 1))
  (via (at 123.698 104.521) (size 0.7366) (drill 0.3302) (layers F.Cu B.Cu) (net 1))
  (segment (start 123.698 104.521) (end 121.539 104.521) (width 0.381) (layer F.Cu) (net 1))
  (segment (start 115.316 117.348) (end 115.316 118.7958) (width 0.381) (layer B.Cu) (net 1))
  (segment (start 115.0875 117.1195) (end 115.316 117.348) (width 0.381) (layer B.Cu) (net 1))
  (segment (start 115.0875 103.505) (end 115.0875 117.1195) (width 0.381) (layer B.Cu) (net 1))
  (segment (start 123.698 115.697) (end 124.206 116.205) (width 0.381) (layer B.Cu) (net 1))
  (segment (start 124.206 116.205) (end 124.206 118.872) (width 0.381) (layer B.Cu) (net 1))
  (segment (start 123.698 104.521) (end 123.698 115.697) (width 0.381) (layer B.Cu) (net 1))
  (segment (start 122.555 121.9455) (end 122.4535 121.9455) (width 0.381) (layer F.Cu) (net 2))
  (segment (start 113.886 111.76) (end 114.554 111.76) (width 0.381) (layer F.Cu) (net 2))
  (segment (start 114.14 111.76) (end 114.554 111.76) (width 0.381) (layer F.Cu) (net 2))
  (segment (start 113.1825 116.84) (end 113.1825 117.7035) (width 0.381) (layer F.Cu) (net 2))
  (segment (start 113.1825 117.7035) (end 113.03 117.856) (width 0.381) (layer F.Cu) (net 2))
  (segment (start 118.2625 117.7545) (end 118.161 117.856) (width 0.381) (layer F.Cu) (net 2))
  (segment (start 118.2625 116.84) (end 118.2625 117.7545) (width 0.381) (layer F.Cu) (net 2))
  (segment (start 119.4055 121.9455) (end 122.555 121.9455) (width 0.381) (layer F.Cu) (net 2))
  (segment (start 110.49 121.92) (end 109.728 121.92) (width 0.381) (layer F.Cu) (net 2))
  (via (at 109.728 121.92) (size 0.7366) (drill 0.3302) (layers F.Cu B.Cu) (net 2))
  (segment (start 119.38 121.92) (end 119.4055 121.9455) (width 0.381) (layer F.Cu) (net 2))
  (segment (start 109.728 121.92) (end 119.38 121.92) (width 0.381) (layer F.Cu) (net 2))
  (segment (start 109.728 121.92) (end 109.728 117.856) (width 0.381) (layer B.Cu) (net 2))
  (segment (start 108.077 116.205) (end 109.728 117.856) (width 0.381) (layer B.Cu) (net 2))
  (segment (start 107.95 116.205) (end 108.077 116.205) (width 0.381) (layer B.Cu) (net 2))
  (segment (start 120.65 107.95) (end 119.54 107.95) (width 0.381) (layer F.Cu) (net 2))
  (segment (start 122.555 106.045) (end 120.65 107.95) (width 0.381) (layer F.Cu) (net 2))
  (segment (start 105.41 116.205) (end 105.283 116.205) (width 0.381) (layer B.Cu) (net 2))
  (segment (start 121.92 105.41) (end 119.54 105.41) (width 0.381) (layer F.Cu) (net 2))
  (segment (start 122.555 106.045) (end 121.92 105.41) (width 0.381) (layer F.Cu) (net 2))
  (via (at 125.222 117.856) (size 0.7366) (drill 0.3302) (layers F.Cu B.Cu) (net 2))
  (segment (start 122.428 117.856) (end 125.222 117.856) (width 0.381) (layer F.Cu) (net 2))
  (segment (start 105.41 116.205) (end 107.823 116.205) (width 0.381) (layer B.Cu) (net 2))
  (segment (start 113.02876 117.85476) (end 113.03 117.856) (width 0.381) (layer F.Cu) (net 2))
  (segment (start 109.72676 117.85476) (end 113.02876 117.85476) (width 0.381) (layer F.Cu) (net 2))
  (segment (start 108.077 116.205) (end 109.72676 117.85476) (width 0.381) (layer F.Cu) (net 2))
  (segment (start 105.41 116.205) (end 108.077 116.205) (width 0.381) (layer F.Cu) (net 2))
  (segment (start 116.1109 117.856) (end 118.161 117.856) (width 0.381) (layer F.Cu) (net 2))
  (segment (start 113.03 117.856) (end 116.1109 117.856) (width 0.381) (layer F.Cu) (net 2))
  (segment (start 121.1909 117.856) (end 122.428 117.856) (width 0.381) (layer F.Cu) (net 2))
  (segment (start 118.161 117.856) (end 121.1909 117.856) (width 0.381) (layer F.Cu) (net 2))
  (segment (start 123.437296 116.846704) (end 123.444 116.84) (width 0.381) (layer F.Cu) (net 2))
  (segment (start 123.317 117.849296) (end 123.317 116.846704) (width 0.381) (layer F.Cu) (net 2))
  (segment (start 123.444 117.856) (end 123.437296 117.849296) (width 0.381) (layer F.Cu) (net 2))
  (segment (start 127.762 105.918) (end 129.286 107.442) (width 0.381) (layer F.Cu) (net 2))
  (segment (start 124.714 105.918) (end 122.682 105.918) (width 0.381) (layer F.Cu) (net 2))
  (segment (start 124.714 105.918) (end 127.762 105.918) (width 0.381) (layer F.Cu) (net 2))
  (via (at 124.714 105.918) (size 0.7366) (drill 0.3302) (layers F.Cu B.Cu) (net 2))
  (segment (start 117.518112 111.76) (end 114.14 111.76) (width 0.381) (layer F.Cu) (net 2))
  (segment (start 118.534104 112.775992) (end 117.518112 111.76) (width 0.381) (layer F.Cu) (net 2))
  (segment (start 123.951992 112.775992) (end 118.534104 112.775992) (width 0.381) (layer F.Cu) (net 2))
  (segment (start 124.714 113.538) (end 123.951992 112.775992) (width 0.381) (layer F.Cu) (net 2))
  (via (at 124.714 113.538) (size 0.7366) (drill 0.3302) (layers F.Cu B.Cu) (net 2))
  (segment (start 125.222 114.046) (end 125.222 117.856) (width 0.381) (layer B.Cu) (net 2))
  (segment (start 124.714 113.538) (end 125.222 114.046) (width 0.381) (layer B.Cu) (net 2))
  (segment (start 124.714 105.918) (end 124.714 113.538) (width 0.381) (layer B.Cu) (net 2))
  (segment (start 112.014 120.396) (end 113.03 120.396) (width 0.2032) (layer F.Cu) (net 3))
  (segment (start 112.08 118.89) (end 112.08 118.34) (width 0.2032) (layer B.Cu) (net 3))
  (segment (start 112.014 118.956) (end 112.08 118.89) (width 0.2032) (layer B.Cu) (net 3))
  (segment (start 112.014 120.396) (end 112.014 118.956) (width 0.2032) (layer B.Cu) (net 3))
  (via (at 112.014 120.396) (size 0.7366) (drill 0.3302) (layers F.Cu B.Cu) (net 3))
  (via (at 114.3 120.904) (size 0.7366) (drill 0.3302) (layers F.Cu B.Cu) (net 4))
  (segment (start 115.63351 120.904) (end 116.14151 120.396) (width 0.2032) (layer F.Cu) (net 4))
  (segment (start 114.3 120.904) (end 115.63351 120.904) (width 0.2032) (layer F.Cu) (net 4))
  (segment (start 112.014 108.881) (end 112.08 108.815) (width 0.2032) (layer B.Cu) (net 4))
  (segment (start 112.014 116.332) (end 112.014 108.881) (width 0.2032) (layer B.Cu) (net 4))
  (segment (start 113.03 117.348) (end 112.014 116.332) (width 0.2032) (layer B.Cu) (net 4))
  (segment (start 113.03 119.634) (end 113.03 117.348) (width 0.2032) (layer B.Cu) (net 4))
  (segment (start 114.3 120.904) (end 113.03 119.634) (width 0.2032) (layer B.Cu) (net 4))
  (segment (start 120.396 120.396) (end 119.38 120.396) (width 0.2032) (layer F.Cu) (net 5))
  (segment (start 120.335 120.335) (end 120.335 118.34) (width 0.2032) (layer B.Cu) (net 5))
  (segment (start 120.396 120.396) (end 120.335 120.335) (width 0.2032) (layer B.Cu) (net 5))
  (via (at 120.396 120.396) (size 0.7366) (drill 0.3302) (layers F.Cu B.Cu) (net 5))
  (via (at 123.698 120.396) (size 0.7366) (drill 0.3302) (layers F.Cu B.Cu) (net 6))
  (segment (start 123.698 120.396) (end 122.682 120.396) (width 0.2032) (layer F.Cu) (net 6))
  (segment (start 123.19 119.888) (end 123.698 120.396) (width 0.2032) (layer B.Cu) (net 6))
  (segment (start 123.19 116.586) (end 123.19 119.888) (width 0.2032) (layer B.Cu) (net 6))
  (segment (start 122.555 115.951) (end 123.19 116.586) (width 0.2032) (layer B.Cu) (net 6))
  (segment (start 122.555 112.903) (end 122.555 115.951) (width 0.2032) (layer B.Cu) (net 6))
  (segment (start 120.335 110.683) (end 122.555 112.903) (width 0.2032) (layer B.Cu) (net 6))
  (segment (start 120.335 108.815) (end 120.335 110.683) (width 0.2032) (layer B.Cu) (net 6))
  (segment (start 130.556 111.252) (end 131.572 112.268) (width 0.2032) (layer F.Cu) (net 7))
  (segment (start 129.921 110.617) (end 130.556 111.252) (width 0.2032) (layer F.Cu) (net 7))
  (segment (start 117.251571 110.49) (end 117.882205 111.120634) (width 0.2032) (layer F.Cu) (net 7))
  (segment (start 124.46 110.617) (end 129.921 110.617) (width 0.2032) (layer F.Cu) (net 7))
  (segment (start 117.882205 111.120634) (end 123.956366 111.120634) (width 0.2032) (layer F.Cu) (net 7))
  (segment (start 123.956366 111.120634) (end 124.46 110.617) (width 0.2032) (layer F.Cu) (net 7))
  (segment (start 114.14 110.49) (end 117.251571 110.49) (width 0.2032) (layer F.Cu) (net 7))
  (segment (start 118.237 114.935) (end 118.237 114.808) (width 0.2032) (layer F.Cu) (net 8))
  (via (at 117.560641 113.792) (size 0.7366) (drill 0.3302) (layers F.Cu B.Cu) (net 8))
  (segment (start 118.2625 114.935) (end 118.2625 114.8335) (width 0.2032) (layer F.Cu) (net 8))
  (segment (start 117.560641 113.792) (end 117.560641 114.131641) (width 0.2032) (layer F.Cu) (net 8))
  (segment (start 117.560641 114.131641) (end 118.237 114.808) (width 0.2032) (layer F.Cu) (net 8))
  (segment (start 117.602 108.880642) (end 118.546159 109.824801) (width 0.2032) (layer F.Cu) (net 8))
  (segment (start 118.546159 109.824801) (end 120.934199 109.824801) (width 0.2032) (layer F.Cu) (net 8))
  (segment (start 117.602 107.188) (end 117.602 108.880642) (width 0.2032) (layer F.Cu) (net 8))
  (segment (start 117.602 107.188) (end 116.078 107.188) (width 0.2032) (layer F.Cu) (net 8))
  (segment (start 116.078 107.188) (end 115.316 107.95) (width 0.2032) (layer F.Cu) (net 8))
  (segment (start 128.511166 109.474) (end 129.03202 109.474) (width 0.2032) (layer F.Cu) (net 8))
  (segment (start 115.316 107.95) (end 114.046 107.95) (width 0.2032) (layer F.Cu) (net 8))
  (via (at 117.602 107.188) (size 0.7366) (drill 0.3302) (layers F.Cu B.Cu) (net 8))
  (segment (start 120.934199 109.824801) (end 121.285 109.474) (width 0.2032) (layer F.Cu) (net 8))
  (segment (start 121.285 109.474) (end 128.511166 109.474) (width 0.2032) (layer F.Cu) (net 8))
  (segment (start 117.602 107.188) (end 117.560641 107.229359) (width 0.2032) (layer B.Cu) (net 8))
  (segment (start 117.560641 107.229359) (end 117.560641 113.198359) (width 0.2032) (layer B.Cu) (net 8))
  (segment (start 117.560641 113.198359) (end 117.560641 113.792) (width 0.2032) (layer B.Cu) (net 8))
  (segment (start 129.159 117.475) (end 129.159 109.60098) (width 0.2032) (layer B.Cu) (net 8))
  (segment (start 129.032 117.602) (end 129.159 117.475) (width 0.2032) (layer B.Cu) (net 8))
  (via (at 129.159 109.474) (size 0.7366) (drill 0.3302) (layers F.Cu B.Cu) (net 8))
  (segment (start 129.159 109.60098) (end 129.159 109.474) (width 0.2032) (layer B.Cu) (net 8))
  (via (at 110.998 105.41) (size 0.7366) (drill 0.3302) (layers F.Cu B.Cu) (net 9))
  (via (at 133.858 103.124) (size 0.7366) (drill 0.3302) (layers F.Cu B.Cu) (net 9))
  (segment (start 114.046 105.41) (end 110.998 105.41) (width 0.2032) (layer F.Cu) (net 9))
  (segment (start 116.332 105.41) (end 114.046 105.41) (width 0.2032) (layer F.Cu) (net 9))
  (segment (start 118.618 103.124) (end 116.332 105.41) (width 0.2032) (layer F.Cu) (net 9))
  (segment (start 133.858 103.124) (end 118.618 103.124) (width 0.2032) (layer F.Cu) (net 9))
  (segment (start 110.998 113.411) (end 110.998 105.41) (width 0.2032) (layer B.Cu) (net 9))
  (via (at 110.998 113.411) (size 0.7366) (drill 0.3302) (layers F.Cu B.Cu) (net 9))
  (segment (start 111.7855 113.411) (end 110.998 113.411) (width 0.2032) (layer F.Cu) (net 9))
  (segment (start 111.7855 113.4365) (end 111.7855 113.411) (width 0.2032) (layer F.Cu) (net 9))
  (segment (start 113.157 114.808) (end 111.7855 113.4365) (width 0.2032) (layer F.Cu) (net 9))
  (segment (start 113.1825 114.808) (end 113.157 114.808) (width 0.2032) (layer F.Cu) (net 9))
  (segment (start 133.858 117.602) (end 133.858 103.124) (width 0.2032) (layer B.Cu) (net 9))
  (segment (start 131.605 119.855) (end 133.858 117.602) (width 0.2032) (layer B.Cu) (net 9))
  (segment (start 126.746 112.522) (end 125.984 111.76) (width 0.2032) (layer F.Cu) (net 10))
  (segment (start 123.3425 114.935) (end 123.3425 114.8335) (width 0.2032) (layer F.Cu) (net 10))
  (segment (start 123.3425 114.808) (end 125.73 114.808) (width 0.2032) (layer F.Cu) (net 10))
  (segment (start 126.619 113.919) (end 126.619 112.268) (width 0.2032) (layer F.Cu) (net 10))
  (segment (start 125.73 114.808) (end 126.619 113.919) (width 0.2032) (layer F.Cu) (net 10))
  (segment (start 124.079 111.76) (end 119.634 111.76) (width 0.2032) (layer F.Cu) (net 10))
  (segment (start 124.714 112.395) (end 124.079 111.76) (width 0.2032) (layer F.Cu) (net 10))
  (segment (start 126.565 112.395) (end 124.714 112.395) (width 0.2032) (layer F.Cu) (net 10))
  (segment (start 126.605 112.355) (end 126.565 112.395) (width 0.2032) (layer F.Cu) (net 10))
  (segment (start 105.41 106.045) (end 105.41 105.918) (width 0.2032) (layer F.Cu) (net 11))
  (segment (start 105.41 105.918) (end 107.188 104.14) (width 0.2032) (layer F.Cu) (net 11))
  (segment (start 107.188 104.14) (end 114.046 104.14) (width 0.2032) (layer F.Cu) (net 11))
  (via (at 116.332 104.14) (size 0.7366) (drill 0.3302) (layers F.Cu B.Cu) (net 11))
  (segment (start 114.14 104.14) (end 116.332 104.14) (width 0.2032) (layer F.Cu) (net 11))
  (via (at 118.237 119.761) (size 0.7366) (drill 0.3302) (layers F.Cu B.Cu) (net 11))
  (via (at 114.808 119.888) (size 0.7366) (drill 0.3302) (layers F.Cu B.Cu) (net 11))
  (segment (start 113.931701 118.478299) (end 114.046 118.592598) (width 0.2032) (layer B.Cu) (net 11))
  (segment (start 113.931701 119.519701) (end 113.931701 118.478299) (width 0.2032) (layer B.Cu) (net 11))
  (segment (start 114.3 119.888) (end 113.931701 119.519701) (width 0.2032) (layer B.Cu) (net 11))
  (segment (start 114.808 119.888) (end 114.3 119.888) (width 0.2032) (layer B.Cu) (net 11))
  (segment (start 117.602 119.761) (end 118.237 119.761) (width 0.2032) (layer F.Cu) (net 11))
  (segment (start 117.348 119.507) (end 117.602 119.761) (width 0.2032) (layer F.Cu) (net 11))
  (segment (start 115.824 119.507) (end 117.348 119.507) (width 0.2032) (layer F.Cu) (net 11))
  (segment (start 115.443 119.888) (end 115.824 119.507) (width 0.2032) (layer F.Cu) (net 11))
  (segment (start 114.808 119.888) (end 115.443 119.888) (width 0.2032) (layer F.Cu) (net 11))
  (segment (start 118.237 112.014) (end 118.237 119.761) (width 0.2032) (layer B.Cu) (net 11))
  (segment (start 118.364 111.887) (end 118.237 112.014) (width 0.2032) (layer B.Cu) (net 11))
  (segment (start 118.364 106.172) (end 118.364 111.887) (width 0.2032) (layer B.Cu) (net 11))
  (segment (start 116.332 104.14) (end 118.364 106.172) (width 0.2032) (layer B.Cu) (net 11))
  (segment (start 113.538 113.6788) (end 113.538 112.776) (width 0.2032) (layer B.Cu) (net 12))
  (segment (start 113.03 114.1868) (end 113.538 113.6788) (width 0.2032) (layer B.Cu) (net 12))
  (segment (start 113.03 115.34) (end 113.03 114.1868) (width 0.2032) (layer B.Cu) (net 12))
  (segment (start 113.1825 105.8925) (end 113.03 106.045) (width 0.2032) (layer B.Cu) (net 13))
  (segment (start 113.03 104.6618) (end 113.538 104.1538) (width 0.2032) (layer B.Cu) (net 13))
  (segment (start 113.03 105.815) (end 113.03 104.6618) (width 0.2032) (layer B.Cu) (net 13))
  (segment (start 113.538 104.1538) (end 113.538 103.632) (width 0.2032) (layer B.Cu) (net 13))
  (via (at 111.76 106.68) (size 0.7366) (drill 0.3302) (layers F.Cu B.Cu) (net 14))
  (segment (start 111.76 106.68) (end 114.046 106.68) (width 0.2032) (layer F.Cu) (net 14))
  (segment (start 113.98 108.265) (end 113.98 108.815) (width 0.2032) (layer B.Cu) (net 14))
  (segment (start 113.03 107.315) (end 113.98 108.265) (width 0.2032) (layer B.Cu) (net 14))
  (segment (start 112.395 107.315) (end 113.03 107.315) (width 0.2032) (layer B.Cu) (net 14))
  (segment (start 111.76 106.68) (end 112.395 107.315) (width 0.2032) (layer B.Cu) (net 14))
  (segment (start 106.649801 107.345199) (end 105.41 108.585) (width 0.2032) (layer F.Cu) (net 14))
  (segment (start 109.824801 107.345199) (end 106.649801 107.345199) (width 0.2032) (layer F.Cu) (net 14))
  (segment (start 110.49 106.68) (end 109.824801 107.345199) (width 0.2032) (layer F.Cu) (net 14))
  (segment (start 111.76 106.68) (end 110.49 106.68) (width 0.2032) (layer F.Cu) (net 14))
  (segment (start 114.14 109.22) (end 109.728 109.22) (width 0.2032) (layer F.Cu) (net 15))
  (segment (start 109.728 109.22) (end 109.131999 109.816001) (width 0.2032) (layer F.Cu) (net 15))
  (segment (start 109.131999 109.816001) (end 106.845999 109.816001) (width 0.2032) (layer F.Cu) (net 15))
  (segment (start 106.845999 109.816001) (end 105.41 111.252) (width 0.2032) (layer F.Cu) (net 15))
  (segment (start 114.14 109.22) (end 115.824 109.22) (width 0.2032) (layer F.Cu) (net 15))
  (via (at 116.078 108.966) (size 0.7366) (drill 0.3302) (layers F.Cu B.Cu) (net 15))
  (segment (start 115.824 109.22) (end 116.078 108.966) (width 0.2032) (layer F.Cu) (net 15))
  (segment (start 122.301 119.99519) (end 122.301 118.364) (width 0.2032) (layer B.Cu) (net 15))
  (segment (start 120.88419 121.412) (end 122.301 119.99519) (width 0.2032) (layer B.Cu) (net 15))
  (segment (start 118.11 121.412) (end 120.88419 121.412) (width 0.2032) (layer B.Cu) (net 15))
  (segment (start 116.713 120.015) (end 118.11 121.412) (width 0.2032) (layer B.Cu) (net 15))
  (segment (start 116.713 117.475) (end 116.713 120.015) (width 0.2032) (layer B.Cu) (net 15))
  (segment (start 115.824 116.586) (end 116.713 117.475) (width 0.2032) (layer B.Cu) (net 15))
  (segment (start 115.824 114.427) (end 115.824 116.586) (width 0.2032) (layer B.Cu) (net 15))
  (segment (start 116.078 114.173) (end 115.824 114.427) (width 0.2032) (layer B.Cu) (net 15))
  (segment (start 116.078 108.966) (end 116.078 114.173) (width 0.2032) (layer B.Cu) (net 15))
  (segment (start 120.777 113.665) (end 120.777 113.284) (width 0.2032) (layer B.Cu) (net 16))
  (segment (start 121.285 114.173) (end 120.777 113.665) (width 0.2032) (layer B.Cu) (net 16))
  (segment (start 121.285 115.34) (end 121.285 114.173) (width 0.2032) (layer B.Cu) (net 16))
  (segment (start 121.285 104.6618) (end 120.904 104.2808) (width 0.2032) (layer B.Cu) (net 17))
  (segment (start 121.285 105.815) (end 121.285 104.6618) (width 0.2032) (layer B.Cu) (net 17))
  (segment (start 120.904 104.2808) (end 120.904 103.632) (width 0.2032) (layer B.Cu) (net 17))
  (via (at 122.234952 110.313044) (size 0.7366) (drill 0.3302) (layers F.Cu B.Cu) (net 18))
  (segment (start 122.235 110.312996) (end 122.234952 110.313044) (width 0.2032) (layer B.Cu) (net 18))
  (segment (start 122.235 108.815) (end 122.235 110.312996) (width 0.2032) (layer B.Cu) (net 18))
  (segment (start 121.461956 110.313044) (end 122.234952 110.313044) (width 0.2032) (layer F.Cu) (net 18))
  (segment (start 121.285 110.49) (end 121.461956 110.313044) (width 0.2032) (layer F.Cu) (net 18))
  (segment (start 118.237 110.49) (end 121.285 110.49) (width 0.2032) (layer F.Cu) (net 18))
  (segment (start 111.920881 109.885199) (end 117.632199 109.885199) (width 0.2032) (layer F.Cu) (net 18))
  (segment (start 117.632199 109.885199) (end 118.237 110.49) (width 0.2032) (layer F.Cu) (net 18))
  (segment (start 109.526279 112.279801) (end 111.920881 109.885199) (width 0.2032) (layer F.Cu) (net 18))
  (segment (start 106.795199 112.279801) (end 109.526279 112.279801) (width 0.2032) (layer F.Cu) (net 18))
  (segment (start 105.41 113.665) (end 106.795199 112.279801) (width 0.2032) (layer F.Cu) (net 18))
  (segment (start 111.6075 114.808) (end 111.6075 116.3575) (width 0.2032) (layer F.Cu) (net 19))
  (segment (start 110.236 108.458) (end 107.95 106.172) (width 0.2032) (layer B.Cu) (net 19))
  (segment (start 110.236 114.808) (end 110.236 108.458) (width 0.2032) (layer B.Cu) (net 19))
  (segment (start 110.236 114.808) (end 111.506 114.808) (width 0.2032) (layer F.Cu) (net 19))
  (via (at 110.236 114.808) (size 0.7366) (drill 0.3302) (layers F.Cu B.Cu) (net 19))
  (via (at 116.84 107.95) (size 0.7366) (drill 0.3302) (layers F.Cu B.Cu) (net 20))
  (segment (start 116.078 107.95) (end 115.443 108.585) (width 0.2032) (layer F.Cu) (net 20))
  (segment (start 115.443 108.585) (end 107.95 108.585) (width 0.2032) (layer F.Cu) (net 20))
  (segment (start 116.84 107.95) (end 116.078 107.95) (width 0.2032) (layer F.Cu) (net 20))
  (via (at 116.6875 115.7225) (size 0.7366) (drill 0.3302) (layers F.Cu B.Cu) (net 20) (tstamp 5CCBCD67))
  (segment (start 116.84 114.554) (end 116.84 107.95) (width 0.2032) (layer B.Cu) (net 20))
  (segment (start 116.713 114.681) (end 116.84 114.554) (width 0.2032) (layer B.Cu) (net 20))
  (segment (start 116.713 115.824) (end 116.713 114.681) (width 0.2032) (layer B.Cu) (net 20))
  (segment (start 116.6875 115.8495) (end 116.713 115.824) (width 0.2032) (layer B.Cu) (net 20))
  (segment (start 116.6875 114.808) (end 116.6875 115.7225) (width 0.2032) (layer F.Cu) (net 20))
  (segment (start 116.6875 116.713) (end 116.6875 115.7225) (width 0.2032) (layer F.Cu) (net 20))
  (segment (start 121.7675 114.808) (end 121.7675 116.5605) (width 0.2032) (layer F.Cu) (net 21))
  (segment (start 107.95 113.665) (end 109.347 113.665) (width 0.2032) (layer F.Cu) (net 21))
  (segment (start 109.347 113.665) (end 110.344569 112.667431) (width 0.2032) (layer F.Cu) (net 21))
  (segment (start 118.34419 113.538) (end 120.396 113.538) (width 0.2032) (layer F.Cu) (net 21))
  (segment (start 120.396 113.538) (end 121.666 114.808) (width 0.2032) (layer F.Cu) (net 21))
  (segment (start 117.473621 112.667431) (end 118.34419 113.538) (width 0.2032) (layer F.Cu) (net 21))
  (segment (start 110.344569 112.667431) (end 117.473621 112.667431) (width 0.2032) (layer F.Cu) (net 21))

)
