G04 #@! TF.GenerationSoftware,KiCad,Pcbnew,(5.0.2-5-10.14)*
G04 #@! TF.CreationDate,2019-04-20T12:54:29-07:00*
G04 #@! TF.ProjectId,dbg,6462672e-6b69-4636-9164-5f7063625858,00*
G04 #@! TF.SameCoordinates,PX586a470PY59a0560*
G04 #@! TF.FileFunction,Soldermask,Top*
G04 #@! TF.FilePolarity,Negative*
%FSLAX46Y46*%
G04 Gerber Fmt 4.6, Leading zero omitted, Abs format (unit mm)*
G04 Created by KiCad (PCBNEW (5.0.2-5-10.14)) date Saturday, April 20, 2019 at 12:54:29 PM*
%MOMM*%
%LPD*%
G01*
G04 APERTURE LIST*
%ADD10C,0.100000*%
G04 APERTURE END LIST*
D10*
G36*
X23036588Y-14352233D02*
X23206385Y-14403741D01*
X23362878Y-14487388D01*
X23500044Y-14599956D01*
X23612612Y-14737122D01*
X23696259Y-14893615D01*
X23747767Y-15063412D01*
X23765159Y-15240000D01*
X23747767Y-15416588D01*
X23696259Y-15586385D01*
X23612612Y-15742878D01*
X23500044Y-15880044D01*
X23362878Y-15992612D01*
X23206385Y-16076259D01*
X23036588Y-16127767D01*
X22904259Y-16140800D01*
X22815741Y-16140800D01*
X22683412Y-16127767D01*
X22513615Y-16076259D01*
X22357122Y-15992612D01*
X22219956Y-15880044D01*
X22107388Y-15742878D01*
X22023741Y-15586385D01*
X21972233Y-15416588D01*
X21954841Y-15240000D01*
X21972233Y-15063412D01*
X22023741Y-14893615D01*
X22107388Y-14737122D01*
X22219956Y-14599956D01*
X22357122Y-14487388D01*
X22513615Y-14403741D01*
X22683412Y-14352233D01*
X22815741Y-14339200D01*
X22904259Y-14339200D01*
X23036588Y-14352233D01*
X23036588Y-14352233D01*
G37*
G36*
X20496588Y-14352233D02*
X20666385Y-14403741D01*
X20822878Y-14487388D01*
X20960044Y-14599956D01*
X21072612Y-14737122D01*
X21156259Y-14893615D01*
X21207767Y-15063412D01*
X21225159Y-15240000D01*
X21207767Y-15416588D01*
X21156259Y-15586385D01*
X21072612Y-15742878D01*
X20960044Y-15880044D01*
X20822878Y-15992612D01*
X20666385Y-16076259D01*
X20496588Y-16127767D01*
X20364259Y-16140800D01*
X20275741Y-16140800D01*
X20143412Y-16127767D01*
X19973615Y-16076259D01*
X19817122Y-15992612D01*
X19679956Y-15880044D01*
X19567388Y-15742878D01*
X19483741Y-15586385D01*
X19432233Y-15416588D01*
X19414841Y-15240000D01*
X19432233Y-15063412D01*
X19483741Y-14893615D01*
X19567388Y-14737122D01*
X19679956Y-14599956D01*
X19817122Y-14487388D01*
X19973615Y-14403741D01*
X20143412Y-14352233D01*
X20275741Y-14339200D01*
X20364259Y-14339200D01*
X20496588Y-14352233D01*
X20496588Y-14352233D01*
G37*
G36*
X3306493Y-14806524D02*
X3388534Y-14840506D01*
X3388535Y-14840507D01*
X3462366Y-14889839D01*
X3525161Y-14952634D01*
X3558049Y-15001855D01*
X3574494Y-15026466D01*
X3608476Y-15108507D01*
X3625800Y-15195600D01*
X3625800Y-15284400D01*
X3608476Y-15371493D01*
X3574494Y-15453534D01*
X3574493Y-15453535D01*
X3525161Y-15527366D01*
X3462366Y-15590161D01*
X3413145Y-15623049D01*
X3388534Y-15639494D01*
X3306493Y-15673476D01*
X3219400Y-15690800D01*
X3130600Y-15690800D01*
X3043507Y-15673476D01*
X2961466Y-15639494D01*
X2936855Y-15623049D01*
X2887634Y-15590161D01*
X2824839Y-15527366D01*
X2775507Y-15453535D01*
X2775506Y-15453534D01*
X2741524Y-15371493D01*
X2724200Y-15284400D01*
X2724200Y-15195600D01*
X2741524Y-15108507D01*
X2775506Y-15026466D01*
X2791951Y-15001855D01*
X2824839Y-14952634D01*
X2887634Y-14889839D01*
X2961465Y-14840507D01*
X2961466Y-14840506D01*
X3043507Y-14806524D01*
X3130600Y-14789200D01*
X3219400Y-14789200D01*
X3306493Y-14806524D01*
X3306493Y-14806524D01*
G37*
G36*
X11581589Y-13082233D02*
X11751386Y-13133741D01*
X11907879Y-13217388D01*
X12045045Y-13329956D01*
X12157613Y-13467122D01*
X12241260Y-13623615D01*
X12292768Y-13793412D01*
X12310160Y-13970000D01*
X12292768Y-14146588D01*
X12241260Y-14316385D01*
X12157613Y-14472878D01*
X12045045Y-14610044D01*
X11907879Y-14722612D01*
X11751386Y-14806259D01*
X11581589Y-14857767D01*
X11449260Y-14870800D01*
X11360742Y-14870800D01*
X11228413Y-14857767D01*
X11058616Y-14806259D01*
X10902123Y-14722612D01*
X10764957Y-14610044D01*
X10652389Y-14472878D01*
X10568742Y-14316385D01*
X10517234Y-14146588D01*
X10499842Y-13970000D01*
X10517234Y-13793412D01*
X10568742Y-13623615D01*
X10652389Y-13467122D01*
X10764957Y-13329956D01*
X10902123Y-13217388D01*
X11058616Y-13133741D01*
X11228413Y-13082233D01*
X11360742Y-13069200D01*
X11449260Y-13069200D01*
X11581589Y-13082233D01*
X11581589Y-13082233D01*
G37*
G36*
X9765801Y-14870800D02*
X7964201Y-14870800D01*
X7964201Y-13069200D01*
X9765801Y-13069200D01*
X9765801Y-14870800D01*
X9765801Y-14870800D01*
G37*
G36*
X176588Y-11812233D02*
X346385Y-11863741D01*
X502878Y-11947388D01*
X640044Y-12059956D01*
X752612Y-12197122D01*
X836259Y-12353615D01*
X887767Y-12523412D01*
X905159Y-12700000D01*
X887767Y-12876588D01*
X836259Y-13046385D01*
X752612Y-13202878D01*
X640044Y-13340044D01*
X502878Y-13452612D01*
X346385Y-13536259D01*
X176588Y-13587767D01*
X44259Y-13600800D01*
X-44259Y-13600800D01*
X-176588Y-13587767D01*
X-346385Y-13536259D01*
X-502878Y-13452612D01*
X-640044Y-13340044D01*
X-752612Y-13202878D01*
X-836259Y-13046385D01*
X-887767Y-12876588D01*
X-905159Y-12700000D01*
X-887767Y-12523412D01*
X-836259Y-12353615D01*
X-752612Y-12197122D01*
X-640044Y-12059956D01*
X-502878Y-11947388D01*
X-346385Y-11863741D01*
X-176588Y-11812233D01*
X-44259Y-11799200D01*
X44259Y-11799200D01*
X176588Y-11812233D01*
X176588Y-11812233D01*
G37*
G36*
X20496588Y-11812233D02*
X20666385Y-11863741D01*
X20822878Y-11947388D01*
X20960044Y-12059956D01*
X21072612Y-12197122D01*
X21156259Y-12353615D01*
X21207767Y-12523412D01*
X21225159Y-12700000D01*
X21207767Y-12876588D01*
X21156259Y-13046385D01*
X21072612Y-13202878D01*
X20960044Y-13340044D01*
X20822878Y-13452612D01*
X20666385Y-13536259D01*
X20496588Y-13587767D01*
X20364259Y-13600800D01*
X20275741Y-13600800D01*
X20143412Y-13587767D01*
X19973615Y-13536259D01*
X19817122Y-13452612D01*
X19679956Y-13340044D01*
X19567388Y-13202878D01*
X19483741Y-13046385D01*
X19432233Y-12876588D01*
X19414841Y-12700000D01*
X19432233Y-12523412D01*
X19483741Y-12353615D01*
X19567388Y-12197122D01*
X19679956Y-12059956D01*
X19817122Y-11947388D01*
X19973615Y-11863741D01*
X20143412Y-11812233D01*
X20275741Y-11799200D01*
X20364259Y-11799200D01*
X20496588Y-11812233D01*
X20496588Y-11812233D01*
G37*
G36*
X-2363412Y-11812233D02*
X-2193615Y-11863741D01*
X-2037122Y-11947388D01*
X-1899956Y-12059956D01*
X-1787388Y-12197122D01*
X-1703741Y-12353615D01*
X-1652233Y-12523412D01*
X-1634841Y-12700000D01*
X-1652233Y-12876588D01*
X-1703741Y-13046385D01*
X-1787388Y-13202878D01*
X-1899956Y-13340044D01*
X-2037122Y-13452612D01*
X-2193615Y-13536259D01*
X-2363412Y-13587767D01*
X-2495741Y-13600800D01*
X-2584259Y-13600800D01*
X-2716588Y-13587767D01*
X-2886385Y-13536259D01*
X-3042878Y-13452612D01*
X-3180044Y-13340044D01*
X-3292612Y-13202878D01*
X-3376259Y-13046385D01*
X-3427767Y-12876588D01*
X-3445159Y-12700000D01*
X-3427767Y-12523412D01*
X-3376259Y-12353615D01*
X-3292612Y-12197122D01*
X-3180044Y-12059956D01*
X-3042878Y-11947388D01*
X-2886385Y-11863741D01*
X-2716588Y-11812233D01*
X-2584259Y-11799200D01*
X-2495741Y-11799200D01*
X-2363412Y-11812233D01*
X-2363412Y-11812233D01*
G37*
G36*
X23036588Y-11812233D02*
X23206385Y-11863741D01*
X23362878Y-11947388D01*
X23500044Y-12059956D01*
X23612612Y-12197122D01*
X23696259Y-12353615D01*
X23747767Y-12523412D01*
X23765159Y-12700000D01*
X23747767Y-12876588D01*
X23696259Y-13046385D01*
X23612612Y-13202878D01*
X23500044Y-13340044D01*
X23362878Y-13452612D01*
X23206385Y-13536259D01*
X23036588Y-13587767D01*
X22904259Y-13600800D01*
X22815741Y-13600800D01*
X22683412Y-13587767D01*
X22513615Y-13536259D01*
X22357122Y-13452612D01*
X22219956Y-13340044D01*
X22107388Y-13202878D01*
X22023741Y-13046385D01*
X21972233Y-12876588D01*
X21954841Y-12700000D01*
X21972233Y-12523412D01*
X22023741Y-12353615D01*
X22107388Y-12197122D01*
X22219956Y-12059956D01*
X22357122Y-11947388D01*
X22513615Y-11863741D01*
X22683412Y-11812233D01*
X22815741Y-11799200D01*
X22904259Y-11799200D01*
X23036588Y-11812233D01*
X23036588Y-11812233D01*
G37*
G36*
X4576493Y-12266524D02*
X4658534Y-12300506D01*
X4658535Y-12300507D01*
X4732366Y-12349839D01*
X4795161Y-12412634D01*
X4828049Y-12461855D01*
X4844494Y-12486466D01*
X4878476Y-12568507D01*
X4895800Y-12655600D01*
X4895800Y-12744400D01*
X4878476Y-12831493D01*
X4844494Y-12913534D01*
X4844493Y-12913535D01*
X4795161Y-12987366D01*
X4732366Y-13050161D01*
X4703872Y-13069200D01*
X4658534Y-13099494D01*
X4576493Y-13133476D01*
X4489400Y-13150800D01*
X4400600Y-13150800D01*
X4313507Y-13133476D01*
X4231466Y-13099494D01*
X4186128Y-13069200D01*
X4157634Y-13050161D01*
X4094839Y-12987366D01*
X4045507Y-12913535D01*
X4045506Y-12913534D01*
X4011524Y-12831493D01*
X3994200Y-12744400D01*
X3994200Y-12655600D01*
X4011524Y-12568507D01*
X4045506Y-12486466D01*
X4061951Y-12461855D01*
X4094839Y-12412634D01*
X4157634Y-12349839D01*
X4231465Y-12300507D01*
X4231466Y-12300506D01*
X4313507Y-12266524D01*
X4400600Y-12249200D01*
X4489400Y-12249200D01*
X4576493Y-12266524D01*
X4576493Y-12266524D01*
G37*
G36*
X5846493Y-10996524D02*
X5928534Y-11030506D01*
X5928535Y-11030507D01*
X6002366Y-11079839D01*
X6065161Y-11142634D01*
X6098049Y-11191855D01*
X6114494Y-11216466D01*
X6148476Y-11298507D01*
X6165800Y-11385600D01*
X6165800Y-11474400D01*
X6148476Y-11561493D01*
X6114494Y-11643534D01*
X6114493Y-11643535D01*
X6065161Y-11717366D01*
X6002366Y-11780161D01*
X5973872Y-11799200D01*
X5928534Y-11829494D01*
X5846493Y-11863476D01*
X5759400Y-11880800D01*
X5670600Y-11880800D01*
X5583507Y-11863476D01*
X5501466Y-11829494D01*
X5456128Y-11799200D01*
X5427634Y-11780161D01*
X5364839Y-11717366D01*
X5315507Y-11643535D01*
X5315506Y-11643534D01*
X5281524Y-11561493D01*
X5264200Y-11474400D01*
X5264200Y-11385600D01*
X5281524Y-11298507D01*
X5315506Y-11216466D01*
X5331951Y-11191855D01*
X5364839Y-11142634D01*
X5427634Y-11079839D01*
X5501465Y-11030507D01*
X5501466Y-11030506D01*
X5583507Y-10996524D01*
X5670600Y-10979200D01*
X5759400Y-10979200D01*
X5846493Y-10996524D01*
X5846493Y-10996524D01*
G37*
G36*
X23036588Y-9272233D02*
X23206385Y-9323741D01*
X23362878Y-9407388D01*
X23500044Y-9519956D01*
X23612612Y-9657122D01*
X23696259Y-9813615D01*
X23747767Y-9983412D01*
X23765159Y-10160000D01*
X23747767Y-10336588D01*
X23696259Y-10506385D01*
X23612612Y-10662878D01*
X23500044Y-10800044D01*
X23362878Y-10912612D01*
X23206385Y-10996259D01*
X23036588Y-11047767D01*
X22904259Y-11060800D01*
X22815741Y-11060800D01*
X22683412Y-11047767D01*
X22513615Y-10996259D01*
X22357122Y-10912612D01*
X22219956Y-10800044D01*
X22107388Y-10662878D01*
X22023741Y-10506385D01*
X21972233Y-10336588D01*
X21954841Y-10160000D01*
X21972233Y-9983412D01*
X22023741Y-9813615D01*
X22107388Y-9657122D01*
X22219956Y-9519956D01*
X22357122Y-9407388D01*
X22513615Y-9323741D01*
X22683412Y-9272233D01*
X22815741Y-9259200D01*
X22904259Y-9259200D01*
X23036588Y-9272233D01*
X23036588Y-9272233D01*
G37*
G36*
X-2363412Y-9272233D02*
X-2193615Y-9323741D01*
X-2037122Y-9407388D01*
X-1899956Y-9519956D01*
X-1787388Y-9657122D01*
X-1703741Y-9813615D01*
X-1652233Y-9983412D01*
X-1634841Y-10160000D01*
X-1652233Y-10336588D01*
X-1703741Y-10506385D01*
X-1787388Y-10662878D01*
X-1899956Y-10800044D01*
X-2037122Y-10912612D01*
X-2193615Y-10996259D01*
X-2363412Y-11047767D01*
X-2495741Y-11060800D01*
X-2584259Y-11060800D01*
X-2716588Y-11047767D01*
X-2886385Y-10996259D01*
X-3042878Y-10912612D01*
X-3180044Y-10800044D01*
X-3292612Y-10662878D01*
X-3376259Y-10506385D01*
X-3427767Y-10336588D01*
X-3445159Y-10160000D01*
X-3427767Y-9983412D01*
X-3376259Y-9813615D01*
X-3292612Y-9657122D01*
X-3180044Y-9519956D01*
X-3042878Y-9407388D01*
X-2886385Y-9323741D01*
X-2716588Y-9272233D01*
X-2584259Y-9259200D01*
X-2495741Y-9259200D01*
X-2363412Y-9272233D01*
X-2363412Y-9272233D01*
G37*
G36*
X20496588Y-9272233D02*
X20666385Y-9323741D01*
X20822878Y-9407388D01*
X20960044Y-9519956D01*
X21072612Y-9657122D01*
X21156259Y-9813615D01*
X21207767Y-9983412D01*
X21225159Y-10160000D01*
X21207767Y-10336588D01*
X21156259Y-10506385D01*
X21072612Y-10662878D01*
X20960044Y-10800044D01*
X20822878Y-10912612D01*
X20666385Y-10996259D01*
X20496588Y-11047767D01*
X20364259Y-11060800D01*
X20275741Y-11060800D01*
X20143412Y-11047767D01*
X19973615Y-10996259D01*
X19817122Y-10912612D01*
X19679956Y-10800044D01*
X19567388Y-10662878D01*
X19483741Y-10506385D01*
X19432233Y-10336588D01*
X19414841Y-10160000D01*
X19432233Y-9983412D01*
X19483741Y-9813615D01*
X19567388Y-9657122D01*
X19679956Y-9519956D01*
X19817122Y-9407388D01*
X19973615Y-9323741D01*
X20143412Y-9272233D01*
X20275741Y-9259200D01*
X20364259Y-9259200D01*
X20496588Y-9272233D01*
X20496588Y-9272233D01*
G37*
G36*
X9790800Y-11060800D02*
X7989200Y-11060800D01*
X7989200Y-9259200D01*
X9790800Y-9259200D01*
X9790800Y-11060800D01*
X9790800Y-11060800D01*
G37*
G36*
X11606588Y-9272233D02*
X11776385Y-9323741D01*
X11932878Y-9407388D01*
X12070044Y-9519956D01*
X12182612Y-9657122D01*
X12266259Y-9813615D01*
X12317767Y-9983412D01*
X12335159Y-10160000D01*
X12317767Y-10336588D01*
X12266259Y-10506385D01*
X12182612Y-10662878D01*
X12070044Y-10800044D01*
X11932878Y-10912612D01*
X11776385Y-10996259D01*
X11606588Y-11047767D01*
X11474259Y-11060800D01*
X11385741Y-11060800D01*
X11253412Y-11047767D01*
X11083615Y-10996259D01*
X10927122Y-10912612D01*
X10789956Y-10800044D01*
X10677388Y-10662878D01*
X10593741Y-10506385D01*
X10542233Y-10336588D01*
X10524841Y-10160000D01*
X10542233Y-9983412D01*
X10593741Y-9813615D01*
X10677388Y-9657122D01*
X10789956Y-9519956D01*
X10927122Y-9407388D01*
X11083615Y-9323741D01*
X11253412Y-9272233D01*
X11385741Y-9259200D01*
X11474259Y-9259200D01*
X11606588Y-9272233D01*
X11606588Y-9272233D01*
G37*
G36*
X176588Y-9272233D02*
X346385Y-9323741D01*
X502878Y-9407388D01*
X640044Y-9519956D01*
X752612Y-9657122D01*
X836259Y-9813615D01*
X887767Y-9983412D01*
X905159Y-10160000D01*
X887767Y-10336588D01*
X836259Y-10506385D01*
X752612Y-10662878D01*
X640044Y-10800044D01*
X502878Y-10912612D01*
X346385Y-10996259D01*
X176588Y-11047767D01*
X44259Y-11060800D01*
X-44259Y-11060800D01*
X-176588Y-11047767D01*
X-346385Y-10996259D01*
X-502878Y-10912612D01*
X-640044Y-10800044D01*
X-752612Y-10662878D01*
X-836259Y-10506385D01*
X-887767Y-10336588D01*
X-905159Y-10160000D01*
X-887767Y-9983412D01*
X-836259Y-9813615D01*
X-752612Y-9657122D01*
X-640044Y-9519956D01*
X-502878Y-9407388D01*
X-346385Y-9323741D01*
X-176588Y-9272233D01*
X-44259Y-9259200D01*
X44259Y-9259200D01*
X176588Y-9272233D01*
X176588Y-9272233D01*
G37*
G36*
X14101493Y-8456524D02*
X14183534Y-8490506D01*
X14183535Y-8490507D01*
X14257366Y-8539839D01*
X14320161Y-8602634D01*
X14353049Y-8651855D01*
X14369494Y-8676466D01*
X14403476Y-8758507D01*
X14420800Y-8845600D01*
X14420800Y-8934400D01*
X14403476Y-9021493D01*
X14369494Y-9103534D01*
X14369493Y-9103535D01*
X14320161Y-9177366D01*
X14257366Y-9240161D01*
X14228872Y-9259200D01*
X14183534Y-9289494D01*
X14101493Y-9323476D01*
X14014400Y-9340800D01*
X13925600Y-9340800D01*
X13838507Y-9323476D01*
X13756466Y-9289494D01*
X13711128Y-9259200D01*
X13682634Y-9240161D01*
X13619839Y-9177366D01*
X13570507Y-9103535D01*
X13570506Y-9103534D01*
X13536524Y-9021493D01*
X13519200Y-8934400D01*
X13519200Y-8845600D01*
X13536524Y-8758507D01*
X13570506Y-8676466D01*
X13586951Y-8651855D01*
X13619839Y-8602634D01*
X13682634Y-8539839D01*
X13756465Y-8490507D01*
X13756466Y-8490506D01*
X13838507Y-8456524D01*
X13925600Y-8439200D01*
X14014400Y-8439200D01*
X14101493Y-8456524D01*
X14101493Y-8456524D01*
G37*
G36*
X-2363412Y-6732233D02*
X-2193615Y-6783741D01*
X-2037122Y-6867388D01*
X-1899956Y-6979956D01*
X-1787388Y-7117122D01*
X-1703741Y-7273615D01*
X-1652233Y-7443412D01*
X-1634841Y-7620000D01*
X-1652233Y-7796588D01*
X-1703741Y-7966385D01*
X-1787388Y-8122878D01*
X-1899956Y-8260044D01*
X-2037122Y-8372612D01*
X-2193615Y-8456259D01*
X-2363412Y-8507767D01*
X-2495741Y-8520800D01*
X-2584259Y-8520800D01*
X-2716588Y-8507767D01*
X-2886385Y-8456259D01*
X-3042878Y-8372612D01*
X-3180044Y-8260044D01*
X-3292612Y-8122878D01*
X-3376259Y-7966385D01*
X-3427767Y-7796588D01*
X-3445159Y-7620000D01*
X-3427767Y-7443412D01*
X-3376259Y-7273615D01*
X-3292612Y-7117122D01*
X-3180044Y-6979956D01*
X-3042878Y-6867388D01*
X-2886385Y-6783741D01*
X-2716588Y-6732233D01*
X-2584259Y-6719200D01*
X-2495741Y-6719200D01*
X-2363412Y-6732233D01*
X-2363412Y-6732233D01*
G37*
G36*
X176588Y-6732233D02*
X346385Y-6783741D01*
X502878Y-6867388D01*
X640044Y-6979956D01*
X752612Y-7117122D01*
X836259Y-7273615D01*
X887767Y-7443412D01*
X905159Y-7620000D01*
X887767Y-7796588D01*
X836259Y-7966385D01*
X752612Y-8122878D01*
X640044Y-8260044D01*
X502878Y-8372612D01*
X346385Y-8456259D01*
X176588Y-8507767D01*
X44259Y-8520800D01*
X-44259Y-8520800D01*
X-176588Y-8507767D01*
X-346385Y-8456259D01*
X-502878Y-8372612D01*
X-640044Y-8260044D01*
X-752612Y-8122878D01*
X-836259Y-7966385D01*
X-887767Y-7796588D01*
X-905159Y-7620000D01*
X-887767Y-7443412D01*
X-836259Y-7273615D01*
X-752612Y-7117122D01*
X-640044Y-6979956D01*
X-502878Y-6867388D01*
X-346385Y-6783741D01*
X-176588Y-6732233D01*
X-44259Y-6719200D01*
X44259Y-6719200D01*
X176588Y-6732233D01*
X176588Y-6732233D01*
G37*
G36*
X20496588Y-6732233D02*
X20666385Y-6783741D01*
X20822878Y-6867388D01*
X20960044Y-6979956D01*
X21072612Y-7117122D01*
X21156259Y-7273615D01*
X21207767Y-7443412D01*
X21225159Y-7620000D01*
X21207767Y-7796588D01*
X21156259Y-7966385D01*
X21072612Y-8122878D01*
X20960044Y-8260044D01*
X20822878Y-8372612D01*
X20666385Y-8456259D01*
X20496588Y-8507767D01*
X20364259Y-8520800D01*
X20275741Y-8520800D01*
X20143412Y-8507767D01*
X19973615Y-8456259D01*
X19817122Y-8372612D01*
X19679956Y-8260044D01*
X19567388Y-8122878D01*
X19483741Y-7966385D01*
X19432233Y-7796588D01*
X19414841Y-7620000D01*
X19432233Y-7443412D01*
X19483741Y-7273615D01*
X19567388Y-7117122D01*
X19679956Y-6979956D01*
X19817122Y-6867388D01*
X19973615Y-6783741D01*
X20143412Y-6732233D01*
X20275741Y-6719200D01*
X20364259Y-6719200D01*
X20496588Y-6732233D01*
X20496588Y-6732233D01*
G37*
G36*
X23036588Y-6732233D02*
X23206385Y-6783741D01*
X23362878Y-6867388D01*
X23500044Y-6979956D01*
X23612612Y-7117122D01*
X23696259Y-7273615D01*
X23747767Y-7443412D01*
X23765159Y-7620000D01*
X23747767Y-7796588D01*
X23696259Y-7966385D01*
X23612612Y-8122878D01*
X23500044Y-8260044D01*
X23362878Y-8372612D01*
X23206385Y-8456259D01*
X23036588Y-8507767D01*
X22904259Y-8520800D01*
X22815741Y-8520800D01*
X22683412Y-8507767D01*
X22513615Y-8456259D01*
X22357122Y-8372612D01*
X22219956Y-8260044D01*
X22107388Y-8122878D01*
X22023741Y-7966385D01*
X21972233Y-7796588D01*
X21954841Y-7620000D01*
X21972233Y-7443412D01*
X22023741Y-7273615D01*
X22107388Y-7117122D01*
X22219956Y-6979956D01*
X22357122Y-6867388D01*
X22513615Y-6783741D01*
X22683412Y-6732233D01*
X22815741Y-6719200D01*
X22904259Y-6719200D01*
X23036588Y-6732233D01*
X23036588Y-6732233D01*
G37*
G36*
X15371493Y-5916524D02*
X15453534Y-5950506D01*
X15453535Y-5950507D01*
X15527366Y-5999839D01*
X15590161Y-6062634D01*
X15623049Y-6111855D01*
X15639494Y-6136466D01*
X15673476Y-6218507D01*
X15690800Y-6305600D01*
X15690800Y-6394400D01*
X15673476Y-6481493D01*
X15639494Y-6563534D01*
X15639493Y-6563535D01*
X15590161Y-6637366D01*
X15527366Y-6700161D01*
X15498872Y-6719200D01*
X15453534Y-6749494D01*
X15371493Y-6783476D01*
X15284400Y-6800800D01*
X15195600Y-6800800D01*
X15108507Y-6783476D01*
X15026466Y-6749494D01*
X14981128Y-6719200D01*
X14952634Y-6700161D01*
X14889839Y-6637366D01*
X14840507Y-6563535D01*
X14840506Y-6563534D01*
X14806524Y-6481493D01*
X14789200Y-6394400D01*
X14789200Y-6305600D01*
X14806524Y-6218507D01*
X14840506Y-6136466D01*
X14856951Y-6111855D01*
X14889839Y-6062634D01*
X14952634Y-5999839D01*
X15026465Y-5950507D01*
X15026466Y-5950506D01*
X15108507Y-5916524D01*
X15195600Y-5899200D01*
X15284400Y-5899200D01*
X15371493Y-5916524D01*
X15371493Y-5916524D01*
G37*
G36*
X-2363412Y-4192233D02*
X-2193615Y-4243741D01*
X-2037122Y-4327388D01*
X-1899956Y-4439956D01*
X-1787388Y-4577122D01*
X-1703741Y-4733615D01*
X-1652233Y-4903412D01*
X-1634841Y-5080000D01*
X-1652233Y-5256588D01*
X-1703741Y-5426385D01*
X-1787388Y-5582878D01*
X-1899956Y-5720044D01*
X-2037122Y-5832612D01*
X-2193615Y-5916259D01*
X-2363412Y-5967767D01*
X-2495741Y-5980800D01*
X-2584259Y-5980800D01*
X-2716588Y-5967767D01*
X-2886385Y-5916259D01*
X-3042878Y-5832612D01*
X-3180044Y-5720044D01*
X-3292612Y-5582878D01*
X-3376259Y-5426385D01*
X-3427767Y-5256588D01*
X-3445159Y-5080000D01*
X-3427767Y-4903412D01*
X-3376259Y-4733615D01*
X-3292612Y-4577122D01*
X-3180044Y-4439956D01*
X-3042878Y-4327388D01*
X-2886385Y-4243741D01*
X-2716588Y-4192233D01*
X-2584259Y-4179200D01*
X-2495741Y-4179200D01*
X-2363412Y-4192233D01*
X-2363412Y-4192233D01*
G37*
G36*
X23036588Y-4192233D02*
X23206385Y-4243741D01*
X23362878Y-4327388D01*
X23500044Y-4439956D01*
X23612612Y-4577122D01*
X23696259Y-4733615D01*
X23747767Y-4903412D01*
X23765159Y-5080000D01*
X23747767Y-5256588D01*
X23696259Y-5426385D01*
X23612612Y-5582878D01*
X23500044Y-5720044D01*
X23362878Y-5832612D01*
X23206385Y-5916259D01*
X23036588Y-5967767D01*
X22904259Y-5980800D01*
X22815741Y-5980800D01*
X22683412Y-5967767D01*
X22513615Y-5916259D01*
X22357122Y-5832612D01*
X22219956Y-5720044D01*
X22107388Y-5582878D01*
X22023741Y-5426385D01*
X21972233Y-5256588D01*
X21954841Y-5080000D01*
X21972233Y-4903412D01*
X22023741Y-4733615D01*
X22107388Y-4577122D01*
X22219956Y-4439956D01*
X22357122Y-4327388D01*
X22513615Y-4243741D01*
X22683412Y-4192233D01*
X22815741Y-4179200D01*
X22904259Y-4179200D01*
X23036588Y-4192233D01*
X23036588Y-4192233D01*
G37*
G36*
X20496588Y-4192233D02*
X20666385Y-4243741D01*
X20822878Y-4327388D01*
X20960044Y-4439956D01*
X21072612Y-4577122D01*
X21156259Y-4733615D01*
X21207767Y-4903412D01*
X21225159Y-5080000D01*
X21207767Y-5256588D01*
X21156259Y-5426385D01*
X21072612Y-5582878D01*
X20960044Y-5720044D01*
X20822878Y-5832612D01*
X20666385Y-5916259D01*
X20496588Y-5967767D01*
X20364259Y-5980800D01*
X20275741Y-5980800D01*
X20143412Y-5967767D01*
X19973615Y-5916259D01*
X19817122Y-5832612D01*
X19679956Y-5720044D01*
X19567388Y-5582878D01*
X19483741Y-5426385D01*
X19432233Y-5256588D01*
X19414841Y-5080000D01*
X19432233Y-4903412D01*
X19483741Y-4733615D01*
X19567388Y-4577122D01*
X19679956Y-4439956D01*
X19817122Y-4327388D01*
X19973615Y-4243741D01*
X20143412Y-4192233D01*
X20275741Y-4179200D01*
X20364259Y-4179200D01*
X20496588Y-4192233D01*
X20496588Y-4192233D01*
G37*
G36*
X176588Y-4192233D02*
X346385Y-4243741D01*
X502878Y-4327388D01*
X640044Y-4439956D01*
X752612Y-4577122D01*
X836259Y-4733615D01*
X887767Y-4903412D01*
X905159Y-5080000D01*
X887767Y-5256588D01*
X836259Y-5426385D01*
X752612Y-5582878D01*
X640044Y-5720044D01*
X502878Y-5832612D01*
X346385Y-5916259D01*
X176588Y-5967767D01*
X44259Y-5980800D01*
X-44259Y-5980800D01*
X-176588Y-5967767D01*
X-346385Y-5916259D01*
X-502878Y-5832612D01*
X-640044Y-5720044D01*
X-752612Y-5582878D01*
X-836259Y-5426385D01*
X-887767Y-5256588D01*
X-905159Y-5080000D01*
X-887767Y-4903412D01*
X-836259Y-4733615D01*
X-752612Y-4577122D01*
X-640044Y-4439956D01*
X-502878Y-4327388D01*
X-346385Y-4243741D01*
X-176588Y-4192233D01*
X-44259Y-4179200D01*
X44259Y-4179200D01*
X176588Y-4192233D01*
X176588Y-4192233D01*
G37*
G36*
X16641493Y-4646524D02*
X16723534Y-4680506D01*
X16723535Y-4680507D01*
X16797366Y-4729839D01*
X16860161Y-4792634D01*
X16893049Y-4841855D01*
X16909494Y-4866466D01*
X16943476Y-4948507D01*
X16960800Y-5035600D01*
X16960800Y-5124400D01*
X16943476Y-5211493D01*
X16909494Y-5293534D01*
X16909493Y-5293535D01*
X16860161Y-5367366D01*
X16797366Y-5430161D01*
X16748145Y-5463049D01*
X16723534Y-5479494D01*
X16641493Y-5513476D01*
X16554400Y-5530800D01*
X16465600Y-5530800D01*
X16378507Y-5513476D01*
X16296466Y-5479494D01*
X16271855Y-5463049D01*
X16222634Y-5430161D01*
X16159839Y-5367366D01*
X16110507Y-5293535D01*
X16110506Y-5293534D01*
X16076524Y-5211493D01*
X16059200Y-5124400D01*
X16059200Y-5035600D01*
X16076524Y-4948507D01*
X16110506Y-4866466D01*
X16126951Y-4841855D01*
X16159839Y-4792634D01*
X16222634Y-4729839D01*
X16296465Y-4680507D01*
X16296466Y-4680506D01*
X16378507Y-4646524D01*
X16465600Y-4629200D01*
X16554400Y-4629200D01*
X16641493Y-4646524D01*
X16641493Y-4646524D01*
G37*
G36*
X5846493Y-4646524D02*
X5928534Y-4680506D01*
X5928535Y-4680507D01*
X6002366Y-4729839D01*
X6065161Y-4792634D01*
X6098049Y-4841855D01*
X6114494Y-4866466D01*
X6148476Y-4948507D01*
X6165800Y-5035600D01*
X6165800Y-5124400D01*
X6148476Y-5211493D01*
X6114494Y-5293534D01*
X6114493Y-5293535D01*
X6065161Y-5367366D01*
X6002366Y-5430161D01*
X5953145Y-5463049D01*
X5928534Y-5479494D01*
X5846493Y-5513476D01*
X5759400Y-5530800D01*
X5670600Y-5530800D01*
X5583507Y-5513476D01*
X5501466Y-5479494D01*
X5476855Y-5463049D01*
X5427634Y-5430161D01*
X5364839Y-5367366D01*
X5315507Y-5293535D01*
X5315506Y-5293534D01*
X5281524Y-5211493D01*
X5264200Y-5124400D01*
X5264200Y-5035600D01*
X5281524Y-4948507D01*
X5315506Y-4866466D01*
X5331951Y-4841855D01*
X5364839Y-4792634D01*
X5427634Y-4729839D01*
X5501465Y-4680507D01*
X5501466Y-4680506D01*
X5583507Y-4646524D01*
X5670600Y-4629200D01*
X5759400Y-4629200D01*
X5846493Y-4646524D01*
X5846493Y-4646524D01*
G37*
G36*
X-2363412Y-1652233D02*
X-2193615Y-1703741D01*
X-2037122Y-1787388D01*
X-1899956Y-1899956D01*
X-1787388Y-2037122D01*
X-1703741Y-2193615D01*
X-1652233Y-2363412D01*
X-1634841Y-2540000D01*
X-1652233Y-2716588D01*
X-1703741Y-2886385D01*
X-1787388Y-3042878D01*
X-1899956Y-3180044D01*
X-2037122Y-3292612D01*
X-2193615Y-3376259D01*
X-2363412Y-3427767D01*
X-2495741Y-3440800D01*
X-2584259Y-3440800D01*
X-2716588Y-3427767D01*
X-2886385Y-3376259D01*
X-3042878Y-3292612D01*
X-3180044Y-3180044D01*
X-3292612Y-3042878D01*
X-3376259Y-2886385D01*
X-3427767Y-2716588D01*
X-3445159Y-2540000D01*
X-3427767Y-2363412D01*
X-3376259Y-2193615D01*
X-3292612Y-2037122D01*
X-3180044Y-1899956D01*
X-3042878Y-1787388D01*
X-2886385Y-1703741D01*
X-2716588Y-1652233D01*
X-2584259Y-1639200D01*
X-2495741Y-1639200D01*
X-2363412Y-1652233D01*
X-2363412Y-1652233D01*
G37*
G36*
X20496588Y-1652233D02*
X20666385Y-1703741D01*
X20822878Y-1787388D01*
X20960044Y-1899956D01*
X21072612Y-2037122D01*
X21156259Y-2193615D01*
X21207767Y-2363412D01*
X21225159Y-2540000D01*
X21207767Y-2716588D01*
X21156259Y-2886385D01*
X21072612Y-3042878D01*
X20960044Y-3180044D01*
X20822878Y-3292612D01*
X20666385Y-3376259D01*
X20496588Y-3427767D01*
X20364259Y-3440800D01*
X20275741Y-3440800D01*
X20143412Y-3427767D01*
X19973615Y-3376259D01*
X19817122Y-3292612D01*
X19679956Y-3180044D01*
X19567388Y-3042878D01*
X19483741Y-2886385D01*
X19432233Y-2716588D01*
X19414841Y-2540000D01*
X19432233Y-2363412D01*
X19483741Y-2193615D01*
X19567388Y-2037122D01*
X19679956Y-1899956D01*
X19817122Y-1787388D01*
X19973615Y-1703741D01*
X20143412Y-1652233D01*
X20275741Y-1639200D01*
X20364259Y-1639200D01*
X20496588Y-1652233D01*
X20496588Y-1652233D01*
G37*
G36*
X23036588Y-1652233D02*
X23206385Y-1703741D01*
X23362878Y-1787388D01*
X23500044Y-1899956D01*
X23612612Y-2037122D01*
X23696259Y-2193615D01*
X23747767Y-2363412D01*
X23765159Y-2540000D01*
X23747767Y-2716588D01*
X23696259Y-2886385D01*
X23612612Y-3042878D01*
X23500044Y-3180044D01*
X23362878Y-3292612D01*
X23206385Y-3376259D01*
X23036588Y-3427767D01*
X22904259Y-3440800D01*
X22815741Y-3440800D01*
X22683412Y-3427767D01*
X22513615Y-3376259D01*
X22357122Y-3292612D01*
X22219956Y-3180044D01*
X22107388Y-3042878D01*
X22023741Y-2886385D01*
X21972233Y-2716588D01*
X21954841Y-2540000D01*
X21972233Y-2363412D01*
X22023741Y-2193615D01*
X22107388Y-2037122D01*
X22219956Y-1899956D01*
X22357122Y-1787388D01*
X22513615Y-1703741D01*
X22683412Y-1652233D01*
X22815741Y-1639200D01*
X22904259Y-1639200D01*
X23036588Y-1652233D01*
X23036588Y-1652233D01*
G37*
G36*
X176588Y-1652233D02*
X346385Y-1703741D01*
X502878Y-1787388D01*
X640044Y-1899956D01*
X752612Y-2037122D01*
X836259Y-2193615D01*
X887767Y-2363412D01*
X905159Y-2540000D01*
X887767Y-2716588D01*
X836259Y-2886385D01*
X752612Y-3042878D01*
X640044Y-3180044D01*
X502878Y-3292612D01*
X346385Y-3376259D01*
X176588Y-3427767D01*
X44259Y-3440800D01*
X-44259Y-3440800D01*
X-176588Y-3427767D01*
X-346385Y-3376259D01*
X-502878Y-3292612D01*
X-640044Y-3180044D01*
X-752612Y-3042878D01*
X-836259Y-2886385D01*
X-887767Y-2716588D01*
X-905159Y-2540000D01*
X-887767Y-2363412D01*
X-836259Y-2193615D01*
X-752612Y-2037122D01*
X-640044Y-1899956D01*
X-502878Y-1787388D01*
X-346385Y-1703741D01*
X-176588Y-1652233D01*
X-44259Y-1639200D01*
X44259Y-1639200D01*
X176588Y-1652233D01*
X176588Y-1652233D01*
G37*
G36*
X4576493Y-2106524D02*
X4658534Y-2140506D01*
X4658535Y-2140507D01*
X4732366Y-2189839D01*
X4795161Y-2252634D01*
X4828049Y-2301855D01*
X4844494Y-2326466D01*
X4878476Y-2408507D01*
X4895800Y-2495600D01*
X4895800Y-2584400D01*
X4878476Y-2671493D01*
X4844494Y-2753534D01*
X4844493Y-2753535D01*
X4795161Y-2827366D01*
X4732366Y-2890161D01*
X4683145Y-2923049D01*
X4658534Y-2939494D01*
X4576493Y-2973476D01*
X4489400Y-2990800D01*
X4400600Y-2990800D01*
X4313507Y-2973476D01*
X4231466Y-2939494D01*
X4206855Y-2923049D01*
X4157634Y-2890161D01*
X4094839Y-2827366D01*
X4045507Y-2753535D01*
X4045506Y-2753534D01*
X4011524Y-2671493D01*
X3994200Y-2584400D01*
X3994200Y-2495600D01*
X4011524Y-2408507D01*
X4045506Y-2326466D01*
X4061951Y-2301855D01*
X4094839Y-2252634D01*
X4157634Y-2189839D01*
X4231465Y-2140507D01*
X4231466Y-2140506D01*
X4313507Y-2106524D01*
X4400600Y-2089200D01*
X4489400Y-2089200D01*
X4576493Y-2106524D01*
X4576493Y-2106524D01*
G37*
G36*
X16641493Y-836524D02*
X16723534Y-870506D01*
X16723535Y-870507D01*
X16797366Y-919839D01*
X16860161Y-982634D01*
X16893049Y-1031855D01*
X16909494Y-1056466D01*
X16943476Y-1138507D01*
X16960800Y-1225600D01*
X16960800Y-1314400D01*
X16943476Y-1401493D01*
X16909494Y-1483534D01*
X16909493Y-1483535D01*
X16860161Y-1557366D01*
X16797366Y-1620161D01*
X16768872Y-1639200D01*
X16723534Y-1669494D01*
X16641493Y-1703476D01*
X16554400Y-1720800D01*
X16465600Y-1720800D01*
X16378507Y-1703476D01*
X16296466Y-1669494D01*
X16251128Y-1639200D01*
X16222634Y-1620161D01*
X16159839Y-1557366D01*
X16110507Y-1483535D01*
X16110506Y-1483534D01*
X16076524Y-1401493D01*
X16059200Y-1314400D01*
X16059200Y-1225600D01*
X16076524Y-1138507D01*
X16110506Y-1056466D01*
X16126951Y-1031855D01*
X16159839Y-982634D01*
X16222634Y-919839D01*
X16296465Y-870507D01*
X16296466Y-870506D01*
X16378507Y-836524D01*
X16465600Y-819200D01*
X16554400Y-819200D01*
X16641493Y-836524D01*
X16641493Y-836524D01*
G37*
G36*
X20496588Y887767D02*
X20666385Y836259D01*
X20822878Y752612D01*
X20960044Y640044D01*
X21072612Y502878D01*
X21156259Y346385D01*
X21207767Y176588D01*
X21225159Y0D01*
X21207767Y-176588D01*
X21156259Y-346385D01*
X21072612Y-502878D01*
X20960044Y-640044D01*
X20822878Y-752612D01*
X20666385Y-836259D01*
X20496588Y-887767D01*
X20364259Y-900800D01*
X20275741Y-900800D01*
X20143412Y-887767D01*
X19973615Y-836259D01*
X19817122Y-752612D01*
X19679956Y-640044D01*
X19567388Y-502878D01*
X19483741Y-346385D01*
X19432233Y-176588D01*
X19414841Y0D01*
X19432233Y176588D01*
X19483741Y346385D01*
X19567388Y502878D01*
X19679956Y640044D01*
X19817122Y752612D01*
X19973615Y836259D01*
X20143412Y887767D01*
X20275741Y900800D01*
X20364259Y900800D01*
X20496588Y887767D01*
X20496588Y887767D01*
G37*
G36*
X23036588Y887767D02*
X23206385Y836259D01*
X23362878Y752612D01*
X23500044Y640044D01*
X23612612Y502878D01*
X23696259Y346385D01*
X23747767Y176588D01*
X23765159Y0D01*
X23747767Y-176588D01*
X23696259Y-346385D01*
X23612612Y-502878D01*
X23500044Y-640044D01*
X23362878Y-752612D01*
X23206385Y-836259D01*
X23036588Y-887767D01*
X22904259Y-900800D01*
X22815741Y-900800D01*
X22683412Y-887767D01*
X22513615Y-836259D01*
X22357122Y-752612D01*
X22219956Y-640044D01*
X22107388Y-502878D01*
X22023741Y-346385D01*
X21972233Y-176588D01*
X21954841Y0D01*
X21972233Y176588D01*
X22023741Y346385D01*
X22107388Y502878D01*
X22219956Y640044D01*
X22357122Y752612D01*
X22513615Y836259D01*
X22683412Y887767D01*
X22815741Y900800D01*
X22904259Y900800D01*
X23036588Y887767D01*
X23036588Y887767D01*
G37*
G36*
X-2363412Y887767D02*
X-2193615Y836259D01*
X-2037122Y752612D01*
X-1899956Y640044D01*
X-1787388Y502878D01*
X-1703741Y346385D01*
X-1652233Y176588D01*
X-1634841Y0D01*
X-1652233Y-176588D01*
X-1703741Y-346385D01*
X-1787388Y-502878D01*
X-1899956Y-640044D01*
X-2037122Y-752612D01*
X-2193615Y-836259D01*
X-2363412Y-887767D01*
X-2495741Y-900800D01*
X-2584259Y-900800D01*
X-2716588Y-887767D01*
X-2886385Y-836259D01*
X-3042878Y-752612D01*
X-3180044Y-640044D01*
X-3292612Y-502878D01*
X-3376259Y-346385D01*
X-3427767Y-176588D01*
X-3445159Y0D01*
X-3427767Y176588D01*
X-3376259Y346385D01*
X-3292612Y502878D01*
X-3180044Y640044D01*
X-3042878Y752612D01*
X-2886385Y836259D01*
X-2716588Y887767D01*
X-2584259Y900800D01*
X-2495741Y900800D01*
X-2363412Y887767D01*
X-2363412Y887767D01*
G37*
G36*
X900800Y-900800D02*
X-900800Y-900800D01*
X-900800Y900800D01*
X900800Y900800D01*
X900800Y-900800D01*
X900800Y-900800D01*
G37*
G36*
X15371493Y433476D02*
X15453534Y399494D01*
X15453535Y399493D01*
X15527366Y350161D01*
X15590161Y287366D01*
X15623049Y238145D01*
X15639494Y213534D01*
X15673476Y131493D01*
X15690800Y44400D01*
X15690800Y-44400D01*
X15673476Y-131493D01*
X15639494Y-213534D01*
X15639493Y-213535D01*
X15590161Y-287366D01*
X15527366Y-350161D01*
X15478145Y-383049D01*
X15453534Y-399494D01*
X15371493Y-433476D01*
X15284400Y-450800D01*
X15195600Y-450800D01*
X15108507Y-433476D01*
X15026466Y-399494D01*
X15001855Y-383049D01*
X14952634Y-350161D01*
X14889839Y-287366D01*
X14840507Y-213535D01*
X14840506Y-213534D01*
X14806524Y-131493D01*
X14789200Y-44400D01*
X14789200Y44400D01*
X14806524Y131493D01*
X14840506Y213534D01*
X14856951Y238145D01*
X14889839Y287366D01*
X14952634Y350161D01*
X15026465Y399493D01*
X15026466Y399494D01*
X15108507Y433476D01*
X15195600Y450800D01*
X15284400Y450800D01*
X15371493Y433476D01*
X15371493Y433476D01*
G37*
G36*
X3306493Y433476D02*
X3388534Y399494D01*
X3388535Y399493D01*
X3462366Y350161D01*
X3525161Y287366D01*
X3558049Y238145D01*
X3574494Y213534D01*
X3608476Y131493D01*
X3625800Y44400D01*
X3625800Y-44400D01*
X3608476Y-131493D01*
X3574494Y-213534D01*
X3574493Y-213535D01*
X3525161Y-287366D01*
X3462366Y-350161D01*
X3413145Y-383049D01*
X3388534Y-399494D01*
X3306493Y-433476D01*
X3219400Y-450800D01*
X3130600Y-450800D01*
X3043507Y-433476D01*
X2961466Y-399494D01*
X2936855Y-383049D01*
X2887634Y-350161D01*
X2824839Y-287366D01*
X2775507Y-213535D01*
X2775506Y-213534D01*
X2741524Y-131493D01*
X2724200Y-44400D01*
X2724200Y44400D01*
X2741524Y131493D01*
X2775506Y213534D01*
X2791951Y238145D01*
X2824839Y287366D01*
X2887634Y350161D01*
X2961465Y399493D01*
X2961466Y399494D01*
X3043507Y433476D01*
X3130600Y450800D01*
X3219400Y450800D01*
X3306493Y433476D01*
X3306493Y433476D01*
G37*
G36*
X21220800Y1639200D02*
X19419200Y1639200D01*
X19419200Y3440800D01*
X21220800Y3440800D01*
X21220800Y1639200D01*
X21220800Y1639200D01*
G37*
G36*
X23036588Y3427767D02*
X23206385Y3376259D01*
X23362878Y3292612D01*
X23500044Y3180044D01*
X23612612Y3042878D01*
X23696259Y2886385D01*
X23747767Y2716588D01*
X23765159Y2540000D01*
X23747767Y2363412D01*
X23696259Y2193615D01*
X23612612Y2037122D01*
X23500044Y1899956D01*
X23362878Y1787388D01*
X23206385Y1703741D01*
X23036588Y1652233D01*
X22904259Y1639200D01*
X22815741Y1639200D01*
X22683412Y1652233D01*
X22513615Y1703741D01*
X22357122Y1787388D01*
X22219956Y1899956D01*
X22107388Y2037122D01*
X22023741Y2193615D01*
X21972233Y2363412D01*
X21954841Y2540000D01*
X21972233Y2716588D01*
X22023741Y2886385D01*
X22107388Y3042878D01*
X22219956Y3180044D01*
X22357122Y3292612D01*
X22513615Y3376259D01*
X22683412Y3427767D01*
X22815741Y3440800D01*
X22904259Y3440800D01*
X23036588Y3427767D01*
X23036588Y3427767D01*
G37*
G36*
X14101493Y2973476D02*
X14183534Y2939494D01*
X14183535Y2939493D01*
X14257366Y2890161D01*
X14320161Y2827366D01*
X14353049Y2778145D01*
X14369494Y2753534D01*
X14403476Y2671493D01*
X14420800Y2584400D01*
X14420800Y2495600D01*
X14403476Y2408507D01*
X14369494Y2326466D01*
X14369493Y2326465D01*
X14320161Y2252634D01*
X14257366Y2189839D01*
X14208145Y2156951D01*
X14183534Y2140506D01*
X14101493Y2106524D01*
X14014400Y2089200D01*
X13925600Y2089200D01*
X13838507Y2106524D01*
X13756466Y2140506D01*
X13731855Y2156951D01*
X13682634Y2189839D01*
X13619839Y2252634D01*
X13570507Y2326465D01*
X13570506Y2326466D01*
X13536524Y2408507D01*
X13519200Y2495600D01*
X13519200Y2584400D01*
X13536524Y2671493D01*
X13570506Y2753534D01*
X13586951Y2778145D01*
X13619839Y2827366D01*
X13682634Y2890161D01*
X13756465Y2939493D01*
X13756466Y2939494D01*
X13838507Y2973476D01*
X13925600Y2990800D01*
X14014400Y2990800D01*
X14101493Y2973476D01*
X14101493Y2973476D01*
G37*
M02*
