7393
7fff
0
d71
1e9b
3b7f
635f
1c16
180d
301f
4144
59c8
76f0
10e
165f
3ff
7393
7fff
0
39ce
5294
6318
739c
7e00
7393
7fff
0
320
16
1f
17f
29f
7393
7fff
0
1ff
31f
3ff
b7
23f
7393
7fff
0
320
347d
551e
65ff
7b1f
7393
7fff
0
6d08
6dad
7e31
b7
23f
7393
7fff
0
320
380
1ff1
3f9
4fff
7393
7fff
0
7e70
7ed3
7f36
7f99
401f
7e00
7e20
7ea0
7ee0
7f20
7f80
7fe0
7fe0
7393
7fff
44c4
320
4adf
200
13b
4e08
0
0
0
0
0
0
0
0
7393
7fff
44c4
391f
4adf
2874
13f
4e08
0
0
0
0
0
0
39ce
0
7393
7fff
28d2
551e
635f
7b1f
1fb
2de
0
0
0
0
0
0
0
0
7393
7fff
0
d71
1e9b
3b7f
635f
1c16
180d
301f
4144
59c8
76f0
10e
165f
3ff
7393
7fff
0
39ce
5294
6318
739c
7e00
7393
7fff
0
320
16
1f
17f
29f
7393
7fff
0
1ff
31f
3ff
b7
23f
7393
7fff
0
320
347d
551e
65ff
7b1f
7393
7fff
0
6d08
6dad
7e31
b7
23f
7393
7fff
0
320
380
1ff1
3f9
4fff
7393
7fff
0
7e70
7ed3
7f36
7f99
401f
7e00
7e20
7ea0
7ee0
7f20
7f80
7fe0
7fe0
7393
7fff
44c4
320
4adf
200
13b
4e08
0
0
0
0
0
0
0
0
7393
7fff
44c4
391f
4adf
2874
13f
4e08
0
0
0
0
0
0
39ce
0
7393
7fff
28d2
551e
635f
7b1f
1fb
2de
0
0
0
0
0
0
0
0
