{130637, 130637, 130636, 130636, 130635, 130635, 130635, 130634, 130634, 
130633, 130633, 130633, 130632, 130632, 130631, 130631, 130631, 130630, 
130630, 130630, 130629, 130629, 130628, 130628, 130628, 130627, 130627, 
130627, 130626, 130626, 130625, 130625, 130625, 130624, 130624, 130624, 
130623, 130623, 130623, 130622, 130622, 130621, 130621, 130621, 130620, 
130620, 130620, 130619, 130619, 130619, 130618, 130618, 130618, 130617, 
130617, 130617, 130616, 130616, 130616, 130615, 130615, 130615, 130614, 
130614, 130614, 130613, 130613, 130613, 130612, 130612, 130612, 130611, 
130611, 130611, 130610, 130610, 130610, 130609, 130609, 130609, 130608, 
130608, 130608, 130607, 130607, 130607, 130607, 130606, 130606, 130606, 
130605, 130605, 130605, 130604, 130604, 130604, 130603, 130603, 130603, 
130603, 130602, 130602, 130602, 130601, 130601, 130601, 130600, 130600, 
130600, 130600, 130599, 130599, 130599, 130598, 130598, 130598, 130598, 
130597, 130597, 130597, 130596, 130596, 130596, 130596, 130595, 130595, 
130595, 130594, 130594, 130594, 130594, 130593, 130593, 130593, 130592, 
130592, 130592, 130592, 130591, 130591, 130591, 130590, 130590, 130590, 
130590, 130589, 130589, 130589, 130588, 130588, 130588, 130588, 130587, 
130587, 130587, 130587, 130586, 130586, 130586, 130585, 130585, 130585, 
130585, 130584, 130584, 130584, 130584, 130583, 130583, 130583, 130582, 
130582, 130582, 130582, 130581, 130581, 130581, 130580, 130580, 130580, 
130580, 130579, 130579, 130579, 130579, 130579, 130579, 130579, 130579, 
130579, 130579, 130579, 130579, 130579, 130579, 130579, 130579, 130579, 
130579, 130579, 130579, 130579, 130579, 130579, 130579, 130579, 130579, 
130579, 130579, 130578, 130578, 130578, 130578, 130578, 130578, 130578, 
130578, 130578, 130578, 130578, 130577, 130577, 130577, 130577, 130577, 
130577, 130577, 130576, 130576, 130576, 130576, 130576, 130575, 130575, 
130575, 130575, 130574, 130574, 130574, 130574, 130573, 130573, 130573, 
130573, 130572, 130572, 130572, 130571, 130571, 130570, 130570, 130570, 
130569, 130569, 130568, 130568, 130568, 130567, 130567, 130566, 130566, 
130565, 130565, 130564, 130563, 130563, 130562, 130562, 130561, 130560, 
130560, 130559, 130559, 130558, 130557, 130556, 130556, 130555, 130554, 
130553, 130553, 130552, 130551, 130550, 130549, 130547, 130546, 130544, 
130543, 130541, 130540, 130538, 130537, 130535, 130534, 130532, 130530, 
130529, 130527, 130526, 130524, 130522, 130520, 130519, 130517, 130515, 
130514, 130512, 130510, 130508, 130506, 130505, 130503, 130501, 130499, 
130497, 130495, 130493, 130492, 130490, 130488, 130486, 130484, 130482, 
130480, 130478, 130476, 130474, 130472, 130470, 130468, 130466, 130464, 
130462, 130460, 130458, 130456, 130454, 130452, 130449, 130447, 130445, 
130443, 130441, 130439, 130437, 130435, 130432, 130430, 130428, 130426, 
130424, 130422, 130419, 130417, 130415, 130413, 130411, 130408, 130406, 
130404, 130402, 130399, 130397, 130395, 130393, 130391, 130388, 130386, 
130384, 130381, 130379, 130377, 130375, 130372, 130370, 130368, 130366, 
130363, 130361, 130359, 130357, 130354, 130352, 130350, 130347, 130345, 
130343, 130341, 130339, 130337, 130335, 130333, 130331, 130329, 130327, 
130325, 130323, 130321, 130319, 130317, 130315, 130313, 130311, 130308, 
130306, 130304, 130302, 130300, 130298, 130296, 130294, 130292, 130290, 
130288, 130286, 130284, 130282, 130280, 130278, 130276, 130274, 130272, 
130270, 130268, 130266, 130264, 130262, 130259, 130257, 130255, 130253, 
130251, 130249, 130247, 130245, 130243, 130241, 130239, 130237, 130235, 
130233, 130231, 130229, 130227, 130225, 130223, 130221, 130219, 130217, 
130215, 130213, 130211, 130209, 130207, 130205, 130203, 130201, 130199, 
130197, 130195, 130193, 130191, 130189, 130187, 130185, 130183, 130181, 
130180, 130178, 130176, 130174, 130172, 130170, 130168, 130166, 130164, 
130162, 130160, 130158, 130156, 130154, 130152, 130150, 130149, 130147, 
130145, 130144, 130143, 130142, 130141, 130140, 130139, 130138, 130137, 
130136, 130135, 130134, 130133, 130133, 130132, 130131, 130130, 130129, 
130128, 130127, 130126, 130125, 130124, 130123, 130122, 130121, 130120, 
130119, 130118, 130117, 130116, 130114, 130113, 130112, 130111, 130110, 
130109, 130108, 130106, 130105, 130104, 130103, 130101, 130100, 130099, 
130097, 130096, 130095, 130093, 130092, 130091, 130089, 130088, 130086, 
130085, 130083, 130081, 130080, 130078, 130076, 130075, 130073, 130071, 
130069, 130068, 130066, 130064, 130062, 130060, 130058, 130056, 130054, 
130052, 130050, 130048, 130046, 130043, 130041, 130039, 130036, 130034, 
130032, 130029, 130027, 130024, 130022, 130019, 130016, 130014, 130011, 
130008, 130005, 130002, 129999, 129996, 129993, 129990, 129987, 129984, 
129981, 129978, 129974, 129971, 129966, 129962, 129957, 129952, 129947, 
129942, 129938, 129933, 129928, 129922, 129917, 129912, 129907, 129902, 
129896, 129891, 129886, 129880, 129875, 129869, 129864, 129858, 129852, 
129846, 129841, 129835, 129829, 129823, 129817, 129811, 129805, 129799, 
129793, 129786, 129780, 129774, 129768, 129761, 129755, 129748, 129742, 
129735, 129729, 129722, 129715, 129708, 129702, 129695, 129688, 129681, 
129674, 129667, 129660, 129653, 129646, 129639, 129632, 129624, 129617, 
129610, 129602, 129595, 129587, 129580, 129572, 129565, 129557, 129550, 
129542, 129534, 129526, 129519, 129511, 129503, 129495, 129487, 129479, 
129471, 129463, 129455, 129447, 129438, 129430, 129422, 129414, 129405, 
129397, 129389, 129380, 129372, 129363, 129355, 129346, 129337, 129329, 
129320, 129311, 129302, 129294, 129285, 129276, 129270, 129263, 129257, 
129250, 129244, 129237, 129231, 129224, 129218, 129211, 129204, 129197, 
129191, 129184, 129177, 129170, 129163, 129156, 129149, 129141, 129134, 
129127, 129119, 129112, 129104, 129097, 129089, 129081, 129073, 129065, 
129058, 129049, 129041, 129033, 129025, 129017, 129008, 129000, 128991, 
128982, 128973, 128965, 128956, 128947, 128937, 128928, 128919, 128909, 
128900, 128890, 128880, 128871, 128861, 128851, 128840, 128830, 128820, 
128809, 128799, 128788, 128777, 128766, 128755, 128744, 128733, 128721, 
128710, 128698, 128686, 128674, 128662, 128650, 128638, 128625, 128613, 
128600, 128587, 128574, 128561, 128548, 128534, 128521, 128507, 128493, 
128479, 128465, 128451, 128436, 128421, 128407, 128392, 128377, 128361, 
128346, 128331, 128315, 128299, 128283, 128267, 128250, 128234, 128215, 
128197, 128178, 128159, 128140, 128121, 128102, 128082, 128063, 128043, 
128023, 128003, 127983, 127963, 127943, 127922, 127902, 127881, 127860, 
127839, 127818, 127797, 127776, 127754, 127733, 127711, 127690, 127668, 
127646, 127624, 127601, 127579, 127557, 127534, 127511, 127489, 127466, 
127443, 127420, 127396, 127373, 127350, 127326, 127303, 127279, 127255, 
127231, 127207, 127183, 127159, 127134, 127113, 127092, 127071, 127050, 
127029, 127008, 126987, 126965, 126944, 126922, 126900, 126879, 126857, 
126835, 126812, 126790, 126767, 126745, 126722, 126699, 126676, 126653, 
126629, 126605, 126582, 126558, 126533, 126509, 126484, 126460, 126434, 
126409, 126384, 126358, 126332, 126306, 126279, 126253, 126226, 126199, 
126171, 126143, 126115, 126087, 126058, 126030, 126000, 125971, 125941, 
125911, 125881, 125850, 125819, 125787, 125756, 125724, 125691, 125658, 
125625, 125592, 125558, 125524, 125489, 125454, 125419, 125383, 125347, 
125310, 125273, 125236, 125198, 125146, 125096, 125045, 124996, 124947, 
124898, 124850, 124802, 124755, 124708, 124662, 124616, 124570, 124525, 
124480, 124436, 124392, 124348, 124304, 124261, 124218, 124176, 124133, 
124091, 124049, 124007, 123965, 123924, 123882, 123841, 123800, 123759, 
123718, 123677, 123636, 123595, 123555, 123514, 123473, 123432, 123391, 
123350, 123309, 123268, 123227, 123186, 123144, 123102, 123061, 123019, 
122976, 122925, 122873, 122823, 122773, 122724, 122676, 122628, 122581, 
122534, 122487, 122440, 122394, 122348, 122302, 122257, 122211, 122165, 
122119, 122073, 122026, 121980, 121933, 121885, 121837, 121789, 121740, 
121690, 121640, 121589, 121537, 121595, 121617, 121607, 121569, 121506, 
121423, 121323, 121211, 121089, 120962, 120834, 120708, 120589, 120479, 
120383, 120305, 120249, 120217, 120214, 120245, 120511, 120811, 121136, 
121482, 121839, 122201, 122562, 122913, 123248, 123560, 123841, 123898, 
123924, 123922, 123895, 123848, 123783, 123703, 123612, 123513, 123409, 
123355, 123300, 123244, 123187, 123129, 123071, 123012, 122952, 122892, 
122832, 122772, 122713, 122653, 122594, 122535, 122478, 122421, 122365, 
122310, 122257, 122204, 122154, 122105, 122059, 122014, 121971, 121931, 
121893, 121857, 121825, 121777, 121728, 121680, 121632, 121584, 121535, 
121487, 121438, 121389, 121340, 121291, 121241, 121191, 121141, 121090, 
121039, 120988, 120936, 120884, 120832, 120778, 120725, 120671, 120616, 
120560, 120504, 120448, 120390, 120332, 120273, 120225, 120176, 120128, 
120081, 120034, 119987, 119941, 119895, 119849, 119805, 119760, 119716, 
119673, 119630, 119588, 119546, 119504, 119464, 119424, 119384, 119346, 
119308, 119270, 119233, 119197, 119162, 119127, 119093, 119060, 119028, 
118996, 118965, 118935, 118906, 118878, 118850, 118823, 118798, 118773, 
118749, 118726, 118691, 118656, 118621, 118586, 118550, 118515, 118480, 
118444, 118409, 118373, 118338, 118302, 118266, 118230, 118193, 118157, 
118120, 118083, 118046, 118009, 117971, 117933, 117895, 117857, 117818, 
117780, 117740, 117701, 117661, 117621, 117581, 117540, 117499, 117457, 
117415, 117373, 117330, 117287, 117243, 117199, 117155, 117110, 117065, 
117019, 116973, 116926, 116878, 116831, 116782, 116733, 116684, 116634, 
116583, 116532, 116480, 116428, 116375, 116321, 116267, 116212, 116156, 
116114, 116073, 116031, 115989, 115947, 115905, 115864, 115822, 115780, 
115738, 115696, 115655, 115613, 115571, 115529, 115487, 115446, 115404, 
115362, 115320, 115278, 115236, 115195, 115153, 115111, 115069, 115027, 
114985, 114943, 114901, 114859, 114818, 114776, 114734, 114692, 114650, 
114608, 114566, 114524, 114482, 114440, 114398, 114356, 114313, 114271, 
114229, 114187, 114145, 114103, 114061, 114018, 113976, 113934, 113892, 
113849, 113807, 113765, 113723, 113680, 113638, 113595, 113553, 113511, 
113468, 113426, 113383, 113341, 113298, 113255, 113213, 113170, 113128, 
113085, 113042, 113000, 112957, 112914, 112871, 112828, 112785, 112743, 
112700, 112657, 112614, 112571, 112528, 112485, 112441, 112398, 112355, 
112312, 112269, 112225, 112182, 112139, 112095, 112052, 112008, 111965, 
111921, 111878, 111835, 111793, 111750, 111708, 111665, 111623, 111580, 
111537, 111494, 111452, 111409, 111366, 111323, 111280, 111237, 111193, 
111150, 111107, 111064, 111020, 110977, 110933, 110890, 110846, 110803, 
110759, 110715, 110671, 110627, 110583, 110539, 110495, 110451, 110407, 
110362, 110318, 110274, 110229, 110184, 110140, 110095, 110050, 110005, 
109960, 109915, 109870, 109824, 109779, 109734, 109688, 109642, 109597, 
109551, 109505, 109459, 109413, 109367, 109320, 109274, 109228, 109181, 
109134, 109088, 109041, 108994, 108947, 108899, 108852, 108805, 108757, 
108710, 108662, 108614, 108566, 108518, 108470, 108422, 108373, 108325, 
108276, 108227, 108178, 108129, 108080, 108031, 107982, 107932, 107883, 
107833, 107783, 107733, 107683, 107633, 107582, 107532, 107481, 107430, 
107379, 107328, 107277, 107226, 107174, 107115, 107055, 106995, 106935, 
106875, 106815, 106755, 106694, 106634, 106573, 106512, 106451, 106391, 
106330, 106268, 106207, 106146, 106085, 106023, 105962, 105900, 105839, 
105777, 105715, 105654, 105592, 105530, 105468, 105406, 105344, 105282, 
105221, 105159, 105097, 105034, 104972, 104910, 104848, 104786, 104724, 
104662, 104600, 104538, 104476, 104414, 104353, 104291, 104229, 104167, 
104105, 104044, 103982, 103920, 103859, 103797, 103736, 103674, 103613, 
103552, 103491, 103430, 103369, 103308, 103247, 103186, 103126, 103065, 
103005, 102944, 102884, 102824, 102764, 102704, 102644, 102585, 102525, 
102466, 102407, 102348, 102289, 102230, 102172, 102113, 102055, 101997, 
101939, 101881, 101824, 101766, 101709, 101652, 101595, 101539, 101482, 
101426, 101370, 101314, 101258, 101203, 101148, 101093, 101052, 101012, 
100971, 100932, 100892, 100852, 100813, 100774, 100735, 100696, 100657, 
100619, 100580, 100542, 100504, 100466, 100428, 100391, 100353, 100316, 
100279, 100241, 100204, 100167, 100131, 100094, 100057, 100021, 99984, 99948, 
99911, 99875, 99839, 99803, 99767, 99730, 99694, 99658, 99623, 99587, 99551, 
99515, 99479, 99443, 99407, 99371, 99335, 99300, 99264, 99228, 99192, 99156, 
99120, 99084, 99048, 99011, 98975, 98939, 98903, 98866, 98830, 98793, 98757, 
98720, 98683, 98646, 98609, 98572, 98535, 98497, 98460, 98422, 98384, 98347, 
98309, 98270, 98232, 98194, 98155, 98116, 98077, 98038, 97999, 97959, 97920, 
97880, 97840, 97799, 97759, 97718, 97677, 97636, 97595, 97553, 97512, 97469, 
97427, 97385, 97342, 97299, 97255, 97192, 97129, 97066, 97002, 96938, 96874, 
96809, 96745, 96680, 96615, 96550, 96484, 96419, 96353, 96287, 96221, 96154, 
96088, 96021, 95955, 95888, 95821, 95754, 95687, 95620, 95552, 95485, 95417, 
95350, 95282, 95214, 95146, 95079, 95011, 94943, 94875, 94807, 94739, 94671, 
94603, 94535, 94467, 94399, 94331, 94263, 94195, 94127, 94060, 93992, 93924, 
93856, 93789, 93722, 93654, 93587, 93520, 93453, 93386, 93319, 93252, 93186, 
93119, 93053, 92987, 92921, 92855, 92789, 92724, 92658, 92593, 92528, 92464, 
92399, 92335, 92271, 92207, 92143, 92080, 92017, 91954, 91891, 91829, 91767, 
91705, 91644, 91582, 91521, 91461, 91400, 91340, 91281, 91221, 91162, 91103, 
91045, 90987, 90929, 90872, 90815, 90759, 90702, 90647, 90591, 90536, 90481, 
90427, 90373, 90320, 90267, 90215, 90163, 90111, 90060, 90009, 89959, 89909, 
89860, 89811, 89763, 89715, 89667, 89621, 89574, 89528, 89483, 89438, 89394, 
89351, 89307, 89265, 89223, 89181, 89140, 89100, 89060, 89021, 88983, 88945, 
88908, 88871, 88835, 88799, 88765, 88730, 88697, 88664, 88632, 88600, 88569, 
88539, 88509, 88480, 88452, 88425, 88398, 88372, 88347, 88322, 88298, 88275, 
88252, 88231, 88210, 88189, 88170, 88151, 88134, 88116, 88100, 88085, 88070, 
88056, 88043, 88031, 88019, 88008, 87999, 87990, 87982, 87974, 87968, 87962, 
87958, 87954, 87951, 87949, 87948, 87948, 87949, 87950, 87953, 87956, 87961, 
87966, 87972, 87980, 87988, 87997, 88007, 88019, 88031, 88044, 88058, 88046, 
88033, 88021, 88009, 87998, 87986, 87975, 87964, 87953, 87942, 87931, 87921, 
87911, 87901, 87891, 87881, 87871, 87862, 87853, 87844, 87835, 87826, 87818, 
87809, 87801, 87793, 87785, 87777, 87770, 87762, 87755, 87748, 87741, 87734, 
87727, 87721, 87714, 87708, 87702, 87696, 87690, 87684, 87678, 87673, 87667, 
87662, 87657, 87652, 87647, 87642, 87637, 87632, 87628, 87623, 87619, 87615, 
87611, 87607, 87603, 87599, 87596, 87592, 87588, 87585, 87582, 87578, 87575, 
87572, 87569, 87566, 87563, 87561, 87558, 87555, 87553, 87550, 87548, 87546, 
87543, 87541, 87539, 87537, 87535, 87533, 87531, 87529, 87528, 87526, 87524, 
87522, 87521, 87519, 87518, 87516, 87515, 87513, 87512, 87511, 87509, 87508, 
87507, 87506, 87505, 87503, 87502, 87501, 87500, 87499, 87498, 87497, 87496, 
87495, 87494, 87492, 87491, 87490, 87489, 87488, 87487, 87486, 87485, 87484, 
87483, 87482, 87481, 87480, 87479, 87478, 87477, 87475, 87474, 87473, 87472, 
87470, 87469, 87468, 87466, 87465, 87464, 87462, 87461, 87459, 87457, 87456, 
87454, 87452, 87451, 87449, 87447, 87445, 87443, 87441, 87439, 87437, 87434, 
87432, 87430, 87427, 87425, 87422, 87419, 87417, 87414, 87411, 87408, 87405, 
87402, 87399, 87395, 87392, 87388, 87385, 87381, 87377, 87373, 87369, 87365, 
87361, 87357, 87353, 87348, 87344, 87339, 87334, 87329, 87324, 87319, 87314, 
87308, 87303, 87297, 87291, 87285, 87279, 87273, 87267, 87260, 87254, 87247, 
87240, 87233, 87226, 87219, 87211, 87204, 87196, 87188, 87180, 87172, 87164, 
87155, 87147, 87138, 87129, 87120, 87110, 87101, 87091, 87082, 87072, 87061, 
87051, 87041, 87030, 87019, 87008, 86997, 86985, 86974, 86962, 86950, 86938, 
86925, 86913, 86900, 86887, 86874, 86860, 86847, 86833, 86819, 86805, 86791}
