(kicad_pcb (version 20171130) (host pcbnew "(5.0.2-5-10.14)")

  (general
    (thickness 1.6)
    (drawings 18)
    (tracks 58)
    (zones 0)
    (modules 4)
    (nets 11)
  )

  (page USLetter)
  (title_block
    (title "Digilent Pmod 2x6 to Tek P6316 Logic Probe Adapter")
    (date 2019-04-17)
    (rev 00)
    (company "Copyright 2019, David Hunter")
  )

  (layers
    (0 F.Cu signal)
    (31 B.Cu signal hide)
    (36 B.SilkS user)
    (37 F.SilkS user)
    (38 B.Mask user)
    (39 F.Mask user)
    (44 Edge.Cuts user)
    (45 Margin user hide)
    (46 B.CrtYd user hide)
    (47 F.CrtYd user)
    (49 F.Fab user hide)
  )

  (setup
    (last_trace_width 0.254)
    (trace_clearance 0.254)
    (zone_clearance 0.508)
    (zone_45_only no)
    (trace_min 0.1524)
    (segment_width 0.15)
    (edge_width 0.15)
    (via_size 0.7366)
    (via_drill 0.3302)
    (via_min_size 0.7366)
    (via_min_drill 0.3302)
    (uvia_size 0.3)
    (uvia_drill 0.1)
    (uvias_allowed no)
    (uvia_min_size 0.2)
    (uvia_min_drill 0.1)
    (pcb_text_width 0.3)
    (pcb_text_size 1.5 1.5)
    (mod_edge_width 0.15)
    (mod_text_size 1 1)
    (mod_text_width 0.15)
    (pad_size 1.524 1.524)
    (pad_drill 0.762)
    (pad_to_mask_clearance 0.0508)
    (solder_mask_min_width 0.254)
    (aux_axis_origin 92.71 93.98)
    (visible_elements FFFFFF7F)
    (pcbplotparams
      (layerselection 0x010f0_ffffffff)
      (usegerberextensions false)
      (usegerberattributes false)
      (usegerberadvancedattributes false)
      (creategerberjobfile false)
      (excludeedgelayer true)
      (linewidth 0.100000)
      (plotframeref false)
      (viasonmask true)
      (mode 1)
      (useauxorigin true)
      (hpglpennumber 1)
      (hpglpenspeed 20)
      (hpglpendiameter 15.000000)
      (psnegative false)
      (psa4output false)
      (plotreference true)
      (plotvalue true)
      (plotinvisibletext false)
      (padsonsilk false)
      (subtractmaskfromsilk false)
      (outputformat 1)
      (mirror false)
      (drillshape 0)
      (scaleselection 1)
      (outputdirectory "00/"))
  )

  (net 0 "")
  (net 1 /P1)
  (net 2 /P2)
  (net 3 /P3)
  (net 4 /P4)
  (net 5 GND)
  (net 6 +3V3)
  (net 7 /P7)
  (net 8 /P8)
  (net 9 /P9)
  (net 10 /P10)

  (net_class Default "This is the default net class."
    (clearance 0.254)
    (trace_width 0.254)
    (via_dia 0.7366)
    (via_drill 0.3302)
    (uvia_dia 0.3)
    (uvia_drill 0.1)
    (add_net +3V3)
    (add_net /P1)
    (add_net /P10)
    (add_net /P2)
    (add_net /P3)
    (add_net /P4)
    (add_net /P7)
    (add_net /P8)
    (add_net /P9)
    (add_net GND)
  )

  (module Connector_Custom:PinHeader_2x06_P2.54mm_Horizontal_TopBot locked (layer F.Cu) (tedit 5CBB743C) (tstamp 5CB81656)
    (at 92.71 93.98 180)
    (descr "Through hole angled pin header, 2x06, 2.54mm pitch, 6mm pin length, double rows, top bottom pin numbering")
    (tags "Through hole angled pin header THT 2x06 2.54mm double row top bottom")
    (path /5C8D72DC)
    (fp_text reference J1 (at 1.27 2.54 180) (layer F.SilkS)
      (effects (font (size 1 1) (thickness 0.15)))
    )
    (fp_text value Conn_02x06_Top_Bottom (at 5.655 14.97 180) (layer F.Fab)
      (effects (font (size 1 1) (thickness 0.15)))
    )
    (fp_text user %R (at 5.31 -6.35 270) (layer F.Fab)
      (effects (font (size 1 1) (thickness 0.15)))
    )
    (fp_line (start 13.1 -14.5) (end -1.8 -14.5) (layer F.CrtYd) (width 0.05))
    (fp_line (start 13.1 1.8) (end 13.1 -14.5) (layer F.CrtYd) (width 0.05))
    (fp_line (start -1.8 1.8) (end 13.1 1.8) (layer F.CrtYd) (width 0.05))
    (fp_line (start -1.8 -14.5) (end -1.8 1.8) (layer F.CrtYd) (width 0.05))
    (fp_line (start -1.27 1.27) (end 0 1.27) (layer F.SilkS) (width 0.12))
    (fp_line (start -1.27 1.27) (end -1.27 0) (layer F.SilkS) (width 0.12))
    (fp_line (start 1.042929 0.38) (end 1.497071 0.38) (layer F.SilkS) (width 0.12))
    (fp_line (start 1.042929 -0.38) (end 1.497071 -0.38) (layer F.SilkS) (width 0.12))
    (fp_line (start 3.582929 0.38) (end 3.98 0.38) (layer F.SilkS) (width 0.12))
    (fp_line (start 3.582929 -0.38) (end 3.98 -0.38) (layer F.SilkS) (width 0.12))
    (fp_line (start 12.64 -12.32) (end 6.64 -12.32) (layer F.SilkS) (width 0.12))
    (fp_line (start 12.64 -13.08) (end 12.64 -12.32) (layer F.SilkS) (width 0.12))
    (fp_line (start 6.64 -13.08) (end 12.64 -13.08) (layer F.SilkS) (width 0.12))
    (fp_line (start 3.98 -1.27) (end 6.64 -1.27) (layer F.SilkS) (width 0.12))
    (fp_line (start 1.042929 -2.16) (end 1.497071 -2.16) (layer F.SilkS) (width 0.12))
    (fp_line (start 1.042929 -2.92) (end 1.497071 -2.92) (layer F.SilkS) (width 0.12))
    (fp_line (start 3.582929 -2.16) (end 3.98 -2.16) (layer F.SilkS) (width 0.12))
    (fp_line (start 3.582929 -2.92) (end 3.98 -2.92) (layer F.SilkS) (width 0.12))
    (fp_line (start 12.64 -2.16) (end 6.64 -2.16) (layer F.SilkS) (width 0.12))
    (fp_line (start 12.64 -2.92) (end 12.64 -2.16) (layer F.SilkS) (width 0.12))
    (fp_line (start 6.64 -2.92) (end 12.64 -2.92) (layer F.SilkS) (width 0.12))
    (fp_line (start 3.98 -3.81) (end 6.64 -3.81) (layer F.SilkS) (width 0.12))
    (fp_line (start 1.042929 -4.7) (end 1.497071 -4.7) (layer F.SilkS) (width 0.12))
    (fp_line (start 1.042929 -5.46) (end 1.497071 -5.46) (layer F.SilkS) (width 0.12))
    (fp_line (start 3.582929 -4.7) (end 3.98 -4.7) (layer F.SilkS) (width 0.12))
    (fp_line (start 3.582929 -5.46) (end 3.98 -5.46) (layer F.SilkS) (width 0.12))
    (fp_line (start 12.64 -4.7) (end 6.64 -4.7) (layer F.SilkS) (width 0.12))
    (fp_line (start 12.64 -5.46) (end 12.64 -4.7) (layer F.SilkS) (width 0.12))
    (fp_line (start 6.64 -5.46) (end 12.64 -5.46) (layer F.SilkS) (width 0.12))
    (fp_line (start 3.98 -6.35) (end 6.64 -6.35) (layer F.SilkS) (width 0.12))
    (fp_line (start 1.042929 -7.24) (end 1.497071 -7.24) (layer F.SilkS) (width 0.12))
    (fp_line (start 1.042929 -8) (end 1.497071 -8) (layer F.SilkS) (width 0.12))
    (fp_line (start 3.582929 -7.24) (end 3.98 -7.24) (layer F.SilkS) (width 0.12))
    (fp_line (start 3.582929 -8) (end 3.98 -8) (layer F.SilkS) (width 0.12))
    (fp_line (start 12.64 -7.24) (end 6.64 -7.24) (layer F.SilkS) (width 0.12))
    (fp_line (start 12.64 -8) (end 12.64 -7.24) (layer F.SilkS) (width 0.12))
    (fp_line (start 6.64 -8) (end 12.64 -8) (layer F.SilkS) (width 0.12))
    (fp_line (start 3.98 -8.89) (end 6.64 -8.89) (layer F.SilkS) (width 0.12))
    (fp_line (start 1.042929 -9.78) (end 1.497071 -9.78) (layer F.SilkS) (width 0.12))
    (fp_line (start 1.042929 -10.54) (end 1.497071 -10.54) (layer F.SilkS) (width 0.12))
    (fp_line (start 3.582929 -9.78) (end 3.98 -9.78) (layer F.SilkS) (width 0.12))
    (fp_line (start 3.582929 -10.54) (end 3.98 -10.54) (layer F.SilkS) (width 0.12))
    (fp_line (start 12.64 -9.78) (end 6.64 -9.78) (layer F.SilkS) (width 0.12))
    (fp_line (start 12.64 -10.54) (end 12.64 -9.78) (layer F.SilkS) (width 0.12))
    (fp_line (start 6.64 -10.54) (end 12.64 -10.54) (layer F.SilkS) (width 0.12))
    (fp_line (start 3.98 -11.43) (end 6.64 -11.43) (layer F.SilkS) (width 0.12))
    (fp_line (start 1.11 -12.32) (end 1.497071 -12.32) (layer F.SilkS) (width 0.12))
    (fp_line (start 1.11 -13.08) (end 1.497071 -13.08) (layer F.SilkS) (width 0.12))
    (fp_line (start 3.582929 -12.32) (end 3.98 -12.32) (layer F.SilkS) (width 0.12))
    (fp_line (start 3.582929 -13.08) (end 3.98 -13.08) (layer F.SilkS) (width 0.12))
    (fp_line (start 6.64 0.28) (end 12.64 0.28) (layer F.SilkS) (width 0.12))
    (fp_line (start 6.64 0.16) (end 12.64 0.16) (layer F.SilkS) (width 0.12))
    (fp_line (start 6.64 0.04) (end 12.64 0.04) (layer F.SilkS) (width 0.12))
    (fp_line (start 6.64 -0.08) (end 12.64 -0.08) (layer F.SilkS) (width 0.12))
    (fp_line (start 6.64 -0.2) (end 12.64 -0.2) (layer F.SilkS) (width 0.12))
    (fp_line (start 6.64 -0.32) (end 12.64 -0.32) (layer F.SilkS) (width 0.12))
    (fp_line (start 12.64 0.38) (end 6.64 0.38) (layer F.SilkS) (width 0.12))
    (fp_line (start 12.64 -0.38) (end 12.64 0.38) (layer F.SilkS) (width 0.12))
    (fp_line (start 6.64 -0.38) (end 12.64 -0.38) (layer F.SilkS) (width 0.12))
    (fp_line (start 6.64 -14.03) (end 3.98 -14.03) (layer F.SilkS) (width 0.12))
    (fp_line (start 6.64 1.33) (end 6.64 -14.03) (layer F.SilkS) (width 0.12))
    (fp_line (start 3.98 1.33) (end 6.64 1.33) (layer F.SilkS) (width 0.12))
    (fp_line (start 3.98 -14.03) (end 3.98 1.33) (layer F.SilkS) (width 0.12))
    (fp_line (start 6.58 0.32) (end 12.58 0.32) (layer F.Fab) (width 0.1))
    (fp_line (start 12.58 -0.32) (end 12.58 0.32) (layer F.Fab) (width 0.1))
    (fp_line (start 6.58 -0.32) (end 12.58 -0.32) (layer F.Fab) (width 0.1))
    (fp_line (start -0.32 0.32) (end 4.04 0.32) (layer F.Fab) (width 0.1))
    (fp_line (start -0.32 -0.32) (end -0.32 0.32) (layer F.Fab) (width 0.1))
    (fp_line (start -0.32 -0.32) (end 4.04 -0.32) (layer F.Fab) (width 0.1))
    (fp_line (start 6.58 -2.22) (end 12.58 -2.22) (layer F.Fab) (width 0.1))
    (fp_line (start 12.58 -2.86) (end 12.58 -2.22) (layer F.Fab) (width 0.1))
    (fp_line (start 6.58 -2.86) (end 12.58 -2.86) (layer F.Fab) (width 0.1))
    (fp_line (start -0.32 -2.22) (end 4.04 -2.22) (layer F.Fab) (width 0.1))
    (fp_line (start -0.32 -2.86) (end -0.32 -2.22) (layer F.Fab) (width 0.1))
    (fp_line (start -0.32 -2.86) (end 4.04 -2.86) (layer F.Fab) (width 0.1))
    (fp_line (start 6.58 -4.76) (end 12.58 -4.76) (layer F.Fab) (width 0.1))
    (fp_line (start 12.58 -5.4) (end 12.58 -4.76) (layer F.Fab) (width 0.1))
    (fp_line (start 6.58 -5.4) (end 12.58 -5.4) (layer F.Fab) (width 0.1))
    (fp_line (start -0.32 -4.76) (end 4.04 -4.76) (layer F.Fab) (width 0.1))
    (fp_line (start -0.32 -5.4) (end -0.32 -4.76) (layer F.Fab) (width 0.1))
    (fp_line (start -0.32 -5.4) (end 4.04 -5.4) (layer F.Fab) (width 0.1))
    (fp_line (start 6.58 -7.3) (end 12.58 -7.3) (layer F.Fab) (width 0.1))
    (fp_line (start 12.58 -7.94) (end 12.58 -7.3) (layer F.Fab) (width 0.1))
    (fp_line (start 6.58 -7.94) (end 12.58 -7.94) (layer F.Fab) (width 0.1))
    (fp_line (start -0.32 -7.3) (end 4.04 -7.3) (layer F.Fab) (width 0.1))
    (fp_line (start -0.32 -7.94) (end -0.32 -7.3) (layer F.Fab) (width 0.1))
    (fp_line (start -0.32 -7.94) (end 4.04 -7.94) (layer F.Fab) (width 0.1))
    (fp_line (start 6.58 -9.84) (end 12.58 -9.84) (layer F.Fab) (width 0.1))
    (fp_line (start 12.58 -10.48) (end 12.58 -9.84) (layer F.Fab) (width 0.1))
    (fp_line (start 6.58 -10.48) (end 12.58 -10.48) (layer F.Fab) (width 0.1))
    (fp_line (start -0.32 -9.84) (end 4.04 -9.84) (layer F.Fab) (width 0.1))
    (fp_line (start -0.32 -10.48) (end -0.32 -9.84) (layer F.Fab) (width 0.1))
    (fp_line (start -0.32 -10.48) (end 4.04 -10.48) (layer F.Fab) (width 0.1))
    (fp_line (start 6.58 -12.38) (end 12.58 -12.38) (layer F.Fab) (width 0.1))
    (fp_line (start 12.58 -13.02) (end 12.58 -12.38) (layer F.Fab) (width 0.1))
    (fp_line (start 6.58 -13.02) (end 12.58 -13.02) (layer F.Fab) (width 0.1))
    (fp_line (start -0.32 -12.38) (end 4.04 -12.38) (layer F.Fab) (width 0.1))
    (fp_line (start -0.32 -13.02) (end -0.32 -12.38) (layer F.Fab) (width 0.1))
    (fp_line (start -0.32 -13.02) (end 4.04 -13.02) (layer F.Fab) (width 0.1))
    (fp_line (start 4.675 1.27) (end 4.04 0.635) (layer F.Fab) (width 0.1))
    (fp_line (start 4.04 0.635) (end 4.04 -13.97) (layer F.Fab) (width 0.1))
    (fp_line (start 6.58 -13.97) (end 4.04 -13.97) (layer F.Fab) (width 0.1))
    (fp_line (start 6.58 -13.97) (end 6.58 1.27) (layer F.Fab) (width 0.1))
    (fp_line (start 4.675 1.27) (end 6.58 1.27) (layer F.Fab) (width 0.1))
    (pad 6 thru_hole oval (at 0 -12.7 180) (size 1.7 1.7) (drill 1) (layers *.Cu *.Mask)
      (net 6 +3V3))
    (pad 7 thru_hole oval (at 2.54 0 180) (size 1.7 1.7) (drill 1) (layers *.Cu *.Mask)
      (net 7 /P7))
    (pad 1 thru_hole rect (at 0 0 180) (size 1.7 1.7) (drill 1) (layers *.Cu *.Mask)
      (net 1 /P1))
    (pad 8 thru_hole oval (at 2.54 -2.54 180) (size 1.7 1.7) (drill 1) (layers *.Cu *.Mask)
      (net 8 /P8))
    (pad 2 thru_hole oval (at 0 -2.54 180) (size 1.7 1.7) (drill 1) (layers *.Cu *.Mask)
      (net 2 /P2))
    (pad 9 thru_hole oval (at 2.54 -5.08 180) (size 1.7 1.7) (drill 1) (layers *.Cu *.Mask)
      (net 9 /P9))
    (pad 3 thru_hole oval (at 0 -5.08 180) (size 1.7 1.7) (drill 1) (layers *.Cu *.Mask)
      (net 3 /P3))
    (pad 10 thru_hole oval (at 2.54 -7.62 180) (size 1.7 1.7) (drill 1) (layers *.Cu *.Mask)
      (net 10 /P10))
    (pad 4 thru_hole oval (at 0 -7.62 180) (size 1.7 1.7) (drill 1) (layers *.Cu *.Mask)
      (net 4 /P4))
    (pad 11 thru_hole oval (at 2.54 -10.16 180) (size 1.7 1.7) (drill 1) (layers *.Cu *.Mask)
      (net 5 GND))
    (pad 5 thru_hole oval (at 0 -10.16 180) (size 1.7 1.7) (drill 1) (layers *.Cu *.Mask)
      (net 5 GND))
    (pad 12 thru_hole oval (at 2.54 -12.7 180) (size 1.7 1.7) (drill 1) (layers *.Cu *.Mask)
      (net 6 +3V3))
    (model ${KISYS3DMOD}/Connector_PinHeader_2.54mm.3dshapes/PinHeader_2x06_P2.54mm_Horizontal.wrl
      (offset (xyz 0 12.69999980926514 0))
      (scale (xyz 1 1 1))
      (rotate (xyz 0 0 0))
    )
  )

  (module Connector_PinHeader_2.54mm:PinHeader_1x02_P2.54mm_Vertical locked (layer F.Cu) (tedit 59FED5CC) (tstamp 5CB8389E)
    (at 101.575001 107.95 90)
    (descr "Through hole straight pin header, 1x02, 2.54mm pitch, single row")
    (tags "Through hole pin header THT 1x02 2.54mm single row")
    (path /5C8F4D6C)
    (fp_text reference J2 (at 0 -2.33 90) (layer F.SilkS)
      (effects (font (size 1 1) (thickness 0.15)))
    )
    (fp_text value Conn_01x02 (at 0 4.87 90) (layer F.Fab)
      (effects (font (size 1 1) (thickness 0.15)))
    )
    (fp_line (start -0.635 -1.27) (end 1.27 -1.27) (layer F.Fab) (width 0.1))
    (fp_line (start 1.27 -1.27) (end 1.27 3.81) (layer F.Fab) (width 0.1))
    (fp_line (start 1.27 3.81) (end -1.27 3.81) (layer F.Fab) (width 0.1))
    (fp_line (start -1.27 3.81) (end -1.27 -0.635) (layer F.Fab) (width 0.1))
    (fp_line (start -1.27 -0.635) (end -0.635 -1.27) (layer F.Fab) (width 0.1))
    (fp_line (start -1.33 3.87) (end 1.33 3.87) (layer F.SilkS) (width 0.12))
    (fp_line (start -1.33 1.27) (end -1.33 3.87) (layer F.SilkS) (width 0.12))
    (fp_line (start 1.33 1.27) (end 1.33 3.87) (layer F.SilkS) (width 0.12))
    (fp_line (start -1.33 1.27) (end 1.33 1.27) (layer F.SilkS) (width 0.12))
    (fp_line (start -1.33 0) (end -1.33 -1.33) (layer F.SilkS) (width 0.12))
    (fp_line (start -1.33 -1.33) (end 0 -1.33) (layer F.SilkS) (width 0.12))
    (fp_line (start -1.8 -1.8) (end -1.8 4.35) (layer F.CrtYd) (width 0.05))
    (fp_line (start -1.8 4.35) (end 1.8 4.35) (layer F.CrtYd) (width 0.05))
    (fp_line (start 1.8 4.35) (end 1.8 -1.8) (layer F.CrtYd) (width 0.05))
    (fp_line (start 1.8 -1.8) (end -1.8 -1.8) (layer F.CrtYd) (width 0.05))
    (fp_text user %R (at 0 1.27 180) (layer F.Fab)
      (effects (font (size 1 1) (thickness 0.15)))
    )
    (pad 1 thru_hole rect (at 0 0 90) (size 1.7 1.7) (drill 1) (layers *.Cu *.Mask)
      (net 6 +3V3))
    (pad 2 thru_hole oval (at 0 2.54 90) (size 1.7 1.7) (drill 1) (layers *.Cu *.Mask)
      (net 6 +3V3))
    (model ${KISYS3DMOD}/Connector_PinHeader_2.54mm.3dshapes/PinHeader_1x02_P2.54mm_Vertical.wrl
      (at (xyz 0 0 0))
      (scale (xyz 1 1 1))
      (rotate (xyz 0 0 0))
    )
  )

  (module Connector_PinHeader_2.54mm:PinHeader_1x02_P2.54mm_Vertical locked (layer F.Cu) (tedit 59FED5CC) (tstamp 5CB92A7C)
    (at 101.6 104.14 90)
    (descr "Through hole straight pin header, 1x02, 2.54mm pitch, single row")
    (tags "Through hole pin header THT 1x02 2.54mm single row")
    (path /5C8F4F81)
    (fp_text reference J3 (at 0.635 -2.33 90) (layer F.SilkS)
      (effects (font (size 1 1) (thickness 0.15)))
    )
    (fp_text value Conn_01x02 (at 0 4.87 90) (layer F.Fab)
      (effects (font (size 1 1) (thickness 0.15)))
    )
    (fp_text user %R (at 0 1.27 180) (layer F.Fab)
      (effects (font (size 1 1) (thickness 0.15)))
    )
    (fp_line (start 1.8 -1.8) (end -1.8 -1.8) (layer F.CrtYd) (width 0.05))
    (fp_line (start 1.8 4.35) (end 1.8 -1.8) (layer F.CrtYd) (width 0.05))
    (fp_line (start -1.8 4.35) (end 1.8 4.35) (layer F.CrtYd) (width 0.05))
    (fp_line (start -1.8 -1.8) (end -1.8 4.35) (layer F.CrtYd) (width 0.05))
    (fp_line (start -1.33 -1.33) (end 0 -1.33) (layer F.SilkS) (width 0.12))
    (fp_line (start -1.33 0) (end -1.33 -1.33) (layer F.SilkS) (width 0.12))
    (fp_line (start -1.33 1.27) (end 1.33 1.27) (layer F.SilkS) (width 0.12))
    (fp_line (start 1.33 1.27) (end 1.33 3.87) (layer F.SilkS) (width 0.12))
    (fp_line (start -1.33 1.27) (end -1.33 3.87) (layer F.SilkS) (width 0.12))
    (fp_line (start -1.33 3.87) (end 1.33 3.87) (layer F.SilkS) (width 0.12))
    (fp_line (start -1.27 -0.635) (end -0.635 -1.27) (layer F.Fab) (width 0.1))
    (fp_line (start -1.27 3.81) (end -1.27 -0.635) (layer F.Fab) (width 0.1))
    (fp_line (start 1.27 3.81) (end -1.27 3.81) (layer F.Fab) (width 0.1))
    (fp_line (start 1.27 -1.27) (end 1.27 3.81) (layer F.Fab) (width 0.1))
    (fp_line (start -0.635 -1.27) (end 1.27 -1.27) (layer F.Fab) (width 0.1))
    (pad 2 thru_hole oval (at 0 2.54 90) (size 1.7 1.7) (drill 1) (layers *.Cu *.Mask)
      (net 5 GND))
    (pad 1 thru_hole rect (at 0 0 90) (size 1.7 1.7) (drill 1) (layers *.Cu *.Mask)
      (net 5 GND))
    (model ${KISYS3DMOD}/Connector_PinHeader_2.54mm.3dshapes/PinHeader_1x02_P2.54mm_Vertical.wrl
      (at (xyz 0 0 0))
      (scale (xyz 1 1 1))
      (rotate (xyz 0 0 0))
    )
  )

  (module Connector_PinHeader_2.54mm:PinHeader_2x08_P2.54mm_Horizontal locked (layer F.Cu) (tedit 5CB6B5E7) (tstamp 5CB834EC)
    (at 113.03 91.44)
    (descr "Through hole angled pin header, 2x08, 2.54mm pitch, 6mm pin length, double rows")
    (tags "Through hole angled pin header THT 2x08 2.54mm double row")
    (path /5C8EF79F)
    (fp_text reference J4 (at -2.54 8.89) (layer F.SilkS)
      (effects (font (size 1 1) (thickness 0.15)))
    )
    (fp_text value Conn_02x08_Odd_Even (at 5.655 20.05) (layer F.Fab)
      (effects (font (size 1 1) (thickness 0.15)))
    )
    (fp_line (start 4.675 -1.27) (end 6.58 -1.27) (layer F.Fab) (width 0.1))
    (fp_line (start 6.58 -1.27) (end 6.58 19.05) (layer F.Fab) (width 0.1))
    (fp_line (start 6.58 19.05) (end 4.04 19.05) (layer F.Fab) (width 0.1))
    (fp_line (start 4.04 19.05) (end 4.04 -0.635) (layer F.Fab) (width 0.1))
    (fp_line (start 4.04 -0.635) (end 4.675 -1.27) (layer F.Fab) (width 0.1))
    (fp_line (start -0.32 -0.32) (end 4.04 -0.32) (layer F.Fab) (width 0.1))
    (fp_line (start -0.32 -0.32) (end -0.32 0.32) (layer F.Fab) (width 0.1))
    (fp_line (start -0.32 0.32) (end 4.04 0.32) (layer F.Fab) (width 0.1))
    (fp_line (start 6.58 -0.32) (end 12.58 -0.32) (layer F.Fab) (width 0.1))
    (fp_line (start 12.58 -0.32) (end 12.58 0.32) (layer F.Fab) (width 0.1))
    (fp_line (start 6.58 0.32) (end 12.58 0.32) (layer F.Fab) (width 0.1))
    (fp_line (start -0.32 2.22) (end 4.04 2.22) (layer F.Fab) (width 0.1))
    (fp_line (start -0.32 2.22) (end -0.32 2.86) (layer F.Fab) (width 0.1))
    (fp_line (start -0.32 2.86) (end 4.04 2.86) (layer F.Fab) (width 0.1))
    (fp_line (start 6.58 2.22) (end 12.58 2.22) (layer F.Fab) (width 0.1))
    (fp_line (start 12.58 2.22) (end 12.58 2.86) (layer F.Fab) (width 0.1))
    (fp_line (start 6.58 2.86) (end 12.58 2.86) (layer F.Fab) (width 0.1))
    (fp_line (start -0.32 4.76) (end 4.04 4.76) (layer F.Fab) (width 0.1))
    (fp_line (start -0.32 4.76) (end -0.32 5.4) (layer F.Fab) (width 0.1))
    (fp_line (start -0.32 5.4) (end 4.04 5.4) (layer F.Fab) (width 0.1))
    (fp_line (start 6.58 4.76) (end 12.58 4.76) (layer F.Fab) (width 0.1))
    (fp_line (start 12.58 4.76) (end 12.58 5.4) (layer F.Fab) (width 0.1))
    (fp_line (start 6.58 5.4) (end 12.58 5.4) (layer F.Fab) (width 0.1))
    (fp_line (start -0.32 7.3) (end 4.04 7.3) (layer F.Fab) (width 0.1))
    (fp_line (start -0.32 7.3) (end -0.32 7.94) (layer F.Fab) (width 0.1))
    (fp_line (start -0.32 7.94) (end 4.04 7.94) (layer F.Fab) (width 0.1))
    (fp_line (start 6.58 7.3) (end 12.58 7.3) (layer F.Fab) (width 0.1))
    (fp_line (start 12.58 7.3) (end 12.58 7.94) (layer F.Fab) (width 0.1))
    (fp_line (start 6.58 7.94) (end 12.58 7.94) (layer F.Fab) (width 0.1))
    (fp_line (start -0.32 9.84) (end 4.04 9.84) (layer F.Fab) (width 0.1))
    (fp_line (start -0.32 9.84) (end -0.32 10.48) (layer F.Fab) (width 0.1))
    (fp_line (start -0.32 10.48) (end 4.04 10.48) (layer F.Fab) (width 0.1))
    (fp_line (start 6.58 9.84) (end 12.58 9.84) (layer F.Fab) (width 0.1))
    (fp_line (start 12.58 9.84) (end 12.58 10.48) (layer F.Fab) (width 0.1))
    (fp_line (start 6.58 10.48) (end 12.58 10.48) (layer F.Fab) (width 0.1))
    (fp_line (start -0.32 12.38) (end 4.04 12.38) (layer F.Fab) (width 0.1))
    (fp_line (start -0.32 12.38) (end -0.32 13.02) (layer F.Fab) (width 0.1))
    (fp_line (start -0.32 13.02) (end 4.04 13.02) (layer F.Fab) (width 0.1))
    (fp_line (start 6.58 12.38) (end 12.58 12.38) (layer F.Fab) (width 0.1))
    (fp_line (start 12.58 12.38) (end 12.58 13.02) (layer F.Fab) (width 0.1))
    (fp_line (start 6.58 13.02) (end 12.58 13.02) (layer F.Fab) (width 0.1))
    (fp_line (start -0.32 14.92) (end 4.04 14.92) (layer F.Fab) (width 0.1))
    (fp_line (start -0.32 14.92) (end -0.32 15.56) (layer F.Fab) (width 0.1))
    (fp_line (start -0.32 15.56) (end 4.04 15.56) (layer F.Fab) (width 0.1))
    (fp_line (start 6.58 14.92) (end 12.58 14.92) (layer F.Fab) (width 0.1))
    (fp_line (start 12.58 14.92) (end 12.58 15.56) (layer F.Fab) (width 0.1))
    (fp_line (start 6.58 15.56) (end 12.58 15.56) (layer F.Fab) (width 0.1))
    (fp_line (start -0.32 17.46) (end 4.04 17.46) (layer F.Fab) (width 0.1))
    (fp_line (start -0.32 17.46) (end -0.32 18.1) (layer F.Fab) (width 0.1))
    (fp_line (start -0.32 18.1) (end 4.04 18.1) (layer F.Fab) (width 0.1))
    (fp_line (start 6.58 17.46) (end 12.58 17.46) (layer F.Fab) (width 0.1))
    (fp_line (start 12.58 17.46) (end 12.58 18.1) (layer F.Fab) (width 0.1))
    (fp_line (start 6.58 18.1) (end 12.58 18.1) (layer F.Fab) (width 0.1))
    (fp_line (start 3.98 -1.33) (end 3.98 19.11) (layer F.SilkS) (width 0.12))
    (fp_line (start 3.98 19.11) (end 6.64 19.11) (layer F.SilkS) (width 0.12))
    (fp_line (start 6.64 19.11) (end 6.64 -1.33) (layer F.SilkS) (width 0.12))
    (fp_line (start 6.64 -1.33) (end 3.98 -1.33) (layer F.SilkS) (width 0.12))
    (fp_line (start 6.64 -0.38) (end 12.64 -0.38) (layer F.SilkS) (width 0.12))
    (fp_line (start 12.64 -0.38) (end 12.64 0.38) (layer F.SilkS) (width 0.12))
    (fp_line (start 12.64 0.38) (end 6.64 0.38) (layer F.SilkS) (width 0.12))
    (fp_line (start 6.64 -0.32) (end 12.64 -0.32) (layer F.SilkS) (width 0.12))
    (fp_line (start 6.64 -0.2) (end 12.64 -0.2) (layer F.SilkS) (width 0.12))
    (fp_line (start 6.64 -0.08) (end 12.64 -0.08) (layer F.SilkS) (width 0.12))
    (fp_line (start 6.64 0.04) (end 12.64 0.04) (layer F.SilkS) (width 0.12))
    (fp_line (start 6.64 0.16) (end 12.64 0.16) (layer F.SilkS) (width 0.12))
    (fp_line (start 6.64 0.28) (end 12.64 0.28) (layer F.SilkS) (width 0.12))
    (fp_line (start 3.582929 -0.38) (end 3.98 -0.38) (layer F.SilkS) (width 0.12))
    (fp_line (start 3.582929 0.38) (end 3.98 0.38) (layer F.SilkS) (width 0.12))
    (fp_line (start 1.11 -0.38) (end 1.497071 -0.38) (layer F.SilkS) (width 0.12))
    (fp_line (start 1.11 0.38) (end 1.497071 0.38) (layer F.SilkS) (width 0.12))
    (fp_line (start 3.98 1.27) (end 6.64 1.27) (layer F.SilkS) (width 0.12))
    (fp_line (start 6.64 2.16) (end 12.64 2.16) (layer F.SilkS) (width 0.12))
    (fp_line (start 12.64 2.16) (end 12.64 2.92) (layer F.SilkS) (width 0.12))
    (fp_line (start 12.64 2.92) (end 6.64 2.92) (layer F.SilkS) (width 0.12))
    (fp_line (start 3.582929 2.16) (end 3.98 2.16) (layer F.SilkS) (width 0.12))
    (fp_line (start 3.582929 2.92) (end 3.98 2.92) (layer F.SilkS) (width 0.12))
    (fp_line (start 1.042929 2.16) (end 1.497071 2.16) (layer F.SilkS) (width 0.12))
    (fp_line (start 1.042929 2.92) (end 1.497071 2.92) (layer F.SilkS) (width 0.12))
    (fp_line (start 3.98 3.81) (end 6.64 3.81) (layer F.SilkS) (width 0.12))
    (fp_line (start 6.64 4.7) (end 12.64 4.7) (layer F.SilkS) (width 0.12))
    (fp_line (start 12.64 4.7) (end 12.64 5.46) (layer F.SilkS) (width 0.12))
    (fp_line (start 12.64 5.46) (end 6.64 5.46) (layer F.SilkS) (width 0.12))
    (fp_line (start 3.582929 4.7) (end 3.98 4.7) (layer F.SilkS) (width 0.12))
    (fp_line (start 3.582929 5.46) (end 3.98 5.46) (layer F.SilkS) (width 0.12))
    (fp_line (start 1.042929 4.7) (end 1.497071 4.7) (layer F.SilkS) (width 0.12))
    (fp_line (start 1.042929 5.46) (end 1.497071 5.46) (layer F.SilkS) (width 0.12))
    (fp_line (start 3.98 6.35) (end 6.64 6.35) (layer F.SilkS) (width 0.12))
    (fp_line (start 6.64 7.24) (end 12.64 7.24) (layer F.SilkS) (width 0.12))
    (fp_line (start 12.64 7.24) (end 12.64 8) (layer F.SilkS) (width 0.12))
    (fp_line (start 12.64 8) (end 6.64 8) (layer F.SilkS) (width 0.12))
    (fp_line (start 3.582929 7.24) (end 3.98 7.24) (layer F.SilkS) (width 0.12))
    (fp_line (start 3.582929 8) (end 3.98 8) (layer F.SilkS) (width 0.12))
    (fp_line (start 1.042929 7.24) (end 1.497071 7.24) (layer F.SilkS) (width 0.12))
    (fp_line (start 1.042929 8) (end 1.497071 8) (layer F.SilkS) (width 0.12))
    (fp_line (start 3.98 8.89) (end 6.64 8.89) (layer F.SilkS) (width 0.12))
    (fp_line (start 6.64 9.78) (end 12.64 9.78) (layer F.SilkS) (width 0.12))
    (fp_line (start 12.64 9.78) (end 12.64 10.54) (layer F.SilkS) (width 0.12))
    (fp_line (start 12.64 10.54) (end 6.64 10.54) (layer F.SilkS) (width 0.12))
    (fp_line (start 3.582929 9.78) (end 3.98 9.78) (layer F.SilkS) (width 0.12))
    (fp_line (start 3.582929 10.54) (end 3.98 10.54) (layer F.SilkS) (width 0.12))
    (fp_line (start 1.042929 9.78) (end 1.497071 9.78) (layer F.SilkS) (width 0.12))
    (fp_line (start 1.042929 10.54) (end 1.497071 10.54) (layer F.SilkS) (width 0.12))
    (fp_line (start 3.98 11.43) (end 6.64 11.43) (layer F.SilkS) (width 0.12))
    (fp_line (start 6.64 12.32) (end 12.64 12.32) (layer F.SilkS) (width 0.12))
    (fp_line (start 12.64 12.32) (end 12.64 13.08) (layer F.SilkS) (width 0.12))
    (fp_line (start 12.64 13.08) (end 6.64 13.08) (layer F.SilkS) (width 0.12))
    (fp_line (start 3.582929 12.32) (end 3.98 12.32) (layer F.SilkS) (width 0.12))
    (fp_line (start 3.582929 13.08) (end 3.98 13.08) (layer F.SilkS) (width 0.12))
    (fp_line (start 1.042929 12.32) (end 1.497071 12.32) (layer F.SilkS) (width 0.12))
    (fp_line (start 1.042929 13.08) (end 1.497071 13.08) (layer F.SilkS) (width 0.12))
    (fp_line (start 3.98 13.97) (end 6.64 13.97) (layer F.SilkS) (width 0.12))
    (fp_line (start 6.64 14.86) (end 12.64 14.86) (layer F.SilkS) (width 0.12))
    (fp_line (start 12.64 14.86) (end 12.64 15.62) (layer F.SilkS) (width 0.12))
    (fp_line (start 12.64 15.62) (end 6.64 15.62) (layer F.SilkS) (width 0.12))
    (fp_line (start 3.582929 14.86) (end 3.98 14.86) (layer F.SilkS) (width 0.12))
    (fp_line (start 3.582929 15.62) (end 3.98 15.62) (layer F.SilkS) (width 0.12))
    (fp_line (start 1.042929 14.86) (end 1.497071 14.86) (layer F.SilkS) (width 0.12))
    (fp_line (start 1.042929 15.62) (end 1.497071 15.62) (layer F.SilkS) (width 0.12))
    (fp_line (start 3.98 16.51) (end 6.64 16.51) (layer F.SilkS) (width 0.12))
    (fp_line (start 6.64 17.4) (end 12.64 17.4) (layer F.SilkS) (width 0.12))
    (fp_line (start 12.64 17.4) (end 12.64 18.16) (layer F.SilkS) (width 0.12))
    (fp_line (start 12.64 18.16) (end 6.64 18.16) (layer F.SilkS) (width 0.12))
    (fp_line (start 3.582929 17.4) (end 3.98 17.4) (layer F.SilkS) (width 0.12))
    (fp_line (start 3.582929 18.16) (end 3.98 18.16) (layer F.SilkS) (width 0.12))
    (fp_line (start 1.042929 17.4) (end 1.497071 17.4) (layer F.SilkS) (width 0.12))
    (fp_line (start 1.042929 18.16) (end 1.497071 18.16) (layer F.SilkS) (width 0.12))
    (fp_line (start -1.27 0) (end -1.27 -1.27) (layer F.SilkS) (width 0.12))
    (fp_line (start -1.27 -1.27) (end 0 -1.27) (layer F.SilkS) (width 0.12))
    (fp_line (start -1.8 -1.8) (end -1.8 19.55) (layer F.CrtYd) (width 0.05))
    (fp_line (start -1.8 19.55) (end 13.1 19.55) (layer F.CrtYd) (width 0.05))
    (fp_line (start 13.1 19.55) (end 13.1 -1.8) (layer F.CrtYd) (width 0.05))
    (fp_line (start 13.1 -1.8) (end -1.8 -1.8) (layer F.CrtYd) (width 0.05))
    (fp_text user %R (at 5.31 8.89 90) (layer F.Fab)
      (effects (font (size 1 1) (thickness 0.15)))
    )
    (pad 1 thru_hole rect (at 0 0) (size 1.7 1.7) (drill 1) (layers *.Cu *.Mask)
      (net 10 /P10))
    (pad 2 thru_hole oval (at 2.54 0) (size 1.7 1.7) (drill 1) (layers *.Cu *.Mask)
      (net 5 GND))
    (pad 3 thru_hole oval (at 0 2.54) (size 1.7 1.7) (drill 1) (layers *.Cu *.Mask)
      (net 9 /P9))
    (pad 4 thru_hole oval (at 2.54 2.54) (size 1.7 1.7) (drill 1) (layers *.Cu *.Mask)
      (net 5 GND))
    (pad 5 thru_hole oval (at 0 5.08) (size 1.7 1.7) (drill 1) (layers *.Cu *.Mask)
      (net 8 /P8))
    (pad 6 thru_hole oval (at 2.54 5.08) (size 1.7 1.7) (drill 1) (layers *.Cu *.Mask)
      (net 5 GND))
    (pad 7 thru_hole oval (at 0 7.62) (size 1.7 1.7) (drill 1) (layers *.Cu *.Mask)
      (net 7 /P7))
    (pad 8 thru_hole oval (at 2.54 7.62) (size 1.7 1.7) (drill 1) (layers *.Cu *.Mask)
      (net 5 GND))
    (pad 9 thru_hole oval (at 0 10.16) (size 1.7 1.7) (drill 1) (layers *.Cu *.Mask)
      (net 4 /P4))
    (pad 10 thru_hole oval (at 2.54 10.16) (size 1.7 1.7) (drill 1) (layers *.Cu *.Mask)
      (net 5 GND))
    (pad 11 thru_hole oval (at 0 12.7) (size 1.7 1.7) (drill 1) (layers *.Cu *.Mask)
      (net 3 /P3))
    (pad 12 thru_hole oval (at 2.54 12.7) (size 1.7 1.7) (drill 1) (layers *.Cu *.Mask)
      (net 5 GND))
    (pad 13 thru_hole oval (at 0 15.24) (size 1.7 1.7) (drill 1) (layers *.Cu *.Mask)
      (net 2 /P2))
    (pad 14 thru_hole oval (at 2.54 15.24) (size 1.7 1.7) (drill 1) (layers *.Cu *.Mask)
      (net 5 GND))
    (pad 15 thru_hole oval (at 0 17.78) (size 1.7 1.7) (drill 1) (layers *.Cu *.Mask)
      (net 1 /P1))
    (pad 16 thru_hole oval (at 2.54 17.78) (size 1.7 1.7) (drill 1) (layers *.Cu *.Mask)
      (net 5 GND))
    (model ${KISYS3DMOD}/Connector_PinHeader_2.54mm.3dshapes/PinHeader_2x08_P2.54mm_Horizontal.wrl
      (at (xyz 0 0 0))
      (scale (xyz 1 1 1))
      (rotate (xyz 0 0 0))
    )
  )

  (gr_line (start 118.745 110.49) (end 86.995 110.49) (layer Margin) (width 0.15) (tstamp 5CBB6965))
  (gr_line (start 86.995 90.17) (end 118.745 90.17) (layer Margin) (width 0.15) (tstamp 5CBB694F))
  (gr_line (start 118.745 90.17) (end 118.745 110.49) (layer Margin) (width 0.15) (tstamp 5CBB694E))
  (gr_line (start 86.995 110.49) (end 86.995 90.17) (layer Margin) (width 0.15) (tstamp 5CBB694C))
  (gr_text GND (at 106.045 104.775) (layer F.SilkS)
    (effects (font (size 1.5 1.5) (thickness 0.2032)) (justify left))
  )
  (gr_text 3V3 (at 106.045 107.315) (layer F.SilkS) (tstamp 5CBB58EE)
    (effects (font (size 1.5 1.5) (thickness 0.2032)) (justify left))
  )
  (gr_text 7 (at 110.49 91.44 90) (layer F.SilkS)
    (effects (font (size 1.016 1.016) (thickness 0.2032)))
  )
  (gr_text 0 (at 110.49 109.22 90) (layer F.SilkS)
    (effects (font (size 1.016 1.016) (thickness 0.2032)))
  )
  (gr_text "DEH 2019" (at 104.775 97.155) (layer F.SilkS)
    (effects (font (size 1.5 1.5) (thickness 0.3)))
  )
  (gr_text "dbg 00" (at 100.33 91.44) (layer F.SilkS)
    (effects (font (size 1.5 1.5) (thickness 0.3)))
  )
  (dimension 4.445 (width 0.3) (layer F.Fab)
    (gr_text "0.175 in" (at 74.1 91.7575 90) (layer F.Fab)
      (effects (font (size 1.5 1.5) (thickness 0.3)))
    )
    (feature1 (pts (xy 92.71 89.535) (xy 75.613579 89.535)))
    (feature2 (pts (xy 92.71 93.98) (xy 75.613579 93.98)))
    (crossbar (pts (xy 76.2 93.98) (xy 76.2 89.535)))
    (arrow1a (pts (xy 76.2 89.535) (xy 76.786421 90.661504)))
    (arrow1b (pts (xy 76.2 89.535) (xy 75.613579 90.661504)))
    (arrow2a (pts (xy 76.2 93.98) (xy 76.786421 92.853496)))
    (arrow2b (pts (xy 76.2 93.98) (xy 75.613579 92.853496)))
  )
  (dimension 6.35 (width 0.3) (layer F.Fab)
    (gr_text "0.25 in" (at 89.535 79.18) (layer F.Fab)
      (effects (font (size 1.5 1.5) (thickness 0.3)))
    )
    (feature1 (pts (xy 86.36 93.98) (xy 86.36 80.693579)))
    (feature2 (pts (xy 92.71 93.98) (xy 92.71 80.693579)))
    (crossbar (pts (xy 92.71 81.28) (xy 86.36 81.28)))
    (arrow1a (pts (xy 86.36 81.28) (xy 87.486504 80.693579)))
    (arrow1b (pts (xy 86.36 81.28) (xy 87.486504 81.866421)))
    (arrow2a (pts (xy 92.71 81.28) (xy 91.583496 80.693579)))
    (arrow2b (pts (xy 92.71 81.28) (xy 91.583496 81.866421)))
  )
  (dimension 21.59 (width 0.3) (layer F.Fab) (tstamp 5CB837FD)
    (gr_text "0.85 in" (at 132.91 100.33 270) (layer F.Fab) (tstamp 5CB837FD)
      (effects (font (size 1.5 1.5) (thickness 0.3)))
    )
    (feature1 (pts (xy 119.38 111.125) (xy 131.396421 111.125)))
    (feature2 (pts (xy 119.38 89.535) (xy 131.396421 89.535)))
    (crossbar (pts (xy 130.81 89.535) (xy 130.81 111.125)))
    (arrow1a (pts (xy 130.81 111.125) (xy 130.223579 109.998496)))
    (arrow1b (pts (xy 130.81 111.125) (xy 131.396421 109.998496)))
    (arrow2a (pts (xy 130.81 89.535) (xy 130.223579 90.661504)))
    (arrow2b (pts (xy 130.81 89.535) (xy 131.396421 90.661504)))
  )
  (dimension 33.02 (width 0.3) (layer F.Fab)
    (gr_text "1.30 in" (at 102.87 81.72) (layer F.Fab)
      (effects (font (size 1.5 1.5) (thickness 0.3)))
    )
    (feature1 (pts (xy 119.38 90.17) (xy 119.38 83.233579)))
    (feature2 (pts (xy 86.36 90.17) (xy 86.36 83.233579)))
    (crossbar (pts (xy 86.36 83.82) (xy 119.38 83.82)))
    (arrow1a (pts (xy 119.38 83.82) (xy 118.253496 84.406421)))
    (arrow1b (pts (xy 119.38 83.82) (xy 118.253496 83.233579)))
    (arrow2a (pts (xy 86.36 83.82) (xy 87.486504 84.406421)))
    (arrow2b (pts (xy 86.36 83.82) (xy 87.486504 83.233579)))
  )
  (gr_line (start 86.36 111.125) (end 86.36 89.535) (layer Edge.Cuts) (width 0.15) (tstamp 5CC6A477))
  (gr_line (start 119.38 111.125) (end 86.36 111.125) (layer Edge.Cuts) (width 0.15) (tstamp 5CC21A90))
  (gr_line (start 119.38 89.535) (end 119.38 111.125) (layer Edge.Cuts) (width 0.15) (tstamp 5CC21A93))
  (gr_line (start 86.36 89.535) (end 119.38 89.535) (layer Edge.Cuts) (width 0.15) (tstamp 5CC21A8A))

  (segment (start 92.71 93.98) (end 95.885 93.98) (width 0.254) (layer F.Cu) (net 1) (tstamp 5CB845CA))
  (via (at 95.885 93.98) (size 0.8) (drill 0.4) (layers F.Cu B.Cu) (net 1))
  (segment (start 95.885 109.22) (end 95.885 93.98) (width 0.254) (layer B.Cu) (net 1))
  (segment (start 113.03 109.22) (end 95.885 109.22) (width 0.254) (layer F.Cu) (net 1))
  (via (at 95.885 109.22) (size 0.8) (drill 0.4) (layers F.Cu B.Cu) (net 1))
  (segment (start 113.03 106.68) (end 97.155 106.68) (width 0.254) (layer F.Cu) (net 2))
  (via (at 97.155 106.68) (size 0.8) (drill 0.4) (layers F.Cu B.Cu) (net 2))
  (segment (start 97.155 96.52) (end 97.155 106.68) (width 0.254) (layer B.Cu) (net 2))
  (segment (start 92.71 96.52) (end 97.155 96.52) (width 0.254) (layer F.Cu) (net 2))
  (via (at 97.155 96.52) (size 0.8) (drill 0.4) (layers F.Cu B.Cu) (net 2))
  (segment (start 92.71 99.06) (end 98.425 99.06) (width 0.254) (layer F.Cu) (net 3))
  (via (at 98.425 99.06) (size 0.8) (drill 0.4) (layers F.Cu B.Cu) (net 3))
  (segment (start 98.425 105.41) (end 98.425 99.06) (width 0.254) (layer B.Cu) (net 3))
  (segment (start 98.425 105.41) (end 111.76 105.41) (width 0.254) (layer F.Cu) (net 3))
  (segment (start 111.76 105.41) (end 113.03 104.14) (width 0.254) (layer F.Cu) (net 3))
  (via (at 98.425 105.41) (size 0.8) (drill 0.4) (layers F.Cu B.Cu) (net 3))
  (segment (start 92.71 101.6) (end 113.03 101.6) (width 0.254) (layer F.Cu) (net 4))
  (segment (start 92.71 104.14) (end 101.6 104.14) (width 0.254) (layer F.Cu) (net 5))
  (segment (start 90.17 104.14) (end 92.71 104.14) (width 0.254) (layer F.Cu) (net 5))
  (segment (start 101.6 104.14) (end 104.14 104.14) (width 0.254) (layer F.Cu) (net 5))
  (segment (start 104.14 104.14) (end 110.49 104.14) (width 0.254) (layer F.Cu) (net 5))
  (segment (start 111.76 102.87) (end 114.3 102.87) (width 0.254) (layer F.Cu) (net 5))
  (segment (start 114.3 102.87) (end 115.57 101.6) (width 0.254) (layer F.Cu) (net 5))
  (segment (start 110.49 104.14) (end 111.76 102.87) (width 0.254) (layer F.Cu) (net 5))
  (segment (start 115.57 109.22) (end 115.57 106.68) (width 0.254) (layer B.Cu) (net 5))
  (segment (start 115.57 104.14) (end 115.57 106.68) (width 0.254) (layer B.Cu) (net 5))
  (segment (start 115.57 104.14) (end 115.57 101.6) (width 0.254) (layer B.Cu) (net 5))
  (segment (start 115.57 101.6) (end 115.57 99.06) (width 0.254) (layer B.Cu) (net 5))
  (segment (start 115.57 99.06) (end 115.57 96.52) (width 0.254) (layer B.Cu) (net 5))
  (segment (start 115.57 96.52) (end 115.57 93.98) (width 0.254) (layer B.Cu) (net 5))
  (segment (start 115.57 93.98) (end 115.57 91.44) (width 0.254) (layer B.Cu) (net 5))
  (segment (start 101.575001 107.95) (end 104.115001 107.95) (width 0.254) (layer F.Cu) (net 6))
  (segment (start 90.17 106.68) (end 92.71 106.68) (width 0.254) (layer F.Cu) (net 6))
  (segment (start 96.52 107.95) (end 101.575001 107.95) (width 0.254) (layer F.Cu) (net 6))
  (segment (start 95.25 106.68) (end 96.52 107.95) (width 0.254) (layer F.Cu) (net 6))
  (segment (start 92.71 106.68) (end 95.25 106.68) (width 0.254) (layer F.Cu) (net 6))
  (segment (start 90.17 93.98) (end 91.44 95.25) (width 0.254) (layer F.Cu) (net 7))
  (segment (start 91.44 95.25) (end 109.22 95.25) (width 0.254) (layer F.Cu) (net 7))
  (via (at 109.22 95.25) (size 0.8) (drill 0.4) (layers F.Cu B.Cu) (net 7))
  (via (at 109.22 99.06) (size 0.8) (drill 0.4) (layers F.Cu B.Cu) (net 7))
  (segment (start 109.22 95.25) (end 109.22 99.06) (width 0.254) (layer B.Cu) (net 7))
  (segment (start 109.22 99.06) (end 113.03 99.06) (width 0.254) (layer F.Cu) (net 7))
  (segment (start 91.44 97.79) (end 90.17 96.52) (width 0.254) (layer F.Cu) (net 8))
  (segment (start 102.87 97.79) (end 91.44 97.79) (width 0.254) (layer F.Cu) (net 8))
  (segment (start 104.14 96.52) (end 102.87 97.79) (width 0.254) (layer F.Cu) (net 8))
  (segment (start 113.03 96.52) (end 104.14 96.52) (width 0.254) (layer F.Cu) (net 8))
  (segment (start 90.17 99.06) (end 91.44 100.33) (width 0.254) (layer F.Cu) (net 9))
  (segment (start 91.44 100.33) (end 107.95 100.33) (width 0.254) (layer F.Cu) (net 9))
  (via (at 107.95 100.33) (size 0.8) (drill 0.4) (layers F.Cu B.Cu) (net 9))
  (segment (start 107.95 100.33) (end 107.95 93.98) (width 0.254) (layer B.Cu) (net 9))
  (via (at 107.95 93.98) (size 0.8) (drill 0.4) (layers F.Cu B.Cu) (net 9))
  (segment (start 113.03 93.98) (end 107.95 93.98) (width 0.254) (layer F.Cu) (net 9))
  (segment (start 91.44 102.87) (end 90.17 101.6) (width 0.254) (layer F.Cu) (net 10))
  (segment (start 106.68 102.87) (end 91.44 102.87) (width 0.254) (layer F.Cu) (net 10))
  (via (at 106.68 102.87) (size 0.8) (drill 0.4) (layers F.Cu B.Cu) (net 10))
  (segment (start 106.68 102.87) (end 106.68 91.44) (width 0.254) (layer B.Cu) (net 10))
  (via (at 106.68 91.44) (size 0.8) (drill 0.4) (layers F.Cu B.Cu) (net 10))
  (segment (start 113.03 91.44) (end 106.68 91.44) (width 0.254) (layer F.Cu) (net 10))

)
