                        Resonance $17:4
                                    |
                                =========
                            .---/\/\/\/\/---.
                            |               |
                            |               |
                            |     $17:5     |
                            |       |       |
                            |    =======    |
                            :----/\/\/\/----:
                            |               |
                            |               |
           .----------------:     $17:6     :-------------------------------------------------------------------------------------------------------------.
           |                |       |       |                                                                                                             |
           |                |     =====     |                                                                                                             |
           |                :-----/\/\/-----:                                                                                                             |
           |                |               |           .---/\/\/------->-LP-Output->---------------------------------------------------------------------)----------------------------------------------------------.
           |                |               |           |                                                                                                 |                                                          |
           |                |     $17:7     |           |                                                                                                 |                                                          |
           |                |       |       |           :---/\/\/------->-HP-Output->-------.--->-Mixer(H)       Cap-2b                      Mixer(B)-<---:             Cap-2a Cap-1b                   Mixer(L)-<---:             Cap-1a
           |                |      ===      |           |                                   |                       |                                     |                |      |                                  |                |
           |                '------/\/------'           |                                   |                       ^                                     |                ^      ^                                  |                ^
           |                                            |                                   |                       |                                     |                |      |                                  |                |
           |                                            |                                   |                       |                                     |                |      |                                  |                |
           :---/\/---------.----------------.           |                                   :----------------.      |                                     :----------------:      |                                  :----------------:
           |               |                |           |                                   |                |      |                                     |                |      |                                  |                |
           |               |                :---/\/\/---+-------------------.               |                |      :------->-HP-VCR->----.               |                |      :---->-BP-VCR->----.               |                |
           |               |                |           |                   |               |                |      |                     |               |                |      |                  |               |                |
          ===            =====              |           |                  ===            =====              |      |                    ===            =====              |      |                 ===            =====              |
      .---/\/--------.---/\/\/---.          |           |              .---/\/--------.---/\/\/---.          |      |                .---/\/--------.---/\/\/---.          |      |             .---/\/--------.---/\/\/---.          |
      |              |           |          |           |              |              |           |          |      |                |              |           |          |      |             |              |           |          |
      |              |           |          |           |              |              |           |          |      |                |              |           |          |      |             |              |           |          |
12V---:              |           :---GND    |           |        12V---:              |           :---GND    |      |          12V---:              |           :---GND    |      |       12V---:              |           :---GND    |
      |              |           |          |           |              |              |           |          |      |                |              |           |          |      |             |              |           |          |
      |             ===          |          |           |              |             ===          |          |      |                |             ===          |          |      |             |             ===          |          |
      '---/\/---.---/\/----------'          |           |              '---/\/---.---/\/----------'          |      |                '---/\/---.---/\/----------'          |      |             '---/\/---.---/\/----------'          |
                |                           |           |                        |                           |      |                          |                           |      |                       |                           |
                |                           |           |                        |                           |      |                          |                           |      |                       |                           |
                '---------------------------'           |                        :---------------------------:      |                          .---------------------------:      |                       '---------------------------'
                                                        |                        |                           |      |                          |                           |      |
                                                        |                        |                           |      |                          |                           |      |
                                                        |    .---/\/---.---/\/---'---/\/\/---.---/\/\/\/\/---'      |      .---/\/---.---/\/---'---/\/\/---.---/\/\/\/\/---'      |
                                                        |    |         |             =====   |                      |      |         |             =====   |                      |
                                                        |    |         |               |     |                      |      |         |               |     |                      |
                                                        |    |         '---------------'     '----------------------'      |         '---------------'     '----------------------'
Audio-In-Through-Filter->-------------------------------'    |                                                             |
                                                             |                                                             |
                                                             '------------------------------.------------------------------'         Filter Cutoff $16:7   $16:6   $16:5   $16:4   $16:3   $16:2   $16:1   $16:0   $15:2   $15:1   $15:0
Audio-In-Passing-Filter->--------------------.                                              |                                               12V    5V/12V  5V/12V  5V/12V  5V/12V  5V/12V  5V/12V  5V/12V  5V/12V  5V/12V  5V/12V  5V/12V
                                             |                                              |                                                |       |       |       |       |       |       |       |       |       |       |       |
                                             |                                              |                                                R       R       R       R       R       R       R       R       R       R       R       R
                                             |                                              |                                                |       |       |       |       |       |       |       |       |       |       |       |
                                             |                                              '-------------------<-Cutoff-<-------------------'---R---'---R---'---R---'---R---'---R---'---R---'---R---'---R---'---R---'---R---'---R---'
                                             |
                                             |
          Mode $18:4                         |                                                   Volume $18:0
                 |                           |                                                            |
              =======                        |                                                        =========
Mixer(L)->----/\/\/\/----.                   |                                                    .---/\/\/\/\/---.
                         |                   :---/\/\/-------.----------------.                   |               |                    .---/\/\/-------.----------------.
                         |                   |               |                |                   |               |                    |               |                |
               $18:5     :--->-Mixer(o)->----:               |                :--->-Volume(i)->---:     $18:1     :--->-Volume(o)->----:               |                |
                 |       |                   |               |                |                   |       |       |                    |               |                |
              =======    |                  ===            =====              |                   |    =======    |                   ===            =====              |
Mixer(B)->----/\/\/\/----:              .---/\/--------.---/\/\/---.          |                   :----/\/\/\/----:               .---/\/--------.---/\/\/---.          |
                         |              |              |           |          |                   |               |               |              |           |          |
                         |              |              |           |          |                   |               |               |              |           |          |
               $18:6     |        12V---:              |           :---GND    |                   |     $18:2     |         12V---:              |           :---GND    |
                 |       |              |              |           |          |                   |       |       |               |              |           |          |
              =======    |              |             ===          |          |                   |     =====     |               |             ===          |          |
Mixer(H)->----/\/\/\/----'              '---/\/---.---/\/----------'          |                   :-----/\/\/-----:               :---/\/---.---/\/----------'          |
                                                  |                           |                   |               |               |         |                           |
                                                  |                           |                   |               |               |         |                           |
                                                  '---------------------------'                   |     $18:3     |               |         :---------------------------'
                                                                                                  |       |       |               |         |
                                                                                                  |      ===      |               |       =====
                                                                                                  '------/\/------'               '-------/\/\/-------------------------->-Audio-Out
