// All addresses should be 0x88.

//``PERIPHERAL EMUBUS

//``BASE 32 CTRL EMUBUS_CTRL

//``REGS s/_(\w+)_\1/_\1/

// Local Variables:
// compile-command: "python3 gen_regs_h.py test-regs.h.i test-regs.h test-regs.v"
// End:
